timeStamp,elapsed,label,responseCode,responseMessage,threadName,success,failureMessage,bytes,grpThreads,allThreads,Latency,IdleTime,Connect
1572572015905,340,HTTP Request - webapp - baremetal,200,OK,Performance web-app 1-1,true,,372,12,12,340,0,166
1572572015936,343,HTTP Request - webapp - baremetal,200,OK,Performance web-app 1-2,true,,372,13,13,343,0,170
1572572015968,354,HTTP Request - webapp - baremetal,200,OK,Performance web-app 1-3,true,,372,14,14,354,0,175
1572572015999,369,HTTP Request - webapp - baremetal,200,OK,Performance web-app 1-4,true,,372,15,15,369,0,199
1572572016030,386,HTTP Request - webapp - baremetal,200,OK,Performance web-app 1-5,true,,372,17,17,386,0,201
1572572016061,355,HTTP Request - webapp - baremetal,200,OK,Performance web-app 1-6,true,,372,17,17,355,0,176
1572572016092,333,HTTP Request - webapp - baremetal,200,OK,Performance web-app 1-7,true,,372,17,17,333,0,167
1572572016123,346,HTTP Request - webapp - baremetal,200,OK,Performance web-app 1-8,true,,372,19,19,346,0,178
1572572016153,341,HTTP Request - webapp - baremetal,200,OK,Performance web-app 1-9,true,,372,20,20,341,0,172
1572572016186,346,HTTP Request - webapp - baremetal,200,OK,Performance web-app 1-10,true,,372,21,21,346,0,173
1572572016217,336,HTTP Request - webapp - baremetal,200,OK,Performance web-app 1-11,true,,372,21,21,336,0,170
1572572016246,338,HTTP Request - webapp - baremetal,200,OK,Performance web-app 1-12,true,,372,22,22,338,0,171
1572572016246,348,HTTP Request - webapp - baremetal,200,OK,Performance web-app 1-1,true,,372,23,23,348,0,173
1572572016280,347,HTTP Request - webapp - baremetal,200,OK,Performance web-app 1-2,true,,372,24,24,347,0,172
1572572016276,355,HTTP Request - webapp - baremetal,200,OK,Performance web-app 1-13,true,,372,24,24,355,0,176
1572572016307,334,HTTP Request - webapp - baremetal,200,OK,Performance web-app 1-14,true,,372,24,24,333,0,165
1572572016323,341,HTTP Request - webapp - baremetal,200,OK,Performance web-app 1-3,true,,372,25,25,341,0,169
1572572016338,340,HTTP Request - webapp - baremetal,200,OK,Performance web-app 1-15,true,,372,25,25,340,0,169
1572572016369,334,HTTP Request - webapp - baremetal,200,OK,Performance web-app 1-4,true,,372,26,26,334,0,165
1572572016370,341,HTTP Request - webapp - baremetal,200,OK,Performance web-app 1-16,true,,372,27,27,341,0,171
1572572016401,333,HTTP Request - webapp - baremetal,200,OK,Performance web-app 1-17,true,,372,27,27,333,0,164
1572572016416,350,HTTP Request - webapp - baremetal,200,OK,Performance web-app 1-5,true,,372,28,28,350,0,166
1572572016416,355,HTTP Request - webapp - baremetal,200,OK,Performance web-app 1-6,true,,372,28,28,355,0,166
1572572016425,375,HTTP Request - webapp - baremetal,200,OK,Performance web-app 1-7,true,,372,29,29,375,0,169
1572572016431,371,HTTP Request - webapp - baremetal,200,OK,Performance web-app 1-18,true,,372,29,29,371,0,173
1572572016462,348,HTTP Request - webapp - baremetal,200,OK,Performance web-app 1-19,true,,372,30,30,348,0,164
1572572016469,367,HTTP Request - webapp - baremetal,200,OK,Performance web-app 1-8,true,,372,31,31,367,0,168
1572572016493,359,HTTP Request - webapp - baremetal,200,OK,Performance web-app 1-20,true,,372,31,31,359,0,169
1572572016495,377,HTTP Request - webapp - baremetal,200,OK,Performance web-app 1-9,true,,372,32,32,377,0,173
1572572016525,358,HTTP Request - webapp - baremetal,200,OK,Performance web-app 1-21,true,,372,32,32,358,0,168
1572572016532,371,HTTP Request - webapp - baremetal,200,OK,Performance web-app 1-10,true,,372,33,33,371,0,167
1572572016556,380,HTTP Request - webapp - baremetal,200,OK,Performance web-app 1-22,true,,372,34,34,379,0,167
1572572016553,388,HTTP Request - webapp - baremetal,200,OK,Performance web-app 1-11,true,,372,34,34,388,0,173
1572572016594,419,HTTP Request - webapp - baremetal,200,OK,Performance web-app 1-1,true,,372,36,36,419,0,168
1572572016586,428,HTTP Request - webapp - baremetal,200,OK,Performance web-app 1-23,true,,372,36,36,428,0,176
1572572016584,431,HTTP Request - webapp - baremetal,200,OK,Performance web-app 1-12,true,,372,35,35,431,0,181
1572572016618,400,HTTP Request - webapp - baremetal,200,OK,Performance web-app 1-24,true,,372,35,35,400,0,172
1572572016628,402,HTTP Request - webapp - baremetal,200,OK,Performance web-app 1-2,true,,372,36,36,402,0,168
1572572016632,408,HTTP Request - webapp - baremetal,200,OK,Performance web-app 1-13,true,,372,35,35,408,0,166
1572572016649,406,HTTP Request - webapp - baremetal,200,OK,Performance web-app 1-25,true,,372,36,36,406,0,168
1572572016642,434,HTTP Request - webapp - baremetal,200,OK,Performance web-app 1-14,true,,372,36,36,434,0,173
1572572016665,419,HTTP Request - webapp - baremetal,200,OK,Performance web-app 1-3,true,,372,37,37,418,0,168
1572572016679,424,HTTP Request - webapp - baremetal,200,OK,Performance web-app 1-15,true,,372,36,36,424,0,173
1572572016681,428,HTTP Request - webapp - baremetal,200,OK,Performance web-app 1-26,true,,372,36,36,428,0,171
1572572016704,551,HTTP Request - webapp - baremetal,200,OK,Performance web-app 1-4,true,,372,41,41,551,0,168
1572572016712,544,HTTP Request - webapp - baremetal,200,OK,Performance web-app 1-27,true,,372,41,41,544,0,168
1572572016712,546,HTTP Request - webapp - baremetal,200,OK,Performance web-app 1-16,true,,372,40,40,546,0,170
1572572016735,524,HTTP Request - webapp - baremetal,200,OK,Performance web-app 1-17,true,,372,40,40,524,0,168
1572572016744,515,HTTP Request - webapp - baremetal,200,OK,Performance web-app 1-28,true,,372,40,40,515,0,169
1572572016768,493,HTTP Request - webapp - baremetal,200,OK,Performance web-app 1-5,true,,372,40,40,493,0,168
1572572016774,487,HTTP Request - webapp - baremetal,200,OK,Performance web-app 1-29,true,,372,39,39,487,0,167
1572572016772,491,HTTP Request - webapp - baremetal,200,OK,Performance web-app 1-6,true,,372,39,39,491,0,170
1572572016801,465,HTTP Request - webapp - baremetal,200,OK,Performance web-app 1-7,true,,372,38,38,465,0,212
1572572016805,468,HTTP Request - webapp - baremetal,200,OK,Performance web-app 1-30,true,,372,38,38,468,0,209
1572572016837,445,HTTP Request - webapp - baremetal,200,OK,Performance web-app 1-31,true,,372,38,38,445,0,178
1572572016812,619,HTTP Request - webapp - baremetal,200,OK,Performance web-app 1-19,true,,372,43,43,619,0,203
1572572016853,581,HTTP Request - webapp - baremetal,200,OK,Performance web-app 1-20,true,,372,43,43,581,0,176
1572572016803,634,HTTP Request - webapp - baremetal,200,OK,Performance web-app 1-18,true,,372,43,43,633,0,211
1572572016838,599,HTTP Request - webapp - baremetal,200,OK,Performance web-app 1-8,true,,372,43,43,599,0,180
1572572016865,574,HTTP Request - webapp - baremetal,200,OK,Performance web-app 1-32,true,,372,42,42,574,0,169
1572572016873,566,HTTP Request - webapp - baremetal,200,OK,Performance web-app 1-9,true,,372,42,42,566,0,167
1572572016897,545,HTTP Request - webapp - baremetal,200,OK,Performance web-app 1-33,true,,372,41,41,545,0,165
1572572016884,559,HTTP Request - webapp - baremetal,200,OK,Performance web-app 1-21,true,,372,41,41,559,0,171
1572572016928,518,HTTP Request - webapp - baremetal,200,OK,Performance web-app 1-34,true,,372,41,41,518,0,166
1572572016904,542,HTTP Request - webapp - baremetal,200,OK,Performance web-app 1-10,true,,372,41,41,542,0,172
1572572016936,516,HTTP Request - webapp - baremetal,200,OK,Performance web-app 1-22,true,,372,40,40,516,0,167
1572572016942,658,HTTP Request - webapp - baremetal,200,OK,Performance web-app 1-11,true,,372,45,45,658,0,168
1572572016959,645,HTTP Request - webapp - baremetal,200,OK,Performance web-app 1-35,true,,372,44,44,645,0,191
1572572017016,594,HTTP Request - webapp - baremetal,200,OK,Performance web-app 1-12,true,,372,45,45,594,0,238
1572572017019,592,HTTP Request - webapp - baremetal,200,OK,Performance web-app 1-24,true,,372,45,44,592,0,235
1572572016990,628,HTTP Request - webapp - baremetal,200,OK,Performance web-app 1-36,true,,372,44,44,627,0,224
1572572017015,603,HTTP Request - webapp - baremetal,200,OK,Performance web-app 1-23,true,,372,44,44,603,0,238
1572572017051,568,HTTP Request - webapp - baremetal,200,OK,Performance web-app 1-38,true,,372,44,44,568,0,210
1572572017021,598,HTTP Request - webapp - baremetal,200,OK,Performance web-app 1-37,true,,372,44,44,598,0,235
1572572017056,571,HTTP Request - webapp - baremetal,200,OK,Performance web-app 1-25,true,,372,44,44,571,0,206
1572572017077,551,HTTP Request - webapp - baremetal,200,OK,Performance web-app 1-14,true,,372,44,44,551,0,185
1572572017082,547,HTTP Request - webapp - baremetal,200,OK,Performance web-app 1-39,true,,372,43,43,547,0,183
1572572017103,675,HTTP Request - webapp - baremetal,200,OK,Performance web-app 1-15,true,,372,48,48,675,0,168
1572572017041,740,HTTP Request - webapp - baremetal,200,OK,Performance web-app 1-13,true,,372,47,47,739,0,221
1572572017109,679,HTTP Request - webapp - baremetal,200,OK,Performance web-app 1-26,true,,372,46,46,679,0,173
1572572017113,683,HTTP Request - webapp - baremetal,200,OK,Performance web-app 1-40,true,,372,47,47,683,0,169
1572572017146,651,HTTP Request - webapp - baremetal,200,OK,Performance web-app 1-41,true,,372,47,47,651,0,207
1572572017178,621,HTTP Request - webapp - baremetal,200,OK,Performance web-app 1-42,true,,372,47,47,620,0,196
1572572017210,590,HTTP Request - webapp - baremetal,200,OK,Performance web-app 1-43,true,,372,47,47,590,0,173
1572572017239,563,HTTP Request - webapp - baremetal,200,OK,Performance web-app 1-44,true,,372,47,47,563,0,185
1572572017261,541,HTTP Request - webapp - baremetal,200,OK,Performance web-app 1-28,true,,372,47,47,541,0,172
1572572017259,566,HTTP Request - webapp - baremetal,200,OK,Performance web-app 1-16,true,,372,47,47,566,0,177
1572572017258,568,HTTP Request - webapp - baremetal,200,OK,Performance web-app 1-27,true,,372,47,47,568,0,181
1572572017260,714,HTTP Request - webapp - baremetal,200,OK,Performance web-app 1-17,true,,372,48,48,714,0,179
1572572017283,710,HTTP Request - webapp - baremetal,200,OK,Performance web-app 1-31,true,,372,47,47,710,0,168
1572572017362,637,HTTP Request - webapp - baremetal,200,OK,Performance web-app 1-48,true,,372,47,47,636,0,163
1572572017269,734,HTTP Request - webapp - baremetal,200,OK,Performance web-app 1-45,true,,372,47,47,734,0,173
1572572017274,731,HTTP Request - webapp - baremetal,200,OK,Performance web-app 1-30,true,,372,47,47,731,0,172
1572572017329,677,HTTP Request - webapp - baremetal,200,OK,Performance web-app 1-47,true,,372,47,47,677,0,165
1572572017263,745,HTTP Request - webapp - baremetal,200,OK,Performance web-app 1-29,true,,372,47,47,745,0,179
1572572017298,712,HTTP Request - webapp - baremetal,200,OK,Performance web-app 1-46,true,,372,47,47,712,0,175
1572572017392,620,HTTP Request - webapp - baremetal,200,OK,Performance web-app 1-49,true,,372,47,47,620,0,165
1572572017423,603,HTTP Request - webapp - baremetal,200,OK,Performance web-app 1-50,true,,372,47,47,603,0,165
1572572017432,595,HTTP Request - webapp - baremetal,200,OK,Performance web-app 1-19,true,,372,47,47,595,0,168
1572572017437,651,HTTP Request - webapp - baremetal,200,OK,Performance web-app 1-18,true,,372,46,46,651,0,166
1572572017434,654,HTTP Request - webapp - baremetal,200,OK,Performance web-app 1-20,true,,372,46,46,654,0,174
1572572017440,713,HTTP Request - webapp - baremetal,200,OK,Performance web-app 1-32,true,,372,44,44,713,0,177
1572572017443,735,HTTP Request - webapp - baremetal,200,OK,Performance web-app 1-21,true,,372,44,44,735,0,178
1572572017442,750,HTTP Request - webapp - baremetal,200,OK,Performance web-app 1-33,true,,372,43,43,750,0,178
1572572017454,743,HTTP Request - webapp - baremetal,200,OK,Performance web-app 1-51,true,,372,43,43,743,0,177
1572572017452,746,HTTP Request - webapp - baremetal,200,OK,Performance web-app 1-22,true,,372,43,43,746,0,179
1572572017485,720,HTTP Request - webapp - baremetal,200,OK,Performance web-app 1-52,true,,372,42,42,720,0,165
1572572017517,689,HTTP Request - webapp - baremetal,200,OK,Performance web-app 1-53,true,,372,42,42,688,0,165
1572572017446,760,HTTP Request - webapp - baremetal,200,OK,Performance web-app 1-34,true,,372,42,42,760,0,182
1572572017546,665,HTTP Request - webapp - baremetal,200,OK,Performance web-app 1-54,true,,372,42,42,665,0,168
1572572017606,631,HTTP Request - webapp - baremetal,200,OK,Performance web-app 1-35,true,,372,42,42,631,0,173
1572572017581,660,HTTP Request - webapp - baremetal,200,OK,Performance web-app 1-55,true,,372,42,42,660,0,170
1572572017613,642,HTTP Request - webapp - baremetal,200,OK,Performance web-app 1-24,true,,372,42,42,642,0,182
1572572017619,645,HTTP Request - webapp - baremetal,200,OK,Performance web-app 1-36,true,,372,41,41,645,0,177
1572572017619,703,HTTP Request - webapp - baremetal,200,OK,Performance web-app 1-23,true,,372,41,41,703,0,179
1572572017621,761,HTTP Request - webapp - baremetal,200,OK,Performance web-app 1-37,true,,372,40,40,760,0,180
1572572017621,764,HTTP Request - webapp - baremetal,200,OK,Performance web-app 1-38,true,,372,40,40,764,0,178
1572572017632,756,HTTP Request - webapp - baremetal,200,OK,Performance web-app 1-39,true,,372,40,40,756,0,194
1572572017643,746,HTTP Request - webapp - baremetal,200,OK,Performance web-app 1-57,true,,372,40,40,746,0,186
1572572017615,775,HTTP Request - webapp - baremetal,200,OK,Performance web-app 1-56,true,,372,40,40,775,0,183
1572572017628,763,HTTP Request - webapp - baremetal,200,OK,Performance web-app 1-25,true,,372,40,40,763,0,197
1572572017703,701,HTTP Request - webapp - baremetal,200,OK,Performance web-app 1-59,true,,372,39,39,701,0,171
1572572017671,734,HTTP Request - webapp - baremetal,200,OK,Performance web-app 1-58,true,,372,39,39,734,0,168
1572572017734,679,HTTP Request - webapp - baremetal,200,OK,Performance web-app 1-60,true,,372,39,39,679,0,169
1572572017765,651,HTTP Request - webapp - baremetal,200,OK,Performance web-app 1-61,true,,372,39,39,651,0,203
1572572017796,627,HTTP Request - webapp - baremetal,200,OK,Performance web-app 1-40,true,,372,39,39,627,0,178
1572572017798,633,HTTP Request - webapp - baremetal,200,OK,Performance web-app 1-41,true,,372,39,39,633,0,176
1572572017796,703,HTTP Request - webapp - baremetal,200,OK,Performance web-app 1-62,true,,372,39,39,703,0,178
1572572017789,762,HTTP Request - webapp - baremetal,200,OK,Performance web-app 1-26,true,,372,39,39,762,0,217
1572572017803,763,HTTP Request - webapp - baremetal,200,OK,Performance web-app 1-28,true,,372,38,38,763,0,206
1572572017801,765,HTTP Request - webapp - baremetal,200,OK,Performance web-app 1-43,true,,372,38,38,765,0,209
1572572017829,745,HTTP Request - webapp - baremetal,200,OK,Performance web-app 1-63,true,,372,37,37,745,0,197
1572572017828,746,HTTP Request - webapp - baremetal,200,OK,Performance web-app 1-27,true,,372,37,37,746,0,198
1572572017799,776,HTTP Request - webapp - baremetal,200,OK,Performance web-app 1-42,true,,372,37,37,776,0,212
1572572017802,776,HTTP Request - webapp - baremetal,200,OK,Performance web-app 1-44,true,,372,36,36,776,0,214
1572572017858,726,HTTP Request - webapp - baremetal,200,OK,Performance web-app 1-64,true,,372,36,36,726,0,176
1572572017995,589,HTTP Request - webapp - baremetal,200,OK,Performance web-app 1-31,true,,372,36,36,589,0,187
1572572018004,597,HTTP Request - webapp - baremetal,200,OK,Performance web-app 1-45,true,,372,35,35,597,0,193
1572572018001,600,HTTP Request - webapp - baremetal,200,OK,Performance web-app 1-48,true,,372,35,35,600,0,191
1572572018009,598,HTTP Request - webapp - baremetal,200,OK,Performance web-app 1-29,true,,372,35,35,598,0,199
1572572018008,662,HTTP Request - webapp - baremetal,200,OK,Performance web-app 1-47,true,,372,34,34,661,0,199
1572572018006,722,HTTP Request - webapp - baremetal,200,OK,Performance web-app 1-30,true,,372,34,34,722,0,203
1572572018013,774,HTTP Request - webapp - baremetal,200,OK,Performance web-app 1-49,true,,372,33,33,774,0,195
1572572018027,764,HTTP Request - webapp - baremetal,200,OK,Performance web-app 1-50,true,,372,33,33,764,0,209
1572572018011,780,HTTP Request - webapp - baremetal,200,OK,Performance web-app 1-46,true,,372,33,33,780,0,199
1572572018207,586,HTTP Request - webapp - baremetal,200,OK,Performance web-app 1-34,true,,372,33,33,585,0,184
1572572018154,639,HTTP Request - webapp - baremetal,200,OK,Performance web-app 1-32,true,,372,33,33,639,0,168
1572572018193,601,HTTP Request - webapp - baremetal,200,OK,Performance web-app 1-33,true,,372,33,33,601,0,199
1572572018198,596,HTTP Request - webapp - baremetal,200,OK,Performance web-app 1-51,true,,372,33,33,596,0,194
1572572018206,589,HTTP Request - webapp - baremetal,200,OK,Performance web-app 1-53,true,,372,32,32,589,0,185
1572572018238,558,HTTP Request - webapp - baremetal,200,OK,Performance web-app 1-35,true,,372,30,30,558,0,175
1572572018212,587,HTTP Request - webapp - baremetal,200,OK,Performance web-app 1-54,true,,372,29,29,587,0,191
1572572018206,593,HTTP Request - webapp - baremetal,200,OK,Performance web-app 1-52,true,,372,29,29,593,0,199
1572572018242,601,HTTP Request - webapp - baremetal,200,OK,Performance web-app 1-55,true,,372,29,29,601,0,172
1572572018265,638,HTTP Request - webapp - baremetal,200,OK,Performance web-app 1-36,true,,372,29,29,638,0,168
1572572018383,599,HTTP Request - webapp - baremetal,200,OK,Performance web-app 1-37,true,,372,28,28,599,0,178
1572572018405,588,HTTP Request - webapp - baremetal,200,OK,Performance web-app 1-59,true,,372,27,27,588,0,173
1572572018390,609,HTTP Request - webapp - baremetal,200,OK,Performance web-app 1-57,true,,372,27,27,609,0,175
1572572018392,615,HTTP Request - webapp - baremetal,200,OK,Performance web-app 1-56,true,,372,27,27,615,0,182
1572572018417,591,HTTP Request - webapp - baremetal,200,OK,Performance web-app 1-61,true,,372,27,27,591,0,184
1572572018386,622,HTTP Request - webapp - baremetal,200,OK,Performance web-app 1-38,true,,372,27,27,622,0,175
1572572018424,600,HTTP Request - webapp - baremetal,200,OK,Performance web-app 1-40,true,,372,26,26,600,0,177
1572572018406,619,HTTP Request - webapp - baremetal,200,OK,Performance web-app 1-58,true,,372,26,26,619,0,178
1572572018389,636,HTTP Request - webapp - baremetal,200,OK,Performance web-app 1-39,true,,372,25,25,636,0,174
1572572018414,614,HTTP Request - webapp - baremetal,200,OK,Performance web-app 1-60,true,,372,24,24,614,0,187
1572572018431,597,HTTP Request - webapp - baremetal,200,OK,Performance web-app 1-41,true,,372,24,24,597,0,176
1572572018500,530,HTTP Request - webapp - baremetal,200,OK,Performance web-app 1-62,true,,372,23,23,530,0,174
1572572018567,510,HTTP Request - webapp - baremetal,200,OK,Performance web-app 1-43,true,,372,23,23,510,0,211
1572572018579,508,HTTP Request - webapp - baremetal,200,OK,Performance web-app 1-44,true,,372,22,22,508,0,198
1572572018585,503,HTTP Request - webapp - baremetal,200,OK,Performance web-app 1-64,true,,372,22,22,502,0,198
1572572018575,514,HTTP Request - webapp - baremetal,200,OK,Performance web-app 1-63,true,,372,21,21,514,0,204
1572572018576,514,HTTP Request - webapp - baremetal,200,OK,Performance web-app 1-42,true,,372,21,21,514,0,213
1572572018601,571,HTTP Request - webapp - baremetal,200,OK,Performance web-app 1-45,true,,372,20,20,571,0,190
1572572018602,636,HTTP Request - webapp - baremetal,200,OK,Performance web-app 1-48,true,,372,19,19,636,0,188
1572572018792,447,HTTP Request - webapp - baremetal,200,OK,Performance web-app 1-50,true,,372,19,19,447,0,172
1572572018792,451,HTTP Request - webapp - baremetal,200,OK,Performance web-app 1-46,true,,372,17,17,451,0,172
1572572018671,573,HTTP Request - webapp - baremetal,200,OK,Performance web-app 1-47,true,,372,17,17,572,0,168
1572572018789,455,HTTP Request - webapp - baremetal,200,OK,Performance web-app 1-49,true,,372,17,17,455,0,176
1572572018796,451,HTTP Request - webapp - baremetal,200,OK,Performance web-app 1-53,true,,372,14,14,451,0,175
1572572018843,413,HTTP Request - webapp - baremetal,200,OK,Performance web-app 1-55,true,,372,13,13,413,0,186
1572572018800,455,HTTP Request - webapp - baremetal,200,OK,Performance web-app 1-52,true,,372,13,13,455,0,194
1572572018800,452,HTTP Request - webapp - baremetal,200,OK,Performance web-app 1-54,true,,372,13,13,452,0,184
1572572018795,456,HTTP Request - webapp - baremetal,200,OK,Performance web-app 1-51,true,,372,13,13,456,0,182
1572572019009,362,HTTP Request - webapp - baremetal,200,OK,Performance web-app 1-61,true,,372,9,9,362,0,193
1572572018995,378,HTTP Request - webapp - baremetal,200,OK,Performance web-app 1-59,true,,372,8,8,378,0,203
1572572019000,426,HTTP Request - webapp - baremetal,200,OK,Performance web-app 1-57,true,,372,7,7,426,0,241
1572572019029,401,HTTP Request - webapp - baremetal,200,OK,Performance web-app 1-60,true,,372,6,6,401,0,225
1572572019008,423,HTTP Request - webapp - baremetal,200,OK,Performance web-app 1-56,true,,372,6,6,423,0,236
1572572019025,428,HTTP Request - webapp - baremetal,200,OK,Performance web-app 1-58,true,,372,4,4,428,0,224
1572572019030,423,HTTP Request - webapp - baremetal,200,OK,Performance web-app 1-62,true,,372,4,4,423,0,224
1572572019090,364,HTTP Request - webapp - baremetal,200,OK,Performance web-app 1-63,true,,372,3,3,364,0,172
1572572019088,367,HTTP Request - webapp - baremetal,200,OK,Performance web-app 1-64,true,,372,2,2,367,0,177
