timeStamp,elapsed,label,responseCode,responseMessage,threadName,success,failureMessage,bytes,grpThreads,allThreads,Latency,IdleTime,Connect
1572967650452,495,HTTP Request - webapp - baremetal,200,OK,Performance web-app 1-1,true,,372,62,62,495,0,189
1572967650459,510,HTTP Request - webapp - baremetal,200,OK,Performance web-app 1-2,true,,372,65,65,510,0,272
1572967650499,472,HTTP Request - webapp - baremetal,200,OK,Performance web-app 1-7,true,,372,65,65,472,0,233
1572967650507,464,HTTP Request - webapp - baremetal,200,OK,Performance web-app 1-8,true,,372,65,65,464,0,226
1572967650469,503,HTTP Request - webapp - baremetal,200,OK,Performance web-app 1-3,true,,372,65,65,503,0,262
1572967650516,456,HTTP Request - webapp - baremetal,200,OK,Performance web-app 1-9,true,,372,65,65,456,0,217
1572967650483,489,HTTP Request - webapp - baremetal,200,OK,Performance web-app 1-5,true,,372,65,65,489,0,251
1572967650491,482,HTTP Request - webapp - baremetal,200,OK,Performance web-app 1-6,true,,372,65,65,482,0,244
1572967650531,443,HTTP Request - webapp - baremetal,200,OK,Performance web-app 1-11,true,,372,66,66,443,0,206
1572967650477,572,HTTP Request - webapp - baremetal,200,OK,Performance web-app 1-4,true,,372,75,75,572,0,257
1572967650523,743,HTTP Request - webapp - baremetal,200,OK,Performance web-app 1-10,true,,372,102,102,743,0,213
1572967650538,730,HTTP Request - webapp - baremetal,200,OK,Performance web-app 1-12,true,,372,103,103,730,0,306
1572967650571,698,HTTP Request - webapp - baremetal,200,OK,Performance web-app 1-16,true,,372,103,103,698,0,285
1572967650579,691,HTTP Request - webapp - baremetal,200,OK,Performance web-app 1-17,true,,372,103,103,691,0,277
1572967650587,683,HTTP Request - webapp - baremetal,200,OK,Performance web-app 1-18,true,,372,103,103,683,0,270
1572967650604,667,HTTP Request - webapp - baremetal,200,OK,Performance web-app 1-20,true,,372,103,103,667,0,253
1572967650547,724,HTTP Request - webapp - baremetal,200,OK,Performance web-app 1-13,true,,372,103,103,724,0,297
1572967650596,679,HTTP Request - webapp - baremetal,200,OK,Performance web-app 1-19,true,,372,103,103,679,0,262
1572967650611,667,HTTP Request - webapp - baremetal,200,OK,Performance web-app 1-21,true,,372,104,104,667,0,247
1572967650556,808,HTTP Request - webapp - baremetal,200,OK,Performance web-app 1-14,true,,372,115,115,808,0,306
1572967650564,1010,HTTP Request - webapp - baremetal,200,OK,Performance web-app 1-15,true,,372,141,141,1010,0,302
1572967650618,957,HTTP Request - webapp - baremetal,200,OK,Performance web-app 1-22,true,,372,141,141,957,0,250
1572967650636,939,HTTP Request - webapp - baremetal,200,OK,Performance web-app 1-24,true,,372,141,141,939,0,310
1572967650651,925,HTTP Request - webapp - baremetal,200,OK,Performance web-app 1-26,true,,372,141,141,925,0,295
1572967650643,933,HTTP Request - webapp - baremetal,200,OK,Performance web-app 1-25,true,,372,141,141,933,0,303
1572967650667,909,HTTP Request - webapp - baremetal,200,OK,Performance web-app 1-28,true,,372,141,141,909,0,292
1572967650675,901,HTTP Request - webapp - baremetal,200,OK,Performance web-app 1-29,true,,372,141,141,901,0,284
1572967650700,877,HTTP Request - webapp - baremetal,200,OK,Performance web-app 1-32,true,,372,141,141,877,0,262
1572967650626,951,HTTP Request - webapp - baremetal,200,OK,Performance web-app 1-23,true,,372,141,141,951,0,320
1572967650707,957,HTTP Request - webapp - baremetal,200,OK,Performance web-app 1-33,true,,372,152,152,957,0,259
1572967650723,1076,HTTP Request - webapp - baremetal,200,OK,Performance web-app 1-35,true,,372,169,169,1076,0,243
1572967650739,1061,HTTP Request - webapp - baremetal,200,OK,Performance web-app 1-37,true,,372,169,169,1061,0,232
1572967650731,1070,HTTP Request - webapp - baremetal,200,OK,Performance web-app 1-36,true,,372,169,169,1070,0,238
1572967650715,1086,HTTP Request - webapp - baremetal,200,OK,Performance web-app 1-34,true,,372,169,169,1086,0,252
1572967650659,1143,HTTP Request - webapp - baremetal,200,OK,Performance web-app 1-27,true,,372,169,169,1143,0,308
1572967650692,1110,HTTP Request - webapp - baremetal,200,OK,Performance web-app 1-31,true,,372,169,169,1110,0,277
1572967650683,1119,HTTP Request - webapp - baremetal,200,OK,Performance web-app 1-30,true,,372,169,169,1119,0,286
1572967650756,1111,HTTP Request - webapp - baremetal,200,OK,Performance web-app 1-39,true,,372,177,177,1111,0,293
1572967650748,1120,HTTP Request - webapp - baremetal,200,OK,Performance web-app 1-38,true,,372,177,177,1120,0,301
1572967650779,1116,HTTP Request - webapp - baremetal,200,OK,Performance web-app 1-42,true,,372,181,181,1116,0,291
1572967650796,1180,HTTP Request - webapp - baremetal,200,OK,Performance web-app 1-44,true,,372,190,190,1180,0,273
1572967650836,1256,HTTP Request - webapp - baremetal,200,OK,Performance web-app 1-49,true,,372,205,205,1256,0,237
1572967650804,1292,HTTP Request - webapp - baremetal,200,OK,Performance web-app 1-45,true,,372,206,206,1292,0,277
1572967650827,1270,HTTP Request - webapp - baremetal,200,OK,Performance web-app 1-48,true,,372,206,206,1270,0,253
1572967650812,1286,HTTP Request - webapp - baremetal,200,OK,Performance web-app 1-46,true,,372,206,206,1286,0,270
1572967650844,1255,HTTP Request - webapp - baremetal,200,OK,Performance web-app 1-50,true,,372,206,206,1255,0,312
1572967650763,1340,HTTP Request - webapp - baremetal,200,OK,Performance web-app 1-40,true,,372,207,207,1340,0,317
1572967650771,1332,HTTP Request - webapp - baremetal,200,OK,Performance web-app 1-41,true,,372,207,207,1332,0,378
1572967650787,1317,HTTP Request - webapp - baremetal,200,OK,Performance web-app 1-43,true,,372,207,207,1317,0,366
1572967650859,1245,HTTP Request - webapp - baremetal,200,OK,Performance web-app 1-52,true,,372,207,207,1245,0,299
1572967650819,1354,HTTP Request - webapp - baremetal,200,OK,Performance web-app 1-47,true,,372,216,216,1354,0,337
1572967650851,1355,HTTP Request - webapp - baremetal,200,OK,Performance web-app 1-51,true,,372,220,220,1355,0,306
1572967650867,1432,HTTP Request - webapp - baremetal,200,OK,Performance web-app 1-53,true,,372,232,232,1432,0,291
1572967650908,1392,HTTP Request - webapp - baremetal,200,OK,Performance web-app 1-58,true,,372,232,232,1392,0,347
1572967650915,1464,HTTP Request - webapp - baremetal,200,OK,Performance web-app 1-59,true,,372,242,242,1464,0,340
1572967650938,1442,HTTP Request - webapp - baremetal,200,OK,Performance web-app 1-62,true,,372,242,242,1442,0,318
1572967650898,1493,HTTP Request - webapp - baremetal,200,OK,Performance web-app 1-57,true,,372,243,243,1493,0,358
1572967650890,1502,HTTP Request - webapp - baremetal,200,OK,Performance web-app 1-56,true,,372,243,243,1502,0,366
1572967650883,1511,HTTP Request - webapp - baremetal,200,OK,Performance web-app 1-55,true,,372,243,243,1511,0,378
1572967650922,1473,HTTP Request - webapp - baremetal,200,OK,Performance web-app 1-60,true,,372,243,243,1473,0,339
1572967650948,1449,HTTP Request - webapp - baremetal,200,OK,Performance web-app 1-63,true,,372,244,244,1449,0,317
1572967650930,1468,HTTP Request - webapp - baremetal,200,OK,Performance web-app 1-61,true,,372,244,244,1468,0,335
1572967650876,1539,HTTP Request - webapp - baremetal,200,OK,Performance web-app 1-54,true,,372,246,246,1539,0,389
1572967650955,1558,HTTP Request - webapp - baremetal,200,OK,Performance web-app 1-64,true,,372,256,256,1558,0,311
1572967650948,1635,HTTP Request - webapp - baremetal,200,OK,Performance web-app 1-1,true,,372,256,256,1635,0,318
1572967650972,1629,HTTP Request - webapp - baremetal,200,OK,Performance web-app 1-9,true,,372,256,256,1629,0,296
1572967650972,1630,HTTP Request - webapp - baremetal,200,OK,Performance web-app 1-2,true,,372,256,256,1630,0,296
1572967650963,1640,HTTP Request - webapp - baremetal,200,OK,Performance web-app 1-65,true,,372,256,256,1640,0,304
1572967650972,1632,HTTP Request - webapp - baremetal,200,OK,Performance web-app 1-8,true,,372,256,256,1632,0,296
1572967650972,1633,HTTP Request - webapp - baremetal,200,OK,Performance web-app 1-3,true,,372,256,256,1633,0,298
1572967650975,1631,HTTP Request - webapp - baremetal,200,OK,Performance web-app 1-11,true,,372,256,256,1631,0,296
1572967650973,1643,HTTP Request - webapp - baremetal,200,OK,Performance web-app 1-6,true,,372,256,256,1643,0,297
1572967650974,1642,HTTP Request - webapp - baremetal,200,OK,Performance web-app 1-66,true,,372,256,256,1642,0,300
1572967650972,1749,HTTP Request - webapp - baremetal,200,OK,Performance web-app 1-7,true,,372,256,256,1749,0,302
1572967650973,1748,HTTP Request - webapp - baremetal,200,OK,Performance web-app 1-5,true,,372,256,256,1748,0,301
1572967650986,1817,HTTP Request - webapp - baremetal,200,OK,Performance web-app 1-68,true,,372,256,256,1817,0,375
1572967651002,1804,HTTP Request - webapp - baremetal,200,OK,Performance web-app 1-70,true,,372,256,256,1804,0,359
1572967651034,1773,HTTP Request - webapp - baremetal,200,OK,Performance web-app 1-74,true,,372,256,256,1773,0,329
1572967651068,1742,HTTP Request - webapp - baremetal,200,OK,Performance web-app 1-78,true,,372,256,256,1742,0,297
1572967651059,1752,HTTP Request - webapp - baremetal,200,OK,Performance web-app 1-77,true,,372,256,256,1752,0,306
1572967651020,1798,HTTP Request - webapp - baremetal,200,OK,Performance web-app 1-72,true,,372,256,256,1798,0,343
1572967651076,1745,HTTP Request - webapp - baremetal,200,OK,Performance web-app 1-79,true,,372,256,256,1744,0,289
1572967650994,1828,HTTP Request - webapp - baremetal,200,OK,Performance web-app 1-69,true,,372,256,256,1828,0,369
1572967650979,1926,HTTP Request - webapp - baremetal,200,OK,Performance web-app 1-67,true,,372,256,256,1926,0,384
1572967651011,1916,HTTP Request - webapp - baremetal,200,OK,Performance web-app 1-71,true,,372,256,256,1916,0,352
1572967651027,1900,HTTP Request - webapp - baremetal,200,OK,Performance web-app 1-73,true,,372,256,256,1900,0,337
1572967651043,1979,HTTP Request - webapp - baremetal,200,OK,Performance web-app 1-75,true,,372,256,256,1979,0,321
1572967651050,1972,HTTP Request - webapp - baremetal,200,OK,Performance web-app 1-4,true,,372,256,256,1972,0,314
1572967651051,1973,HTTP Request - webapp - baremetal,200,OK,Performance web-app 1-76,true,,372,256,256,1973,0,313
1572967651122,1907,HTTP Request - webapp - baremetal,200,OK,Performance web-app 1-85,true,,372,256,256,1906,0,349
1572967651131,1898,HTTP Request - webapp - baremetal,200,OK,Performance web-app 1-86,true,,372,256,256,1898,0,341
1572967651083,1947,HTTP Request - webapp - baremetal,200,OK,Performance web-app 1-80,true,,372,256,256,1947,0,390
1572967651114,1916,HTTP Request - webapp - baremetal,200,OK,Performance web-app 1-84,true,,372,256,256,1916,0,359
1572967651107,2008,HTTP Request - webapp - baremetal,200,OK,Performance web-app 1-83,true,,372,256,256,2008,0,367
1572967651147,1986,HTTP Request - webapp - baremetal,200,OK,Performance web-app 1-88,true,,372,256,256,1986,0,330
1572967651171,1966,HTTP Request - webapp - baremetal,200,OK,Performance web-app 1-91,true,,372,256,256,1966,0,312
1572967651090,2048,HTTP Request - webapp - baremetal,200,OK,Performance web-app 1-81,true,,372,256,256,2048,0,392
1572967651139,2008,HTTP Request - webapp - baremetal,200,OK,Performance web-app 1-87,true,,372,256,256,2008,0,343
1572967651099,2116,HTTP Request - webapp - baremetal,200,OK,Performance web-app 1-82,true,,372,256,256,2116,0,383
1572967651162,2085,HTTP Request - webapp - baremetal,200,OK,Performance web-app 1-90,true,,372,256,256,2085,0,321
1572967651155,2092,HTTP Request - webapp - baremetal,200,OK,Performance web-app 1-89,true,,372,256,256,2092,0,328
1572967651178,2070,HTTP Request - webapp - baremetal,200,OK,Performance web-app 1-92,true,,372,256,256,2070,0,305
1572967651204,2044,HTTP Request - webapp - baremetal,200,OK,Performance web-app 1-95,true,,372,256,256,2044,0,364
1572967651212,2102,HTTP Request - webapp - baremetal,200,OK,Performance web-app 1-96,true,,372,256,256,2102,0,357
1572967651243,2071,HTTP Request - webapp - baremetal,200,OK,Performance web-app 1-100,true,,372,256,256,2071,0,326
1572967651251,2066,HTTP Request - webapp - baremetal,200,OK,Performance web-app 1-101,true,,372,256,256,2066,0,318
1572967651234,2109,HTTP Request - webapp - baremetal,200,OK,Performance web-app 1-99,true,,372,256,256,2109,0,335
1572967651219,2201,HTTP Request - webapp - baremetal,200,OK,Performance web-app 1-97,true,,372,256,256,2201,0,350
1572967651227,2193,HTTP Request - webapp - baremetal,200,OK,Performance web-app 1-98,true,,372,256,256,2193,0,343
1572967651195,2332,HTTP Request - webapp - baremetal,200,OK,Performance web-app 1-94,true,,372,256,256,2332,0,374
1572967651269,2259,HTTP Request - webapp - baremetal,200,OK,Performance web-app 1-16,true,,372,256,256,2259,0,306
1572967651187,2341,HTTP Request - webapp - baremetal,200,OK,Performance web-app 1-93,true,,372,256,256,2341,0,383
1572967651271,2263,HTTP Request - webapp - baremetal,200,OK,Performance web-app 1-20,true,,372,256,256,2263,0,305
1572967651266,2268,HTTP Request - webapp - baremetal,200,OK,Performance web-app 1-10,true,,372,256,256,2268,0,307
1572967651268,2267,HTTP Request - webapp - baremetal,200,OK,Performance web-app 1-12,true,,372,256,256,2267,0,307
1572967651278,2258,HTTP Request - webapp - baremetal,200,OK,Performance web-app 1-21,true,,372,256,256,2258,0,299
1572967651271,2265,HTTP Request - webapp - baremetal,200,OK,Performance web-app 1-18,true,,372,256,256,2265,0,305
1572967651259,2278,HTTP Request - webapp - baremetal,200,OK,Performance web-app 1-102,true,,372,256,256,2278,0,314
1572967651268,2269,HTTP Request - webapp - baremetal,200,OK,Performance web-app 1-103,true,,372,256,256,2269,0,308
1572967651276,2348,HTTP Request - webapp - baremetal,200,OK,Performance web-app 1-104,true,,372,256,256,2348,0,301
1572967651275,2373,HTTP Request - webapp - baremetal,200,OK,Performance web-app 1-19,true,,372,256,256,2373,0,302
1572967651283,2365,HTTP Request - webapp - baremetal,200,OK,Performance web-app 1-105,true,,372,256,256,2365,0,294
1572967651270,2472,HTTP Request - webapp - baremetal,200,OK,Performance web-app 1-17,true,,372,256,256,2472,0,307
1572967651355,2387,HTTP Request - webapp - baremetal,200,OK,Performance web-app 1-114,true,,372,256,256,2387,0,236
1572967651271,2472,HTTP Request - webapp - baremetal,200,OK,Performance web-app 1-13,true,,372,256,256,2472,0,306
1572967651290,2458,HTTP Request - webapp - baremetal,200,OK,Performance web-app 1-106,true,,372,256,256,2458,0,301
1572967651307,2442,HTTP Request - webapp - baremetal,200,OK,Performance web-app 1-108,true,,372,256,256,2442,0,286
1572967651331,2419,HTTP Request - webapp - baremetal,200,OK,Performance web-app 1-111,true,,372,256,256,2419,0,263
1572967651362,2389,HTTP Request - webapp - baremetal,200,OK,Performance web-app 1-115,true,,372,256,256,2389,0,233
1572967651323,2428,HTTP Request - webapp - baremetal,200,OK,Performance web-app 1-110,true,,372,256,256,2428,0,271
1572967651370,2382,HTTP Request - webapp - baremetal,200,OK,Performance web-app 1-116,true,,372,256,256,2382,0,226
1572967651339,2488,HTTP Request - webapp - baremetal,200,OK,Performance web-app 1-112,true,,372,256,256,2488,0,255
1572967651299,2565,HTTP Request - webapp - baremetal,200,OK,Performance web-app 1-107,true,,372,256,256,2565,0,295
1572967651348,2586,HTTP Request - webapp - baremetal,200,OK,Performance web-app 1-113,true,,372,256,256,2586,0,246
1572967651315,2620,HTTP Request - webapp - baremetal,200,OK,Performance web-app 1-109,true,,372,256,256,2620,0,279
1572967651419,2517,HTTP Request - webapp - baremetal,200,OK,Performance web-app 1-122,true,,372,256,256,2517,0,277
1572967651387,2550,HTTP Request - webapp - baremetal,200,OK,Performance web-app 1-118,true,,372,256,256,2550,0,277
1572967651379,2561,HTTP Request - webapp - baremetal,200,OK,Performance web-app 1-117,true,,372,256,256,2561,0,285
1572967651365,2579,HTTP Request - webapp - baremetal,200,OK,Performance web-app 1-14,true,,372,256,256,2579,0,299
1572967651434,2520,HTTP Request - webapp - baremetal,200,OK,Performance web-app 1-124,true,,372,256,256,2520,0,262
1572967651427,2527,HTTP Request - webapp - baremetal,200,OK,Performance web-app 1-123,true,,372,256,256,2527,0,269
1572967651411,2544,HTTP Request - webapp - baremetal,200,OK,Performance web-app 1-121,true,,372,256,256,2544,0,285
1572967651403,2557,HTTP Request - webapp - baremetal,200,OK,Performance web-app 1-120,true,,372,256,256,2557,0,364
1572967651466,2495,HTTP Request - webapp - baremetal,200,OK,Performance web-app 1-128,true,,372,256,256,2495,0,305
1572967651475,2486,HTTP Request - webapp - baremetal,200,OK,Performance web-app 1-129,true,,372,256,256,2486,0,297
1572967651451,2511,HTTP Request - webapp - baremetal,200,OK,Performance web-app 1-126,true,,372,256,256,2511,0,316
1572967651443,2519,HTTP Request - webapp - baremetal,200,OK,Performance web-app 1-125,true,,372,256,256,2519,0,326
1572967651458,2504,HTTP Request - webapp - baremetal,200,OK,Performance web-app 1-127,true,,372,256,256,2504,0,312
1572967651394,2659,HTTP Request - webapp - baremetal,200,OK,Performance web-app 1-119,true,,372,256,256,2659,0,375
1572967651484,2670,HTTP Request - webapp - baremetal,200,OK,Performance web-app 1-130,true,,372,256,256,2670,0,289
1572967651538,2619,HTTP Request - webapp - baremetal,200,OK,Performance web-app 1-137,true,,372,256,256,2619,0,249
1572967651506,2658,HTTP Request - webapp - baremetal,200,OK,Performance web-app 1-133,true,,372,256,256,2658,0,280
1572967651498,2667,HTTP Request - webapp - baremetal,200,OK,Performance web-app 1-132,true,,372,256,256,2667,0,294
1572967651530,2637,HTTP Request - webapp - baremetal,200,OK,Performance web-app 1-136,true,,372,256,256,2637,0,262
1572967651546,2621,HTTP Request - webapp - baremetal,200,OK,Performance web-app 1-138,true,,372,256,256,2621,0,248
1572967651492,2676,HTTP Request - webapp - baremetal,200,OK,Performance web-app 1-131,true,,372,256,256,2676,0,302
1572967651523,2646,HTTP Request - webapp - baremetal,200,OK,Performance web-app 1-135,true,,372,256,256,2646,0,271
1572967651555,2681,HTTP Request - webapp - baremetal,200,OK,Performance web-app 1-139,true,,372,256,256,2681,0,240
1572967651572,2674,HTTP Request - webapp - baremetal,200,OK,Performance web-app 1-141,true,,372,256,256,2674,0,225
1572967651574,2673,HTTP Request - webapp - baremetal,200,OK,Performance web-app 1-15,true,,372,256,256,2673,0,223
1572967651516,2737,HTTP Request - webapp - baremetal,200,OK,Performance web-app 1-134,true,,372,256,256,2737,0,278
1572967651575,2680,HTTP Request - webapp - baremetal,200,OK,Performance web-app 1-22,true,,372,256,256,2680,0,222
1572967651579,2679,HTTP Request - webapp - baremetal,200,OK,Performance web-app 1-142,true,,372,256,256,2679,0,223
1572967651563,2704,HTTP Request - webapp - baremetal,200,OK,Performance web-app 1-140,true,,372,256,256,2704,0,233
1572967651576,2694,HTTP Request - webapp - baremetal,200,OK,Performance web-app 1-24,true,,372,256,256,2694,0,224
1572967651576,2696,HTTP Request - webapp - baremetal,200,OK,Performance web-app 1-26,true,,372,256,256,2696,0,224
1572967651576,2791,HTTP Request - webapp - baremetal,200,OK,Performance web-app 1-25,true,,372,256,256,2791,0,225
1572967651577,2793,HTTP Request - webapp - baremetal,200,OK,Performance web-app 1-29,true,,372,256,256,2793,0,289
1572967651577,2870,HTTP Request - webapp - baremetal,200,OK,Performance web-app 1-28,true,,372,256,256,2870,0,289
1572967651587,2860,HTTP Request - webapp - baremetal,200,OK,Performance web-app 1-143,true,,372,256,256,2860,0,280
1572967651577,2874,HTTP Request - webapp - baremetal,200,OK,Performance web-app 1-32,true,,372,256,256,2874,0,289
1572967651578,2873,HTTP Request - webapp - baremetal,200,OK,Performance web-app 1-23,true,,372,256,256,2873,0,289
1572967651602,2850,HTTP Request - webapp - baremetal,200,OK,Performance web-app 1-145,true,,372,256,256,2850,0,287
1572967651612,2842,HTTP Request - webapp - baremetal,200,OK,Performance web-app 1-146,true,,372,256,256,2842,0,279
1572967651618,2837,HTTP Request - webapp - baremetal,200,OK,Performance web-app 1-147,true,,372,256,256,2837,0,274
1572967651596,2860,HTTP Request - webapp - baremetal,200,OK,Performance web-app 1-144,true,,372,256,256,2860,0,295
1572967651628,2831,HTTP Request - webapp - baremetal,200,OK,Performance web-app 1-148,true,,372,256,256,2831,0,266
1572967651663,2797,HTTP Request - webapp - baremetal,200,OK,Performance web-app 1-152,true,,372,256,256,2797,0,232
1572967651653,2808,HTTP Request - webapp - baremetal,200,OK,Performance web-app 1-151,true,,372,256,256,2808,0,241
1572967651636,2908,HTTP Request - webapp - baremetal,200,OK,Performance web-app 1-149,true,,372,256,256,2908,0,258
1572967651678,2866,HTTP Request - webapp - baremetal,200,OK,Performance web-app 1-154,true,,372,256,256,2866,0,297
1572967651868,2698,HTTP Request - webapp - baremetal,200,OK,Performance web-app 1-38,true,,372,256,256,2698,0,227
1572967651812,2762,HTTP Request - webapp - baremetal,200,OK,Performance web-app 1-171,true,,372,256,256,2762,0,284
1572967651804,2770,HTTP Request - webapp - baremetal,200,OK,Performance web-app 1-170,true,,372,256,256,2770,0,292
1572967651852,2794,HTTP Request - webapp - baremetal,200,OK,Performance web-app 1-176,true,,372,256,256,2794,0,247
1572967651877,2778,HTTP Request - webapp - baremetal,200,OK,Performance web-app 1-179,true,,372,256,256,2778,0,226
1572967651844,2813,HTTP Request - webapp - baremetal,200,OK,Performance web-app 1-175,true,,372,256,256,2813,0,254
1572967652096,2562,HTTP Request - webapp - baremetal,200,OK,Performance web-app 1-45,true,,372,256,256,2562,0,205
1572967651802,2857,HTTP Request - webapp - baremetal,200,OK,Performance web-app 1-27,true,,372,256,256,2857,0,300
1572967652101,2558,HTTP Request - webapp - baremetal,200,OK,Performance web-app 1-207,true,,372,256,256,2558,0,287
1572967652092,2569,HTTP Request - webapp - baremetal,200,OK,Performance web-app 1-49,true,,372,256,256,2569,0,207
1572967652098,2563,HTTP Request - webapp - baremetal,200,OK,Performance web-app 1-46,true,,372,256,256,2563,0,282
1572967652179,2483,HTTP Request - webapp - baremetal,200,OK,Performance web-app 1-217,true,,372,256,256,2483,0,215
1572967652104,2558,HTTP Request - webapp - baremetal,200,OK,Performance web-app 1-41,true,,372,256,256,2558,0,290
1572967652171,2492,HTTP Request - webapp - baremetal,200,OK,Performance web-app 1-216,true,,372,256,256,2492,0,224
1572967652155,2526,HTTP Request - webapp - baremetal,200,OK,Performance web-app 1-214,true,,372,256,256,2526,0,240
1572967652123,2647,HTTP Request - webapp - baremetal,200,OK,Performance web-app 1-210,true,,372,256,256,2647,0,274
1572967652104,2668,HTTP Request - webapp - baremetal,200,OK,Performance web-app 1-52,true,,372,256,256,2668,0,293
1572967652140,2637,HTTP Request - webapp - baremetal,200,OK,Performance web-app 1-212,true,,372,256,256,2637,0,257
1572967652187,2592,HTTP Request - webapp - baremetal,200,OK,Performance web-app 1-218,true,,372,256,256,2592,0,211
1572967652163,2690,HTTP Request - webapp - baremetal,200,OK,Performance web-app 1-215,true,,372,256,256,2690,0,235
1572967652173,2695,HTTP Request - webapp - baremetal,200,OK,Performance web-app 1-47,true,,372,256,256,2695,0,225
1572967651645,3228,HTTP Request - webapp - baremetal,200,OK,Performance web-app 1-150,true,,372,256,256,3228,0,250
1572967652300,2574,HTTP Request - webapp - baremetal,200,OK,Performance web-app 1-58,true,,372,256,256,2574,0,213
1572967651694,3181,HTTP Request - webapp - baremetal,200,OK,Performance web-app 1-156,true,,372,256,256,3181,0,281
1572967652388,2487,HTTP Request - webapp - baremetal,200,OK,Performance web-app 1-243,true,,372,256,256,2487,0,215
1572967652371,2506,HTTP Request - webapp - baremetal,200,OK,Performance web-app 1-241,true,,372,256,256,2506,0,229
1572967652395,2483,HTTP Request - webapp - baremetal,200,OK,Performance web-app 1-60,true,,372,256,256,2483,0,211
1572967652396,2482,HTTP Request - webapp - baremetal,200,OK,Performance web-app 1-244,true,,372,256,256,2482,0,210
1572967652392,2488,HTTP Request - webapp - baremetal,200,OK,Performance web-app 1-56,true,,372,256,256,2488,0,214
1572967651892,2988,HTTP Request - webapp - baremetal,200,OK,Performance web-app 1-181,true,,372,256,256,2988,0,212
1572967652394,2486,HTTP Request - webapp - baremetal,200,OK,Performance web-app 1-55,true,,372,256,256,2486,0,222
1572967651885,2996,HTTP Request - webapp - baremetal,200,OK,Performance web-app 1-180,true,,372,256,256,2996,0,219
1572967651801,3080,HTTP Request - webapp - baremetal,200,OK,Performance web-app 1-34,true,,372,256,256,3080,0,294
1572967651664,3218,HTTP Request - webapp - baremetal,200,OK,Performance web-app 1-33,true,,372,256,256,3218,0,311
1572967651670,3212,HTTP Request - webapp - baremetal,200,OK,Performance web-app 1-153,true,,372,256,256,3212,0,305
1572967652605,2278,HTTP Request - webapp - baremetal,200,OK,Performance web-app 1-8,true,,372,256,256,2278,0,212
1572967652602,2369,HTTP Request - webapp - baremetal,200,OK,Performance web-app 1-9,true,,372,255,255,2369,0,205
1572967651801,3171,HTTP Request - webapp - baremetal,200,OK,Performance web-app 1-36,true,,372,255,255,3171,0,298
1572967652606,2370,HTTP Request - webapp - baremetal,200,OK,Performance web-app 1-11,true,,372,254,254,2370,0,211
1572967651710,3279,HTTP Request - webapp - baremetal,200,OK,Performance web-app 1-158,true,,372,253,253,3279,0,369
1572967652605,2388,HTTP Request - webapp - baremetal,200,OK,Performance web-app 1-3,true,,372,253,253,2388,0,213
1572967652616,2377,HTTP Request - webapp - baremetal,200,OK,Performance web-app 1-66,true,,372,253,253,2377,0,205
1572967652616,2380,HTTP Request - webapp - baremetal,200,OK,Performance web-app 1-6,true,,372,252,252,2380,0,205
1572967651701,3371,HTTP Request - webapp - baremetal,200,OK,Performance web-app 1-157,true,,372,251,251,3371,0,376
1572967652722,2457,HTTP Request - webapp - baremetal,200,OK,Performance web-app 1-5,true,,372,251,251,2457,0,294
1572967652299,2889,HTTP Request - webapp - baremetal,200,OK,Performance web-app 1-232,true,,372,250,250,2888,0,213
1572967652299,2889,HTTP Request - webapp - baremetal,200,OK,Performance web-app 1-53,true,,372,250,250,2889,0,213
1572967652807,2382,HTTP Request - webapp - baremetal,200,OK,Performance web-app 1-74,true,,372,250,250,2382,0,222
1572967652292,2898,HTTP Request - webapp - baremetal,200,OK,Performance web-app 1-231,true,,372,250,250,2898,0,220
1572967652807,2383,HTTP Request - webapp - baremetal,200,OK,Performance web-app 1-70,true,,372,250,250,2383,0,222
1572967652905,2289,HTTP Request - webapp - baremetal,200,OK,Performance web-app 1-67,true,,372,250,250,2289,0,233
1572967652276,2918,HTTP Request - webapp - baremetal,200,OK,Performance web-app 1-229,true,,372,250,250,2918,0,232
1572967652363,2832,HTTP Request - webapp - baremetal,200,OK,Performance web-app 1-240,true,,372,250,250,2832,0,234
1572967652269,2927,HTTP Request - webapp - baremetal,200,OK,Performance web-app 1-228,true,,372,250,250,2927,0,237
1572967651976,3220,HTTP Request - webapp - baremetal,200,OK,Performance web-app 1-44,true,,372,250,250,3220,0,1264
1572967652340,2856,HTTP Request - webapp - baremetal,200,OK,Performance web-app 1-237,true,,372,250,250,2856,0,258
1572967652252,2945,HTTP Request - webapp - baremetal,200,OK,Performance web-app 1-226,true,,372,250,250,2945,0,252
1572967652227,2971,HTTP Request - webapp - baremetal,200,OK,Performance web-app 1-223,true,,372,250,250,2970,0,277
1572967652379,2823,HTTP Request - webapp - baremetal,200,OK,Performance web-app 1-242,true,,372,250,250,2823,0,223
1572967652356,2847,HTTP Request - webapp - baremetal,200,OK,Performance web-app 1-239,true,,372,250,250,2847,0,243
1572967652021,3182,HTTP Request - webapp - baremetal,200,OK,Performance web-app 1-197,true,,372,250,250,3182,0,1227
1572967653030,2174,HTTP Request - webapp - baremetal,200,OK,Performance web-app 1-84,true,,372,250,250,2174,0,284
1572967653023,2181,HTTP Request - webapp - baremetal,200,OK,Performance web-app 1-4,true,,372,250,250,2181,0,226
1572967653024,2184,HTTP Request - webapp - baremetal,200,OK,Performance web-app 1-76,true,,372,249,249,2184,0,291
1572967652584,2625,HTTP Request - webapp - baremetal,200,OK,Performance web-app 1-1,true,,372,249,249,2625,0,215
1572967652038,3175,HTTP Request - webapp - baremetal,200,OK,Performance web-app 1-199,true,,372,248,248,3175,0,1279
1572967653030,2183,HTTP Request - webapp - baremetal,200,OK,Performance web-app 1-86,true,,372,248,248,2183,0,287
1572967652418,2795,HTTP Request - webapp - baremetal,200,OK,Performance web-app 1-247,true,,372,248,248,2795,0,295
1572967651837,3472,HTTP Request - webapp - baremetal,200,OK,Performance web-app 1-174,true,,372,248,248,3472,0,261
1572967652207,3388,HTTP Request - webapp - baremetal,200,OK,Performance web-app 1-51,true,,372,248,248,3388,0,193
1572967653248,2348,HTTP Request - webapp - baremetal,200,OK,Performance web-app 1-95,true,,372,248,248,2348,0,285
1572967653247,2350,HTTP Request - webapp - baremetal,200,OK,Performance web-app 1-89,true,,372,248,248,2350,0,285
1572967653314,2283,HTTP Request - webapp - baremetal,200,OK,Performance web-app 1-96,true,,372,248,248,2283,0,221
1572967652196,3403,HTTP Request - webapp - baremetal,200,OK,Performance web-app 1-219,true,,372,248,248,3403,0,203
1572967653248,2352,HTTP Request - webapp - baremetal,200,OK,Performance web-app 1-92,true,,372,248,248,2352,0,289
1572967651821,3791,HTTP Request - webapp - baremetal,200,OK,Performance web-app 1-172,true,,372,248,248,3791,0,275
1572967651800,3813,HTTP Request - webapp - baremetal,200,OK,Performance web-app 1-35,true,,372,248,248,3813,0,290
1572967651800,3814,HTTP Request - webapp - baremetal,200,OK,Performance web-app 1-37,true,,372,248,248,3814,0,291
1572967651789,3826,HTTP Request - webapp - baremetal,200,OK,Performance web-app 1-168,true,,372,248,248,3826,0,293
1572967653420,2195,HTTP Request - webapp - baremetal,200,OK,Performance web-app 1-97,true,,372,248,248,2195,0,230
1572967651798,3820,HTTP Request - webapp - baremetal,200,OK,Performance web-app 1-169,true,,372,248,248,3819,0,293
1572967651781,3838,HTTP Request - webapp - baremetal,200,OK,Performance web-app 1-167,true,,372,248,248,3838,0,301
1572967652927,2693,HTTP Request - webapp - baremetal,200,OK,Performance web-app 1-71,true,,372,248,248,2693,0,216
1572967652427,3257,HTTP Request - webapp - baremetal,200,OK,Performance web-app 1-248,true,,372,248,248,3257,0,1224
1572967651774,3912,HTTP Request - webapp - baremetal,200,OK,Performance web-app 1-166,true,,372,248,248,3912,0,308
1572967652928,2759,HTTP Request - webapp - baremetal,200,OK,Performance web-app 1-73,true,,372,248,248,2759,0,218
1572967651766,3922,HTTP Request - webapp - baremetal,200,OK,Performance web-app 1-165,true,,372,248,248,3922,0,308
1572967653535,2156,HTTP Request - webapp - baremetal,200,OK,Performance web-app 1-12,true,,372,248,248,2156,0,209
1572967653535,2161,HTTP Request - webapp - baremetal,200,OK,Performance web-app 1-10,true,,372,247,247,2161,0,218
1572967653536,2160,HTTP Request - webapp - baremetal,200,OK,Performance web-app 1-18,true,,372,247,247,2160,0,213
1572967652818,2878,HTTP Request - webapp - baremetal,200,OK,Performance web-app 1-72,true,,372,247,247,2878,0,295
1572967653537,2162,HTTP Request - webapp - baremetal,200,OK,Performance web-app 1-102,true,,372,245,245,2162,0,212
1572967653528,2172,HTTP Request - webapp - baremetal,200,OK,Performance web-app 1-93,true,,372,245,245,2172,0,216
1572967652811,2889,HTTP Request - webapp - baremetal,200,OK,Performance web-app 1-78,true,,372,245,245,2889,0,301
1572967653029,2866,HTTP Request - webapp - baremetal,200,OK,Performance web-app 1-85,true,,372,245,245,2866,0,218
1572967653625,2273,HTTP Request - webapp - baremetal,200,OK,Performance web-app 1-104,true,,372,245,245,2273,0,237
1572967651742,4157,HTTP Request - webapp - baremetal,200,OK,Performance web-app 1-162,true,,372,245,245,4157,0,331
1572967653648,2252,HTTP Request - webapp - baremetal,200,OK,Performance web-app 1-105,true,,372,245,245,2252,0,287
1572967651734,4167,HTTP Request - webapp - baremetal,200,OK,Performance web-app 1-161,true,,372,245,245,4167,0,345
1572967653748,2160,HTTP Request - webapp - baremetal,200,OK,Performance web-app 1-106,true,,372,245,245,2160,0,212
1572967653744,2165,HTTP Request - webapp - baremetal,200,OK,Performance web-app 1-13,true,,372,245,245,2165,0,216
1572967653751,2163,HTTP Request - webapp - baremetal,200,OK,Performance web-app 1-111,true,,372,244,244,2163,0,210
1572967653751,2163,HTTP Request - webapp - baremetal,200,OK,Performance web-app 1-115,true,,372,244,244,2163,0,209
1572967652324,3590,HTTP Request - webapp - baremetal,200,OK,Performance web-app 1-235,true,,372,244,244,3590,0,275
1572967653743,2171,HTTP Request - webapp - baremetal,200,OK,Performance web-app 1-114,true,,372,244,244,2171,0,217
1572967652317,3597,HTTP Request - webapp - baremetal,200,OK,Performance web-app 1-234,true,,372,244,244,3597,0,281
1572967653752,2162,HTTP Request - webapp - baremetal,200,OK,Performance web-app 1-110,true,,372,244,244,2162,0,208
1572967653742,2173,HTTP Request - webapp - baremetal,200,OK,Performance web-app 1-17,true,,372,244,244,2173,0,218
1572967653749,2170,HTTP Request - webapp - baremetal,200,OK,Performance web-app 1-108,true,,372,243,243,2170,0,212
1572967652307,3613,HTTP Request - webapp - baremetal,200,OK,Performance web-app 1-233,true,,372,243,243,3613,0,276
1572967652331,3589,HTTP Request - webapp - baremetal,200,OK,Performance web-app 1-236,true,,372,243,243,3589,0,266
1572967653752,2168,HTTP Request - webapp - baremetal,200,OK,Performance web-app 1-116,true,,372,243,243,2168,0,281
1572967652436,3484,HTTP Request - webapp - baremetal,200,OK,Performance web-app 1-249,true,,372,243,243,3484,0,277
1572967653536,2385,HTTP Request - webapp - baremetal,200,OK,Performance web-app 1-21,true,,372,243,243,2385,0,210
1572967653945,1976,HTTP Request - webapp - baremetal,200,OK,Performance web-app 1-14,true,,372,243,243,1976,0,223
1572967653935,1986,HTTP Request - webapp - baremetal,200,OK,Performance web-app 1-113,true,,372,243,243,1986,0,229
1572967652211,3711,HTTP Request - webapp - baremetal,200,OK,Performance web-app 1-221,true,,372,243,243,3711,0,296
1572967653534,2392,HTTP Request - webapp - baremetal,200,OK,Performance web-app 1-20,true,,372,242,242,2392,0,211
1572967653343,2588,HTTP Request - webapp - baremetal,200,OK,Performance web-app 1-99,true,,372,241,241,2588,0,281
1572967653960,1972,HTTP Request - webapp - baremetal,200,OK,Performance web-app 1-121,true,,372,241,241,1972,0,287
1572967652219,3697,HTTP Request - webapp - baremetal,200,OK,Performance web-app 1-222,true,,372,243,243,3697,0,288
1572967653955,1977,HTTP Request - webapp - baremetal,200,OK,Performance web-app 1-123,true,,372,241,241,1977,0,298
1572967653937,1995,HTTP Request - webapp - baremetal,200,OK,Performance web-app 1-118,true,,372,241,241,1995,0,230
1572967653936,1986,HTTP Request - webapp - baremetal,200,OK,Performance web-app 1-109,true,,372,241,241,1986,0,229
1572967653940,1996,HTTP Request - webapp - baremetal,200,OK,Performance web-app 1-117,true,,372,240,240,1996,0,228
1572967653538,2399,HTTP Request - webapp - baremetal,200,OK,Performance web-app 1-103,true,,372,240,240,2399,0,212
1572967654158,1779,HTTP Request - webapp - baremetal,200,OK,Performance web-app 1-137,true,,372,240,240,1779,0,288
1572967653147,2790,HTTP Request - webapp - baremetal,200,OK,Performance web-app 1-87,true,,372,240,240,2790,0,380
1572967653962,1975,HTTP Request - webapp - baremetal,200,OK,Performance web-app 1-129,true,,372,240,240,1975,0,308
1572967653030,2908,HTTP Request - webapp - baremetal,200,OK,Performance web-app 1-80,true,,372,240,240,2907,0,218
1572967653961,1977,HTTP Request - webapp - baremetal,200,OK,Performance web-app 1-128,true,,372,240,240,1977,0,298
1572967653215,2723,HTTP Request - webapp - baremetal,200,OK,Performance web-app 1-82,true,,372,240,240,2723,0,313
1572967653137,2789,HTTP Request - webapp - baremetal,200,OK,Performance web-app 1-91,true,,372,241,241,2789,0,390
1572967654165,1829,HTTP Request - webapp - baremetal,200,OK,Performance web-app 1-133,true,,372,240,240,1829,0,285
1572967654166,1828,HTTP Request - webapp - baremetal,200,OK,Performance web-app 1-132,true,,372,240,240,1828,0,284
1572967654169,2048,HTTP Request - webapp - baremetal,200,OK,Performance web-app 1-131,true,,372,240,240,2048,0,282
1572967654169,2051,HTTP Request - webapp - baremetal,200,OK,Performance web-app 1-135,true,,372,240,240,2051,0,282
1572967654247,1978,HTTP Request - webapp - baremetal,200,OK,Performance web-app 1-141,true,,372,240,240,1978,0,210
1572967654237,1989,HTTP Request - webapp - baremetal,200,OK,Performance web-app 1-139,true,,372,240,240,1989,0,215
1572967654167,2065,HTTP Request - webapp - baremetal,200,OK,Performance web-app 1-136,true,,372,240,240,2065,0,285
1572967654254,1980,HTTP Request - webapp - baremetal,200,OK,Performance web-app 1-134,true,,372,240,240,1980,0,205
1572967654247,1989,HTTP Request - webapp - baremetal,200,OK,Performance web-app 1-15,true,,372,240,240,1989,0,212
1572967653134,3103,HTTP Request - webapp - baremetal,200,OK,Performance web-app 1-88,true,,372,240,240,3103,0,209
1572967652204,4037,HTTP Request - webapp - baremetal,200,OK,Performance web-app 1-220,true,,372,239,239,4037,0,196
1572967654370,1871,HTTP Request - webapp - baremetal,200,OK,Performance web-app 1-29,true,,372,239,239,1871,0,283
1572967654455,1786,HTTP Request - webapp - baremetal,200,OK,Performance web-app 1-146,true,,372,239,239,1786,0,203
1572967654447,1794,HTTP Request - webapp - baremetal,200,OK,Performance web-app 1-28,true,,372,239,239,1794,0,210
1572967651758,4491,HTTP Request - webapp - baremetal,200,OK,Performance web-app 1-164,true,,372,238,238,4491,0,247
1572967654663,1586,HTTP Request - webapp - baremetal,200,OK,Performance web-app 1-216,true,,372,238,238,1586,0,214
1572967654574,1675,HTTP Request - webapp - baremetal,200,OK,Performance web-app 1-170,true,,372,238,238,1675,0,279
1572967654259,1990,HTTP Request - webapp - baremetal,200,OK,Performance web-app 1-142,true,,372,238,238,1990,0,202
1572967653937,2312,HTTP Request - webapp - baremetal,200,OK,Performance web-app 1-122,true,,372,238,238,2312,0,217
1572967651860,4390,HTTP Request - webapp - baremetal,200,OK,Performance web-app 1-177,true,,372,238,238,4389,0,243
1572967654657,1593,HTTP Request - webapp - baremetal,200,OK,Performance web-app 1-175,true,,372,238,238,1593,0,215
1572967654574,1676,HTTP Request - webapp - baremetal,200,OK,Performance web-app 1-171,true,,372,238,238,1676,0,204
1572967654656,1594,HTTP Request - webapp - baremetal,200,OK,Performance web-app 1-179,true,,372,238,238,1594,0,216
1572967653648,2603,HTTP Request - webapp - baremetal,200,OK,Performance web-app 1-19,true,,372,238,238,2602,0,1220
1572967654544,1707,HTTP Request - webapp - baremetal,200,OK,Performance web-app 1-149,true,,372,238,238,1707,0,225
1572967654646,1605,HTTP Request - webapp - baremetal,200,OK,Performance web-app 1-176,true,,372,238,238,1605,0,221
1572967654659,1592,HTTP Request - webapp - baremetal,200,OK,Performance web-app 1-27,true,,372,238,238,1592,0,217
1572967651749,4502,HTTP Request - webapp - baremetal,200,OK,Performance web-app 1-163,true,,372,238,238,4502,0,257
1572967653865,2386,HTTP Request - webapp - baremetal,200,OK,Performance web-app 1-107,true,,372,238,238,2386,0,287
1572967654567,1684,HTTP Request - webapp - baremetal,200,OK,Performance web-app 1-38,true,,372,238,238,1684,0,205
1572967652811,3441,HTTP Request - webapp - baremetal,200,OK,Performance web-app 1-77,true,,372,238,238,3441,0,300
1572967654544,1708,HTTP Request - webapp - baremetal,200,OK,Performance web-app 1-154,true,,372,237,237,1708,0,225
1572967651867,4385,HTTP Request - webapp - baremetal,200,OK,Performance web-app 1-39,true,,372,237,237,4385,0,236
1572967653315,2937,HTTP Request - webapp - baremetal,200,OK,Performance web-app 1-100,true,,372,237,237,2937,0,218
1572967651869,4383,HTTP Request - webapp - baremetal,200,OK,Performance web-app 1-178,true,,372,236,236,4383,0,234
1572967654455,1798,HTTP Request - webapp - baremetal,200,OK,Performance web-app 1-147,true,,372,236,236,1798,0,206
1572967654460,1793,HTTP Request - webapp - baremetal,200,OK,Performance web-app 1-152,true,,372,235,235,1793,0,202
1572967654459,1794,HTTP Request - webapp - baremetal,200,OK,Performance web-app 1-148,true,,372,235,235,1794,0,203
1572967654452,1802,HTTP Request - webapp - baremetal,200,OK,Performance web-app 1-23,true,,372,234,234,1802,0,207
1572967653115,3139,HTTP Request - webapp - baremetal,200,OK,Performance web-app 1-83,true,,372,234,234,3139,0,228
1572967654448,1806,HTTP Request - webapp - baremetal,200,OK,Performance web-app 1-143,true,,372,234,234,1806,0,209
1572967653828,2426,HTTP Request - webapp - baremetal,200,OK,Performance web-app 1-112,true,,372,234,234,2426,0,229
1572967654662,1638,HTTP Request - webapp - baremetal,200,OK,Performance web-app 1-41,true,,372,233,233,1638,0,215
1572967654659,1955,HTTP Request - webapp - baremetal,200,OK,Performance web-app 1-45,true,,372,232,232,1955,0,217
1572967654661,1979,HTTP Request - webapp - baremetal,200,OK,Performance web-app 1-49,true,,372,231,231,1979,0,215
1572967654662,1979,HTTP Request - webapp - baremetal,200,OK,Performance web-app 1-217,true,,372,230,230,1979,0,215
1572967654660,2046,HTTP Request - webapp - baremetal,200,OK,Performance web-app 1-207,true,,372,230,230,2046,0,216
1572967653961,2750,HTTP Request - webapp - baremetal,200,OK,Performance web-app 1-120,true,,372,230,230,2750,0,298
1572967653955,2756,HTTP Request - webapp - baremetal,200,OK,Performance web-app 1-124,true,,372,230,230,2756,0,304
1572967654662,2049,HTTP Request - webapp - baremetal,200,OK,Performance web-app 1-46,true,,372,230,230,2049,0,217
1572967653420,3292,HTTP Request - webapp - baremetal,200,OK,Performance web-app 1-98,true,,372,230,230,3292,0,230
1572967653962,2751,HTTP Request - webapp - baremetal,200,OK,Performance web-app 1-126,true,,372,229,229,2751,0,304
1572967654256,2460,HTTP Request - webapp - baremetal,200,OK,Performance web-app 1-22,true,,372,229,229,2460,0,204
1572967653962,2754,HTTP Request - webapp - baremetal,200,OK,Performance web-app 1-125,true,,372,229,229,2754,0,304
1572967654681,2037,HTTP Request - webapp - baremetal,200,OK,Performance web-app 1-214,true,,372,228,228,2037,0,300
1572967653963,2756,HTTP Request - webapp - baremetal,200,OK,Performance web-app 1-127,true,,372,228,228,2756,0,307
1572967652391,4334,HTTP Request - webapp - baremetal,200,OK,Performance web-app 1-57,true,,372,228,228,4334,0,212
1572967654770,1956,HTTP Request - webapp - baremetal,200,OK,Performance web-app 1-210,true,,372,228,228,1956,0,220
1572967654773,1953,HTTP Request - webapp - baremetal,200,OK,Performance web-app 1-52,true,,372,228,228,1953,0,223
1572967653247,3480,HTTP Request - webapp - baremetal,200,OK,Performance web-app 1-90,true,,372,227,227,3480,0,285
1572967654778,1949,HTTP Request - webapp - baremetal,200,OK,Performance web-app 1-212,true,,372,227,227,1949,0,218
1572967651828,4900,HTTP Request - webapp - baremetal,200,OK,Performance web-app 1-173,true,,372,227,227,4900,0,269
1572967652284,4444,HTTP Request - webapp - baremetal,200,OK,Performance web-app 1-230,true,,372,227,227,4444,0,228
1572967654780,1949,HTTP Request - webapp - baremetal,200,OK,Performance web-app 1-218,true,,372,227,227,1948,0,321
1572967654168,2562,HTTP Request - webapp - baremetal,200,OK,Performance web-app 1-138,true,,372,227,227,2562,0,284
1572967654869,1861,HTTP Request - webapp - baremetal,200,OK,Performance web-app 1-47,true,,372,227,227,1861,0,319
1572967654879,1852,HTTP Request - webapp - baremetal,200,OK,Performance web-app 1-244,true,,372,227,227,1852,0,313
1572967654878,1853,HTTP Request - webapp - baremetal,200,OK,Performance web-app 1-241,true,,372,227,227,1853,0,313
1572967654853,1879,HTTP Request - webapp - baremetal,200,OK,Performance web-app 1-215,true,,372,226,226,1879,0,326
1572967654880,1856,HTTP Request - webapp - baremetal,200,OK,Performance web-app 1-181,true,,372,226,226,1856,0,313
1572967654874,1862,HTTP Request - webapp - baremetal,200,OK,Performance web-app 1-150,true,,372,226,226,1862,0,316
1572967654882,1860,HTTP Request - webapp - baremetal,200,OK,Performance web-app 1-180,true,,372,226,226,1860,0,312
1572967654880,1862,HTTP Request - webapp - baremetal,200,OK,Performance web-app 1-56,true,,372,226,226,1862,0,315
1572967651896,4848,HTTP Request - webapp - baremetal,200,OK,Performance web-app 1-42,true,,372,225,225,4848,0,3301
1572967654881,1863,HTTP Request - webapp - baremetal,200,OK,Performance web-app 1-55,true,,372,225,225,1863,0,315
1572967654976,1769,HTTP Request - webapp - baremetal,200,OK,Performance web-app 1-36,true,,372,224,224,1769,0,228
1572967654994,1752,HTTP Request - webapp - baremetal,200,OK,Performance web-app 1-66,true,,372,223,223,1752,0,215
1572967654878,1870,HTTP Request - webapp - baremetal,200,OK,Performance web-app 1-60,true,,372,222,222,1870,0,324
1572967654882,1867,HTTP Request - webapp - baremetal,200,OK,Performance web-app 1-33,true,,372,222,222,1867,0,321
1572967652029,4720,HTTP Request - webapp - baremetal,200,OK,Performance web-app 1-198,true,,372,220,220,4720,0,1219
1572967652004,4746,HTTP Request - webapp - baremetal,200,OK,Performance web-app 1-195,true,,372,220,220,4746,0,1238
1572967652013,4737,HTTP Request - webapp - baremetal,200,OK,Performance web-app 1-196,true,,372,220,220,4737,0,1233
1572967654990,1761,HTTP Request - webapp - baremetal,200,OK,Performance web-app 1-158,true,,372,220,220,1761,0,218
1572967651998,4754,HTTP Request - webapp - baremetal,200,OK,Performance web-app 1-194,true,,372,220,220,4754,0,1245
1572967651990,4925,HTTP Request - webapp - baremetal,200,OK,Performance web-app 1-193,true,,372,220,220,4925,0,1251
1572967652259,4790,HTTP Request - webapp - baremetal,200,OK,Performance web-app 1-227,true,,372,220,220,4790,0,248
1572967654054,2995,HTTP Request - webapp - baremetal,200,OK,Performance web-app 1-119,true,,372,220,220,2995,0,1249
1572967651981,5069,HTTP Request - webapp - baremetal,200,OK,Performance web-app 1-192,true,,372,220,220,5069,0,1265
1572967651932,5118,HTTP Request - webapp - baremetal,200,OK,Performance web-app 1-186,true,,372,220,220,5118,0,1283
1572967652104,4949,HTTP Request - webapp - baremetal,200,OK,Performance web-app 1-43,true,,372,220,220,4949,0,1233
1572967655189,1864,HTTP Request - webapp - baremetal,200,OK,Performance web-app 1-53,true,,372,220,220,1864,0,407
1572967655190,1866,HTTP Request - webapp - baremetal,200,OK,Performance web-app 1-74,true,,372,219,219,1866,0,406
1572967655203,1853,HTTP Request - webapp - baremetal,200,OK,Performance web-app 1-242,true,,372,219,219,1853,0,412
1572967655204,1854,HTTP Request - webapp - baremetal,200,OK,Performance web-app 1-84,true,,372,218,218,1854,0,412
1572967652444,4614,HTTP Request - webapp - baremetal,200,OK,Performance web-app 1-250,true,,372,218,218,4614,0,1207
1572967655197,1862,HTTP Request - webapp - baremetal,200,OK,Performance web-app 1-237,true,,372,217,217,1862,0,419
1572967655203,1857,HTTP Request - webapp - baremetal,200,OK,Performance web-app 1-239,true,,372,217,217,1857,0,413
1572967655188,1872,HTTP Request - webapp - baremetal,200,OK,Performance web-app 1-232,true,,372,217,217,1872,0,412
1572967655195,1935,HTTP Request - webapp - baremetal,200,OK,Performance web-app 1-240,true,,372,217,217,1935,0,420
1572967655204,1926,HTTP Request - webapp - baremetal,200,OK,Performance web-app 1-197,true,,372,217,217,1926,0,412
1572967655213,1917,HTTP Request - webapp - baremetal,200,OK,Performance web-app 1-86,true,,372,217,217,1917,0,407
1572967655196,1934,HTTP Request - webapp - baremetal,200,OK,Performance web-app 1-228,true,,372,217,217,1934,0,419
1572967655198,1932,HTTP Request - webapp - baremetal,200,OK,Performance web-app 1-223,true,,372,217,217,1932,0,418
1572967655209,1921,HTTP Request - webapp - baremetal,200,OK,Performance web-app 1-76,true,,372,216,216,1921,0,410
1572967655197,1934,HTTP Request - webapp - baremetal,200,OK,Performance web-app 1-44,true,,372,215,215,1934,0,419
1572967655213,1920,HTTP Request - webapp - baremetal,200,OK,Performance web-app 1-199,true,,372,214,214,1920,0,479
1572967652475,4658,HTTP Request - webapp - baremetal,200,OK,Performance web-app 1-254,true,,372,214,214,4658,0,1260
1572967654267,2869,HTTP Request - webapp - baremetal,200,OK,Performance web-app 1-140,true,,372,214,214,2869,0,1429
1572967651726,5409,HTTP Request - webapp - baremetal,200,OK,Performance web-app 1-160,true,,372,214,214,5409,0,345
1572967652459,4675,HTTP Request - webapp - baremetal,200,OK,Performance web-app 1-252,true,,372,214,214,4675,0,1277
1572967653022,4112,HTTP Request - webapp - baremetal,200,OK,Performance web-app 1-75,true,,372,214,214,4112,0,224
1572967655197,1937,HTTP Request - webapp - baremetal,200,OK,Performance web-app 1-226,true,,372,214,214,1937,0,488
1572967652415,4719,HTTP Request - webapp - baremetal,200,OK,Performance web-app 1-54,true,,372,214,214,4719,0,1234
1572967654875,2268,HTTP Request - webapp - baremetal,200,OK,Performance web-app 1-156,true,,372,214,214,2268,0,317
1572967654882,2261,HTTP Request - webapp - baremetal,200,OK,Performance web-app 1-153,true,,372,214,214,2261,0,311
1572967654273,2871,HTTP Request - webapp - baremetal,200,OK,Performance web-app 1-26,true,,372,214,214,2871,0,1423
1572967654271,2874,HTTP Request - webapp - baremetal,200,OK,Performance web-app 1-24,true,,372,213,213,2874,0,1425
1572967654882,2263,HTTP Request - webapp - baremetal,200,OK,Performance web-app 1-34,true,,372,213,213,2263,0,311
1572967654876,2269,HTTP Request - webapp - baremetal,200,OK,Performance web-app 1-243,true,,372,211,211,2269,0,317
1572967655214,1931,HTTP Request - webapp - baremetal,200,OK,Performance web-app 1-247,true,,372,211,211,1931,0,482
1572967655073,2073,HTTP Request - webapp - baremetal,200,OK,Performance web-app 1-157,true,,372,211,211,2073,0,236
1572967652602,4545,HTTP Request - webapp - baremetal,200,OK,Performance web-app 1-2,true,,372,211,211,4545,0,3301
1572967655596,1552,HTTP Request - webapp - baremetal,200,OK,Performance web-app 1-95,true,,372,211,211,1552,0,306
1572967655600,1548,HTTP Request - webapp - baremetal,200,OK,Performance web-app 1-219,true,,372,209,209,1548,0,307
1572967655597,1551,HTTP Request - webapp - baremetal,200,OK,Performance web-app 1-89,true,,372,209,209,1551,0,300
1572967655597,1552,HTTP Request - webapp - baremetal,200,OK,Performance web-app 1-96,true,,372,208,208,1552,0,305
1572967655596,1553,HTTP Request - webapp - baremetal,200,OK,Performance web-app 1-51,true,,372,207,207,1553,0,304
1572967652603,4546,HTTP Request - webapp - baremetal,200,OK,Performance web-app 1-65,true,,372,207,207,4546,0,1257
1572967654874,2275,HTTP Request - webapp - baremetal,200,OK,Performance web-app 1-58,true,,372,206,206,2275,0,317
1572967655613,1540,HTTP Request - webapp - baremetal,200,OK,Performance web-app 1-37,true,,372,205,205,1540,0,300
1572967655615,1540,HTTP Request - webapp - baremetal,200,OK,Performance web-app 1-97,true,,372,204,204,1540,0,297
1572967655613,1542,HTTP Request - webapp - baremetal,200,OK,Performance web-app 1-35,true,,372,204,204,1542,0,306
1572967655612,1543,HTTP Request - webapp - baremetal,200,OK,Performance web-app 1-172,true,,372,203,203,1543,0,306
1572967655600,1556,HTTP Request - webapp - baremetal,200,OK,Performance web-app 1-92,true,,372,202,202,1556,0,308
1572967655618,1537,HTTP Request - webapp - baremetal,200,OK,Performance web-app 1-167,true,,372,202,202,1537,0,306
1572967655617,1541,HTTP Request - webapp - baremetal,200,OK,Performance web-app 1-169,true,,372,201,201,1541,0,303
1572967655687,1472,HTTP Request - webapp - baremetal,200,OK,Performance web-app 1-165,true,,372,201,201,1472,0,243
1572967655684,1475,HTTP Request - webapp - baremetal,200,OK,Performance web-app 1-248,true,,372,201,201,1475,0,247
1572967655685,1474,HTTP Request - webapp - baremetal,200,OK,Performance web-app 1-166,true,,372,201,201,1474,0,245
1572967655699,1461,HTTP Request - webapp - baremetal,200,OK,Performance web-app 1-78,true,,372,201,201,1461,0,237
1572967655687,1473,HTTP Request - webapp - baremetal,200,OK,Performance web-app 1-73,true,,372,201,201,1473,0,243
1572967655699,1461,HTTP Request - webapp - baremetal,200,OK,Performance web-app 1-72,true,,372,200,200,1461,0,238
1572967655614,1546,HTTP Request - webapp - baremetal,200,OK,Performance web-app 1-168,true,,372,199,199,1546,0,311
1572967655619,1541,HTTP Request - webapp - baremetal,200,OK,Performance web-app 1-71,true,,372,198,198,1541,0,316
1572967655699,1462,HTTP Request - webapp - baremetal,200,OK,Performance web-app 1-102,true,,372,197,197,1462,0,231
1572967655699,1462,HTTP Request - webapp - baremetal,200,OK,Performance web-app 1-93,true,,372,196,196,1462,0,232
1572967652822,4341,HTTP Request - webapp - baremetal,200,OK,Performance web-app 1-69,true,,372,196,196,4341,0,3385
1572967655895,1267,HTTP Request - webapp - baremetal,200,OK,Performance web-app 1-85,true,,372,195,195,1267,0,322
1572967655900,1262,HTTP Request - webapp - baremetal,200,OK,Performance web-app 1-105,true,,372,195,195,1262,0,318
1572967651718,5445,HTTP Request - webapp - baremetal,200,OK,Performance web-app 1-159,true,,372,193,193,5445,0,360
1572967655901,1261,HTTP Request - webapp - baremetal,200,OK,Performance web-app 1-161,true,,372,193,193,1261,0,317
1572967652721,4443,HTTP Request - webapp - baremetal,200,OK,Performance web-app 1-7,true,,372,193,193,4443,0,3287
1572967652821,4343,HTTP Request - webapp - baremetal,200,OK,Performance web-app 1-79,true,,372,193,193,4343,0,3388
1572967652803,4361,HTTP Request - webapp - baremetal,200,OK,Performance web-app 1-68,true,,372,192,192,4361,0,3208
1572967655913,1250,HTTP Request - webapp - baremetal,200,OK,Performance web-app 1-115,true,,372,192,192,1250,0,320
1572967655897,1270,HTTP Request - webapp - baremetal,200,OK,Performance web-app 1-104,true,,372,191,191,1270,0,325
1572967655907,1260,HTTP Request - webapp - baremetal,200,OK,Performance web-app 1-106,true,,372,190,190,1260,0,327
1572967655913,1327,HTTP Request - webapp - baremetal,200,OK,Performance web-app 1-235,true,,372,189,189,1327,0,321
1572967655899,1473,HTTP Request - webapp - baremetal,200,OK,Performance web-app 1-162,true,,372,189,189,1473,0,327
1572967655913,1460,HTTP Request - webapp - baremetal,200,OK,Performance web-app 1-114,true,,372,189,189,1460,0,327
1572967655920,1453,HTTP Request - webapp - baremetal,200,OK,Performance web-app 1-233,true,,372,189,189,1453,0,328
1572967655919,1458,HTTP Request - webapp - baremetal,200,OK,Performance web-app 1-236,true,,372,188,188,1458,0,329
1572967655914,1523,HTTP Request - webapp - baremetal,200,OK,Performance web-app 1-110,true,,372,188,188,1523,0,334
1572967655913,1525,HTTP Request - webapp - baremetal,200,OK,Performance web-app 1-234,true,,372,188,188,1525,0,335
1572967655914,1525,HTTP Request - webapp - baremetal,200,OK,Performance web-app 1-111,true,,372,187,187,1525,0,334
1572967655938,1501,HTTP Request - webapp - baremetal,200,OK,Performance web-app 1-128,true,,372,187,187,1501,0,311
1572967655938,1501,HTTP Request - webapp - baremetal,200,OK,Performance web-app 1-80,true,,372,186,186,1501,0,311
1572967655937,1503,HTTP Request - webapp - baremetal,200,OK,Performance web-app 1-137,true,,372,185,185,1503,0,313
1572967655937,1503,HTTP Request - webapp - baremetal,200,OK,Performance web-app 1-129,true,,372,183,183,1503,0,312
1572967655935,1505,HTTP Request - webapp - baremetal,200,OK,Performance web-app 1-109,true,,372,183,183,1505,0,314
1572967655993,1448,HTTP Request - webapp - baremetal,200,OK,Performance web-app 1-132,true,,372,181,181,1448,0,256
1572967655936,1608,HTTP Request - webapp - baremetal,200,OK,Performance web-app 1-103,true,,372,180,180,1608,0,313
1572967655935,1609,HTTP Request - webapp - baremetal,200,OK,Performance web-app 1-117,true,,372,180,180,1609,0,314
1572967655931,1613,HTTP Request - webapp - baremetal,200,OK,Performance web-app 1-222,true,,372,180,180,1613,0,319
1572967655993,1552,HTTP Request - webapp - baremetal,200,OK,Performance web-app 1-133,true,,372,178,178,1552,0,257
1572967655939,1608,HTTP Request - webapp - baremetal,200,OK,Performance web-app 1-82,true,,372,177,177,1608,0,311
1572967655936,1611,HTTP Request - webapp - baremetal,200,OK,Performance web-app 1-87,true,,372,176,176,1611,0,314
1572967655939,1609,HTTP Request - webapp - baremetal,200,OK,Performance web-app 1-91,true,,372,175,175,1609,0,311
1572967655931,1617,HTTP Request - webapp - baremetal,200,OK,Performance web-app 1-123,true,,372,174,174,1617,0,320
1572967655931,1617,HTTP Request - webapp - baremetal,200,OK,Performance web-app 1-113,true,,372,174,174,1617,0,320
1572967655936,1613,HTTP Request - webapp - baremetal,200,OK,Performance web-app 1-249,true,,372,172,172,1613,0,314
1572967655935,1614,HTTP Request - webapp - baremetal,200,OK,Performance web-app 1-221,true,,372,172,172,1614,0,316
1572967655920,1630,HTTP Request - webapp - baremetal,200,OK,Performance web-app 1-116,true,,372,172,172,1630,0,332
1572967655930,1620,HTTP Request - webapp - baremetal,200,OK,Performance web-app 1-99,true,,372,172,172,1620,0,322
1572967655931,1623,HTTP Request - webapp - baremetal,200,OK,Performance web-app 1-121,true,,372,170,170,1623,0,321
1572967655919,1635,HTTP Request - webapp - baremetal,200,OK,Performance web-app 1-108,true,,372,169,169,1635,0,333
1572967655931,1624,HTTP Request - webapp - baremetal,200,OK,Performance web-app 1-118,true,,372,168,168,1624,0,322
1572967653139,4418,HTTP Request - webapp - baremetal,200,OK,Performance web-app 1-81,true,,372,167,167,4418,0,3471
1572967655191,2366,HTTP Request - webapp - baremetal,200,OK,Performance web-app 1-231,true,,372,167,167,2366,0,408
1572967656225,1331,HTTP Request - webapp - baremetal,200,OK,Performance web-app 1-139,true,,372,167,167,1331,0,408
1572967656225,1331,HTTP Request - webapp - baremetal,200,OK,Performance web-app 1-141,true,,372,166,166,1331,0,408
1572967656232,1325,HTTP Request - webapp - baremetal,200,OK,Performance web-app 1-136,true,,372,165,165,1325,0,473
1572967655195,2365,HTTP Request - webapp - baremetal,200,OK,Performance web-app 1-229,true,,372,164,164,2365,0,1418
1572967655194,2366,HTTP Request - webapp - baremetal,200,OK,Performance web-app 1-67,true,,372,164,164,2366,0,1419
1572967655191,2370,HTTP Request - webapp - baremetal,200,OK,Performance web-app 1-70,true,,372,164,164,2370,0,1422
1572967656240,1320,HTTP Request - webapp - baremetal,200,OK,Performance web-app 1-220,true,,372,164,164,1320,0,467
1572967656248,1312,HTTP Request - webapp - baremetal,200,OK,Performance web-app 1-216,true,,372,162,162,1312,0,468
1572967656249,1311,HTTP Request - webapp - baremetal,200,OK,Performance web-app 1-142,true,,372,162,162,1311,0,470
1572967656248,1313,HTTP Request - webapp - baremetal,200,OK,Performance web-app 1-164,true,,372,162,162,1313,0,469
1572967656248,1313,HTTP Request - webapp - baremetal,200,OK,Performance web-app 1-170,true,,372,162,162,1313,0,470
1572967656233,1328,HTTP Request - webapp - baremetal,200,OK,Performance web-app 1-134,true,,372,162,162,1328,0,473
1572967656220,1342,HTTP Request - webapp - baremetal,200,OK,Performance web-app 1-135,true,,372,158,158,1342,0,488
1572967656217,1345,HTTP Request - webapp - baremetal,200,OK,Performance web-app 1-131,true,,372,158,158,1345,0,489
1572967656236,1326,HTTP Request - webapp - baremetal,200,OK,Performance web-app 1-88,true,,372,156,156,1326,0,483
1572967656249,1314,HTTP Request - webapp - baremetal,200,OK,Performance web-app 1-177,true,,372,156,156,1314,0,474
1572967656250,1313,HTTP Request - webapp - baremetal,200,OK,Performance web-app 1-175,true,,372,155,155,1313,0,486
1572967656250,1313,HTTP Request - webapp - baremetal,200,OK,Performance web-app 1-171,true,,372,155,155,1313,0,486
1572967656240,1323,HTTP Request - webapp - baremetal,200,OK,Performance web-app 1-146,true,,372,154,154,1323,0,476
1572967656251,1316,HTTP Request - webapp - baremetal,200,OK,Performance web-app 1-179,true,,372,152,152,1316,0,490
1572967656249,1321,HTTP Request - webapp - baremetal,200,OK,Performance web-app 1-122,true,,372,151,151,1321,0,484
1572967656252,1318,HTTP Request - webapp - baremetal,200,OK,Performance web-app 1-107,true,,372,151,151,1318,0,496
1572967656250,1320,HTTP Request - webapp - baremetal,200,OK,Performance web-app 1-149,true,,372,149,149,1320,0,491
1572967656252,1319,HTTP Request - webapp - baremetal,200,OK,Performance web-app 1-77,true,,372,149,149,1319,0,497
1572967656251,1320,HTTP Request - webapp - baremetal,200,OK,Performance web-app 1-163,true,,372,148,148,1320,0,493
1572967656251,1320,HTTP Request - webapp - baremetal,200,OK,Performance web-app 1-176,true,,372,147,147,1320,0,496
1572967656253,1319,HTTP Request - webapp - baremetal,200,OK,Performance web-app 1-178,true,,372,146,146,1318,0,497
1572967656253,1319,HTTP Request - webapp - baremetal,200,OK,Performance web-app 1-154,true,,372,146,146,1319,0,496
1572967656253,1319,HTTP Request - webapp - baremetal,200,OK,Performance web-app 1-39,true,,372,145,145,1319,0,497
1572967653317,4256,HTTP Request - webapp - baremetal,200,OK,Performance web-app 1-101,true,,372,145,145,4256,0,3435
1572967656253,1320,HTTP Request - webapp - baremetal,200,OK,Performance web-app 1-100,true,,372,145,145,1320,0,498
1572967656254,1319,HTTP Request - webapp - baremetal,200,OK,Performance web-app 1-152,true,,372,143,143,1319,0,497
1572967656254,1320,HTTP Request - webapp - baremetal,200,OK,Performance web-app 1-148,true,,372,142,142,1320,0,498
1572967656253,1321,HTTP Request - webapp - baremetal,200,OK,Performance web-app 1-147,true,,372,142,142,1321,0,498
1572967656254,1321,HTTP Request - webapp - baremetal,200,OK,Performance web-app 1-83,true,,372,140,140,1321,0,498
1572967655309,2267,HTTP Request - webapp - baremetal,200,OK,Performance web-app 1-174,true,,372,139,139,2267,0,1445
1572967656254,1321,HTTP Request - webapp - baremetal,200,OK,Performance web-app 1-112,true,,372,140,140,1321,0,499
1572967653527,4049,HTTP Request - webapp - baremetal,200,OK,Performance web-app 1-94,true,,372,139,139,4049,0,3281
1572967656254,1322,HTTP Request - webapp - baremetal,200,OK,Performance web-app 1-143,true,,372,139,139,1322,0,553
1572967653528,4050,HTTP Request - webapp - baremetal,200,OK,Performance web-app 1-16,true,,372,137,137,4050,0,3280
1572967656640,937,HTTP Request - webapp - baremetal,200,OK,Performance web-app 1-217,true,,372,137,137,937,0,412
1572967656710,954,HTTP Request - webapp - baremetal,200,OK,Performance web-app 1-120,true,,372,135,135,954,0,420
1572967656710,1064,HTTP Request - webapp - baremetal,200,OK,Performance web-app 1-124,true,,372,134,134,1064,0,422
1572967656711,1066,HTTP Request - webapp - baremetal,200,OK,Performance web-app 1-98,true,,372,133,133,1066,0,421
1572967656706,1072,HTTP Request - webapp - baremetal,200,OK,Performance web-app 1-207,true,,372,133,133,1071,0,424
1572967656716,1064,HTTP Request - webapp - baremetal,200,OK,Performance web-app 1-125,true,,372,131,131,1064,0,430
1572967656712,1069,HTTP Request - webapp - baremetal,200,OK,Performance web-app 1-126,true,,372,131,131,1069,0,430
1572967656718,1063,HTTP Request - webapp - baremetal,200,OK,Performance web-app 1-127,true,,372,129,129,1063,0,429
1572967656725,1058,HTTP Request - webapp - baremetal,200,OK,Performance web-app 1-57,true,,372,128,128,1058,0,428
1572967656725,1058,HTTP Request - webapp - baremetal,200,OK,Performance web-app 1-210,true,,372,127,127,1058,0,428
1572967656718,1066,HTTP Request - webapp - baremetal,200,OK,Performance web-app 1-214,true,,372,126,126,1066,0,429
1572967656726,1059,HTTP Request - webapp - baremetal,200,OK,Performance web-app 1-90,true,,372,125,125,1059,0,428
1572967656727,1058,HTTP Request - webapp - baremetal,200,OK,Performance web-app 1-230,true,,372,124,124,1058,0,431
1572967656726,1061,HTTP Request - webapp - baremetal,200,OK,Performance web-app 1-212,true,,372,124,124,1061,0,428
1572967656727,1060,HTTP Request - webapp - baremetal,200,OK,Performance web-app 1-173,true,,372,124,124,1060,0,431
1572967656728,1150,HTTP Request - webapp - baremetal,200,OK,Performance web-app 1-218,true,,372,123,123,1150,0,430
1572967656736,1145,HTTP Request - webapp - baremetal,200,OK,Performance web-app 1-150,true,,372,122,122,1145,0,422
1572967656735,1146,HTTP Request - webapp - baremetal,200,OK,Performance web-app 1-181,true,,372,122,122,1146,0,424
1572967656741,1141,HTTP Request - webapp - baremetal,200,OK,Performance web-app 1-180,true,,372,120,120,1141,0,418
1572967656731,1151,HTTP Request - webapp - baremetal,200,OK,Performance web-app 1-215,true,,372,120,120,1151,0,428
1572967656743,1141,HTTP Request - webapp - baremetal,200,OK,Performance web-app 1-42,true,,372,118,118,1141,0,418
1572967656729,1157,HTTP Request - webapp - baremetal,200,OK,Performance web-app 1-138,true,,372,117,117,1157,0,431
1572967656731,1156,HTTP Request - webapp - baremetal,200,OK,Performance web-app 1-241,true,,372,117,117,1156,0,430
1572967656730,1158,HTTP Request - webapp - baremetal,200,OK,Performance web-app 1-244,true,,372,115,115,1158,0,431
1572967656749,1139,HTTP Request - webapp - baremetal,200,OK,Performance web-app 1-198,true,,372,115,115,1139,0,417
1572967656750,1138,HTTP Request - webapp - baremetal,200,OK,Performance web-app 1-195,true,,372,114,114,1138,0,416
1572967656749,1140,HTTP Request - webapp - baremetal,200,OK,Performance web-app 1-196,true,,372,114,114,1140,0,418
1572967656750,1139,HTTP Request - webapp - baremetal,200,OK,Performance web-app 1-158,true,,372,114,114,1139,0,417
1572967656915,975,HTTP Request - webapp - baremetal,200,OK,Performance web-app 1-193,true,,372,114,114,975,0,324
1572967657049,841,HTTP Request - webapp - baremetal,200,OK,Performance web-app 1-192,true,,372,113,113,841,0,316
1572967656751,1139,HTTP Request - webapp - baremetal,200,OK,Performance web-app 1-194,true,,372,113,113,1139,0,417
1572967657050,844,HTTP Request - webapp - baremetal,200,OK,Performance web-app 1-186,true,,372,113,113,844,0,321
1572967657049,845,HTTP Request - webapp - baremetal,200,OK,Performance web-app 1-119,true,,372,113,113,845,0,321
1572967657049,846,HTTP Request - webapp - baremetal,200,OK,Performance web-app 1-227,true,,372,113,113,846,0,325
1572967657059,836,HTTP Request - webapp - baremetal,200,OK,Performance web-app 1-237,true,,372,112,112,836,0,381
1572967657059,911,HTTP Request - webapp - baremetal,200,OK,Performance web-app 1-239,true,,372,111,111,911,0,381
1572967657057,920,HTTP Request - webapp - baremetal,200,OK,Performance web-app 1-250,true,,372,110,110,920,0,381
1572967657129,849,HTTP Request - webapp - baremetal,200,OK,Performance web-app 1-228,true,,372,110,110,849,0,415
1572967657055,923,HTTP Request - webapp - baremetal,200,OK,Performance web-app 1-242,true,,372,109,109,923,0,385
1572967657052,927,HTTP Request - webapp - baremetal,200,OK,Performance web-app 1-43,true,,372,108,108,927,0,388
1572967657059,920,HTTP Request - webapp - baremetal,200,OK,Performance web-app 1-232,true,,372,107,107,920,0,382
1572967657129,850,HTTP Request - webapp - baremetal,200,OK,Performance web-app 1-197,true,,372,106,106,850,0,418
1572967657132,848,HTTP Request - webapp - baremetal,200,OK,Performance web-app 1-254,true,,372,105,105,848,0,415
1572967657140,841,HTTP Request - webapp - baremetal,200,OK,Performance web-app 1-75,true,,372,105,105,841,0,408
1572967657129,853,HTTP Request - webapp - baremetal,200,OK,Performance web-app 1-223,true,,372,104,104,853,0,418
1572967657140,843,HTTP Request - webapp - baremetal,200,OK,Performance web-app 1-252,true,,372,103,103,843,0,409
1572967657140,843,HTTP Request - webapp - baremetal,200,OK,Performance web-app 1-140,true,,372,103,103,843,0,409
1572967657132,852,HTTP Request - webapp - baremetal,200,OK,Performance web-app 1-199,true,,372,102,102,852,0,416
1572967657140,845,HTTP Request - webapp - baremetal,200,OK,Performance web-app 1-226,true,,372,101,101,845,0,409
1572967657145,841,HTTP Request - webapp - baremetal,200,OK,Performance web-app 1-157,true,,372,101,101,841,0,410
1572967657140,846,HTTP Request - webapp - baremetal,200,OK,Performance web-app 1-160,true,,372,99,99,846,0,410
1572967657129,857,HTTP Request - webapp - baremetal,200,OK,Performance web-app 1-240,true,,372,99,99,857,0,419
1572967657143,844,HTTP Request - webapp - baremetal,200,OK,Performance web-app 1-153,true,,372,99,99,844,0,412
1572967657144,843,HTTP Request - webapp - baremetal,200,OK,Performance web-app 1-247,true,,372,97,97,843,0,411
1572967657140,847,HTTP Request - webapp - baremetal,200,OK,Performance web-app 1-54,true,,372,97,97,847,0,414
1572967657142,846,HTTP Request - webapp - baremetal,200,OK,Performance web-app 1-156,true,,372,95,95,846,0,414
1572967657148,840,HTTP Request - webapp - baremetal,200,OK,Performance web-app 1-65,true,,372,95,95,840,0,412
1572967657144,844,HTTP Request - webapp - baremetal,200,OK,Performance web-app 1-243,true,,372,94,94,844,0,414
1572967654154,3835,HTTP Request - webapp - baremetal,200,OK,Performance web-app 1-130,true,,372,94,94,3835,0,3410
1572967657156,833,HTTP Request - webapp - baremetal,200,OK,Performance web-app 1-167,true,,372,92,92,833,0,409
1572967657147,842,HTTP Request - webapp - baremetal,200,OK,Performance web-app 1-219,true,,372,92,92,842,0,414
1572967657160,907,HTTP Request - webapp - baremetal,200,OK,Performance web-app 1-166,true,,372,90,90,907,0,410
1572967657158,909,HTTP Request - webapp - baremetal,200,OK,Performance web-app 1-169,true,,372,89,89,909,0,409
1572967657155,912,HTTP Request - webapp - baremetal,200,OK,Performance web-app 1-172,true,,372,89,89,912,0,410
1572967657159,908,HTTP Request - webapp - baremetal,200,OK,Performance web-app 1-165,true,,372,88,88,908,0,412
1572967657159,909,HTTP Request - webapp - baremetal,200,OK,Performance web-app 1-248,true,,372,87,87,909,0,412
1572967657160,909,HTTP Request - webapp - baremetal,200,OK,Performance web-app 1-168,true,,372,85,85,909,0,412
1572967657162,908,HTTP Request - webapp - baremetal,200,OK,Performance web-app 1-159,true,,372,84,84,908,0,412
1572967657162,908,HTTP Request - webapp - baremetal,200,OK,Performance web-app 1-69,true,,372,84,84,908,0,411
1572967657163,907,HTTP Request - webapp - baremetal,200,OK,Performance web-app 1-68,true,,372,83,83,907,0,411
1572967657163,909,HTTP Request - webapp - baremetal,200,OK,Performance web-app 1-79,true,,372,82,82,909,0,412
1572967657240,832,HTTP Request - webapp - baremetal,200,OK,Performance web-app 1-235,true,,372,82,82,832,0,423
1572967657163,909,HTTP Request - webapp - baremetal,200,OK,Performance web-app 1-161,true,,372,81,81,909,0,414
1572967652379,5694,HTTP Request - webapp - baremetal,200,OK,Performance web-app 1-59,true,,372,80,80,5694,0,223
1572967652380,5693,HTTP Request - webapp - baremetal,200,OK,Performance web-app 1-62,true,,372,79,79,5693,0,223
1572967657374,699,HTTP Request - webapp - baremetal,200,OK,Performance web-app 1-233,true,,372,79,79,699,0,399
1572967657377,796,HTTP Request - webapp - baremetal,200,OK,Performance web-app 1-236,true,,372,78,78,796,0,397
1572967654368,3808,HTTP Request - webapp - baremetal,200,OK,Performance web-app 1-25,true,,372,77,77,3808,0,3407
1572967657438,738,HTTP Request - webapp - baremetal,200,OK,Performance web-app 1-234,true,,372,76,76,738,0,343
1572967657373,803,HTTP Request - webapp - baremetal,200,OK,Performance web-app 1-162,true,,372,76,76,803,0,406
1572967654461,3717,HTTP Request - webapp - baremetal,200,OK,Performance web-app 1-151,true,,372,74,74,3717,0,3328
1572967654452,3727,HTTP Request - webapp - baremetal,200,OK,Performance web-app 1-145,true,,372,74,74,3727,0,3336
1572967654457,3723,HTTP Request - webapp - baremetal,200,OK,Performance web-app 1-144,true,,372,74,74,3723,0,3332
1572967654451,3730,HTTP Request - webapp - baremetal,200,OK,Performance web-app 1-32,true,,372,74,74,3730,0,3338
1572967657544,746,HTTP Request - webapp - baremetal,200,OK,Performance web-app 1-222,true,,372,73,73,746,0,339
1572967657549,742,HTTP Request - webapp - baremetal,200,OK,Performance web-app 1-249,true,,372,73,73,742,0,338
1572967657550,741,HTTP Request - webapp - baremetal,200,OK,Performance web-app 1-221,true,,372,72,72,741,0,338
1572967657556,735,HTTP Request - webapp - baremetal,200,OK,Performance web-app 1-81,true,,372,71,71,735,0,339
1572967657556,736,HTTP Request - webapp - baremetal,200,OK,Performance web-app 1-231,true,,372,69,69,736,0,411
1572967657559,733,HTTP Request - webapp - baremetal,200,OK,Performance web-app 1-229,true,,372,69,69,733,0,416
1572967657560,733,HTTP Request - webapp - baremetal,200,OK,Performance web-app 1-220,true,,372,67,67,733,0,416
1572967657561,812,HTTP Request - webapp - baremetal,200,OK,Performance web-app 1-164,true,,372,66,66,812,0,422
1572967657563,811,HTTP Request - webapp - baremetal,200,OK,Performance web-app 1-177,true,,372,65,65,811,0,420
1572967657571,803,HTTP Request - webapp - baremetal,200,OK,Performance web-app 1-163,true,,372,65,65,803,0,417
1572967657573,803,HTTP Request - webapp - baremetal,200,OK,Performance web-app 1-101,true,,372,63,63,803,0,496
1572967657575,801,HTTP Request - webapp - baremetal,200,OK,Performance web-app 1-174,true,,372,62,62,801,0,496
1572967657572,804,HTTP Request - webapp - baremetal,200,OK,Performance web-app 1-178,true,,372,61,61,804,0,496
1572967657575,801,HTTP Request - webapp - baremetal,200,OK,Performance web-app 1-94,true,,372,60,60,801,0,496
1572967657786,675,HTTP Request - webapp - baremetal,200,OK,Performance web-app 1-230,true,,372,59,59,674,0,390
1572967657788,675,HTTP Request - webapp - baremetal,200,OK,Performance web-app 1-173,true,,372,58,58,675,0,389
1572967657889,708,HTTP Request - webapp - baremetal,200,OK,Performance web-app 1-195,true,,372,57,57,708,0,397
1572967657888,710,HTTP Request - webapp - baremetal,200,OK,Performance web-app 1-198,true,,372,56,56,710,0,398
1572967657890,708,HTTP Request - webapp - baremetal,200,OK,Performance web-app 1-194,true,,372,55,55,708,0,397
1572967657889,710,HTTP Request - webapp - baremetal,200,OK,Performance web-app 1-196,true,,372,55,55,709,0,398
1572967657890,710,HTTP Request - webapp - baremetal,200,OK,Performance web-app 1-193,true,,372,53,53,710,0,397
1572967657894,706,HTTP Request - webapp - baremetal,200,OK,Performance web-app 1-186,true,,372,52,52,706,0,395
1572967657890,711,HTTP Request - webapp - baremetal,200,OK,Performance web-app 1-192,true,,372,51,51,711,0,398
1572967657895,706,HTTP Request - webapp - baremetal,200,OK,Performance web-app 1-227,true,,372,51,51,706,0,395
1572967657978,688,HTTP Request - webapp - baremetal,200,OK,Performance web-app 1-250,true,,372,49,49,688,0,385
1572967657980,686,HTTP Request - webapp - baremetal,200,OK,Performance web-app 1-254,true,,372,49,49,686,0,385
1572967652348,6319,HTTP Request - webapp - baremetal,200,OK,Performance web-app 1-238,true,,372,49,49,6319,0,250
1572967657983,686,HTTP Request - webapp - baremetal,200,OK,Performance web-app 1-252,true,,372,47,47,686,0,389
1572967657988,681,HTTP Request - webapp - baremetal,200,OK,Performance web-app 1-130,true,,372,46,46,681,0,385
1572967658070,601,HTTP Request - webapp - baremetal,200,OK,Performance web-app 1-159,true,,372,45,45,601,0,305
1572967657986,686,HTTP Request - webapp - baremetal,200,OK,Performance web-app 1-160,true,,372,44,44,686,0,388
1572967658073,600,HTTP Request - webapp - baremetal,200,OK,Performance web-app 1-62,true,,372,43,43,600,0,304
1572967658072,601,HTTP Request - webapp - baremetal,200,OK,Performance web-app 1-59,true,,372,43,43,601,0,305
1572967652244,6430,HTTP Request - webapp - baremetal,200,OK,Performance web-app 1-225,true,,372,42,42,6430,0,260
1572967658180,494,HTTP Request - webapp - baremetal,200,OK,Performance web-app 1-144,true,,372,41,41,494,0,280
1572967658178,498,HTTP Request - webapp - baremetal,200,OK,Performance web-app 1-151,true,,372,40,40,498,0,282
1572967658178,591,HTTP Request - webapp - baremetal,200,OK,Performance web-app 1-145,true,,372,39,39,591,0,285
1572967651686,7099,HTTP Request - webapp - baremetal,200,OK,Performance web-app 1-155,true,,372,38,38,7099,0,289
1572967652235,6646,HTTP Request - webapp - baremetal,200,OK,Performance web-app 1-224,true,,372,38,38,6646,0,268
1572967651925,7059,HTTP Request - webapp - baremetal,200,OK,Performance web-app 1-185,true,,372,38,38,7059,0,1217
1572967651918,7066,HTTP Request - webapp - baremetal,200,OK,Performance web-app 1-184,true,,372,38,38,7066,0,1221
1572967651913,7072,HTTP Request - webapp - baremetal,200,OK,Performance web-app 1-183,true,,372,38,38,7072,0,1225
1572967651802,7187,HTTP Request - webapp - baremetal,200,OK,Performance web-app 1-30,true,,372,38,38,7187,0,294
1572967651802,7395,HTTP Request - webapp - baremetal,200,OK,Performance web-app 1-31,true,,372,38,38,7395,0,301
1572967658667,530,HTTP Request - webapp - baremetal,200,OK,Performance web-app 1-238,true,,372,38,38,530,0,307
1572967658673,525,HTTP Request - webapp - baremetal,200,OK,Performance web-app 1-225,true,,372,38,38,525,0,303
1572967652098,7210,HTTP Request - webapp - baremetal,200,OK,Performance web-app 1-48,true,,372,38,38,7210,0,1239
1572967651966,7343,HTTP Request - webapp - baremetal,200,OK,Performance web-app 1-190,true,,372,38,38,7343,0,1275
1572967651977,7332,HTTP Request - webapp - baremetal,200,OK,Performance web-app 1-191,true,,372,38,38,7332,0,1269
1572967658784,526,HTTP Request - webapp - baremetal,200,OK,Performance web-app 1-155,true,,372,38,38,526,0,304
1572967658881,432,HTTP Request - webapp - baremetal,200,OK,Performance web-app 1-224,true,,372,38,38,432,0,220
1572967651958,7358,HTTP Request - webapp - baremetal,200,OK,Performance web-app 1-189,true,,372,38,38,7358,0,1283
1572967652077,7319,HTTP Request - webapp - baremetal,200,OK,Performance web-app 1-204,true,,372,38,38,7319,0,1261
1572967652070,7340,HTTP Request - webapp - baremetal,200,OK,Performance web-app 1-203,true,,372,38,38,7340,0,1265
1572967651951,7459,HTTP Request - webapp - baremetal,200,OK,Performance web-app 1-188,true,,372,38,38,7459,0,1289
1572967658984,429,HTTP Request - webapp - baremetal,200,OK,Performance web-app 1-184,true,,372,38,38,429,0,213
1572967651942,7560,HTTP Request - webapp - baremetal,200,OK,Performance web-app 1-187,true,,372,38,38,7560,0,1301
1572967652045,7467,HTTP Request - webapp - baremetal,200,OK,Performance web-app 1-200,true,,372,38,38,7467,0,1290
1572967658988,524,HTTP Request - webapp - baremetal,200,OK,Performance web-app 1-30,true,,372,38,38,524,0,313
1572967658985,537,HTTP Request - webapp - baremetal,200,OK,Performance web-app 1-183,true,,372,37,37,537,0,315
1572967658984,539,HTTP Request - webapp - baremetal,200,OK,Performance web-app 1-185,true,,372,37,37,539,0,316
1572967652103,7503,HTTP Request - webapp - baremetal,200,OK,Performance web-app 1-40,true,,372,37,37,7503,0,7210
1572967652148,7480,HTTP Request - webapp - baremetal,200,OK,Performance web-app 1-213,true,,372,37,37,7480,0,7259
1572967659197,438,HTTP Request - webapp - baremetal,200,OK,Performance web-app 1-238,true,,372,37,37,438,0,213
1572967652131,7506,HTTP Request - webapp - baremetal,200,OK,Performance web-app 1-211,true,,372,37,37,7506,0,7279
1572967659198,518,HTTP Request - webapp - baremetal,200,OK,Performance web-app 1-225,true,,372,36,36,518,0,300
1572967659197,523,HTTP Request - webapp - baremetal,200,OK,Performance web-app 1-31,true,,372,35,35,523,0,302
1572967659315,410,HTTP Request - webapp - baremetal,200,OK,Performance web-app 1-189,true,,372,34,34,410,0,209
1572967659310,418,HTTP Request - webapp - baremetal,200,OK,Performance web-app 1-155,true,,372,34,34,418,0,215
1572967659313,415,HTTP Request - webapp - baremetal,200,OK,Performance web-app 1-224,true,,372,34,34,415,0,212
1572967659308,420,HTTP Request - webapp - baremetal,200,OK,Performance web-app 1-190,true,,372,34,34,420,0,217
1572967659308,421,HTTP Request - webapp - baremetal,200,OK,Performance web-app 1-48,true,,372,32,32,421,0,217
1572967659309,429,HTTP Request - webapp - baremetal,200,OK,Performance web-app 1-191,true,,372,31,31,429,0,218
1572967659396,430,HTTP Request - webapp - baremetal,200,OK,Performance web-app 1-204,true,,372,31,31,430,0,221
1572967652403,7429,HTTP Request - webapp - baremetal,200,OK,Performance web-app 1-245,true,,372,31,31,7429,0,7219
1572967652398,7434,HTTP Request - webapp - baremetal,200,OK,Performance web-app 1-63,true,,372,31,31,7434,0,7224
1572967652399,7510,HTTP Request - webapp - baremetal,200,OK,Performance web-app 1-61,true,,372,31,31,7510,0,7224
1572967659409,513,HTTP Request - webapp - baremetal,200,OK,Performance web-app 1-203,true,,372,31,31,513,0,227
1572967659410,517,HTTP Request - webapp - baremetal,200,OK,Performance web-app 1-188,true,,372,31,31,517,0,293
1572967652410,7519,HTTP Request - webapp - baremetal,200,OK,Performance web-app 1-246,true,,372,31,31,7519,0,7294
1572967659414,523,HTTP Request - webapp - baremetal,200,OK,Performance web-app 1-184,true,,372,31,31,523,0,291
1572967652466,7473,HTTP Request - webapp - baremetal,200,OK,Performance web-app 1-253,true,,372,30,30,7473,0,7248
1572967652452,7488,HTTP Request - webapp - baremetal,200,OK,Performance web-app 1-251,true,,372,30,30,7488,0,7262
1572967652482,7458,HTTP Request - webapp - baremetal,200,OK,Performance web-app 1-255,true,,372,30,30,7458,0,7234
1572967652491,7450,HTTP Request - webapp - baremetal,200,OK,Performance web-app 1-256,true,,372,30,30,7450,0,7225
1572967659502,440,HTTP Request - webapp - baremetal,200,OK,Performance web-app 1-187,true,,372,30,30,440,0,221
1572967659522,424,HTTP Request - webapp - baremetal,200,OK,Performance web-app 1-183,true,,372,30,30,424,0,202
1572967652514,7433,HTTP Request - webapp - baremetal,200,OK,Performance web-app 1-64,true,,372,30,30,7433,0,7211
1572967659523,425,HTTP Request - webapp - baremetal,200,OK,Performance web-app 1-185,true,,372,29,29,425,0,204
1572967659512,497,HTTP Request - webapp - baremetal,200,OK,Performance web-app 1-200,true,,372,28,28,497,0,212
1572967659606,416,HTTP Request - webapp - baremetal,200,OK,Performance web-app 1-40,true,,372,28,28,416,0,213
1572967659627,396,HTTP Request - webapp - baremetal,200,OK,Performance web-app 1-213,true,,372,27,27,396,0,198
1572967659636,496,HTTP Request - webapp - baremetal,200,OK,Performance web-app 1-211,true,,372,27,27,496,0,283
1572967659725,502,HTTP Request - webapp - baremetal,200,OK,Performance web-app 1-189,true,,372,27,27,502,0,221
1572967659729,501,HTTP Request - webapp - baremetal,200,OK,Performance web-app 1-190,true,,372,26,26,501,0,218
1572967659738,493,HTTP Request - webapp - baremetal,200,OK,Performance web-app 1-191,true,,372,26,26,493,0,279
1572967659831,488,HTTP Request - webapp - baremetal,200,OK,Performance web-app 1-245,true,,372,24,24,488,0,194
1572967659827,492,HTTP Request - webapp - baremetal,200,OK,Performance web-app 1-204,true,,372,24,24,492,0,199
1572967659831,503,HTTP Request - webapp - baremetal,200,OK,Performance web-app 1-63,true,,372,23,23,503,0,284
1572967659908,427,HTTP Request - webapp - baremetal,200,OK,Performance web-app 1-61,true,,372,22,22,427,0,224
1572967659927,411,HTTP Request - webapp - baremetal,200,OK,Performance web-app 1-188,true,,372,21,21,411,0,206
1572967659928,411,HTTP Request - webapp - baremetal,200,OK,Performance web-app 1-246,true,,372,21,21,410,0,205
1572967659923,496,HTTP Request - webapp - baremetal,200,OK,Performance web-app 1-203,true,,372,20,20,496,0,210
1572967651904,8524,HTTP Request - webapp - baremetal,200,OK,Performance web-app 1-182,true,,372,19,19,8524,0,3290
1572967659939,489,HTTP Request - webapp - baremetal,200,OK,Performance web-app 1-251,true,,372,19,19,489,0,282
1572967659941,490,HTTP Request - webapp - baremetal,200,OK,Performance web-app 1-256,true,,372,19,19,490,0,282
1572967659943,488,HTTP Request - webapp - baremetal,200,OK,Performance web-app 1-187,true,,372,19,19,488,0,281
1572967659947,485,HTTP Request - webapp - baremetal,200,OK,Performance web-app 1-64,true,,372,19,19,485,0,280
1572967660023,411,HTTP Request - webapp - baremetal,200,OK,Performance web-app 1-213,true,,372,17,17,411,0,208
1572967659938,496,HTTP Request - webapp - baremetal,200,OK,Performance web-app 1-253,true,,372,16,16,496,0,288
1572967659940,494,HTTP Request - webapp - baremetal,200,OK,Performance web-app 1-255,true,,372,16,16,494,0,287
1572967660009,519,HTTP Request - webapp - baremetal,200,OK,Performance web-app 1-200,true,,372,16,16,519,0,218
1572967652062,8491,HTTP Request - webapp - baremetal,200,OK,Performance web-app 1-202,true,,372,15,15,8491,0,3244
1572967652052,8502,HTTP Request - webapp - baremetal,200,OK,Performance web-app 1-201,true,,372,15,15,8502,0,3255
1572967660133,493,HTTP Request - webapp - baremetal,200,OK,Performance web-app 1-211,true,,372,15,15,493,0,203
1572967652094,8767,HTTP Request - webapp - baremetal,200,OK,Performance web-app 1-206,true,,372,14,14,8767,0,3280
1572967652085,8776,HTTP Request - webapp - baremetal,200,OK,Performance web-app 1-205,true,,372,14,14,8776,0,3289
1572967660320,615,HTTP Request - webapp - baremetal,200,OK,Performance web-app 1-245,true,,372,14,14,615,0,233
1572967660339,598,HTTP Request - webapp - baremetal,200,OK,Performance web-app 1-246,true,,372,13,13,598,0,287
1572967660428,727,HTTP Request - webapp - baremetal,200,OK,Performance web-app 1-251,true,,372,12,12,727,0,436
1572967660427,728,HTTP Request - webapp - baremetal,200,OK,Performance web-app 1-182,true,,372,12,12,728,0,437
1572967660435,721,HTTP Request - webapp - baremetal,200,OK,Performance web-app 1-255,true,,372,11,11,721,0,431
1572967660434,723,HTTP Request - webapp - baremetal,200,OK,Performance web-app 1-253,true,,372,11,11,723,0,432
1572967660431,728,HTTP Request - webapp - baremetal,200,OK,Performance web-app 1-256,true,,372,9,9,728,0,435
1572967652115,9046,HTTP Request - webapp - baremetal,200,OK,Performance web-app 1-209,true,,372,8,8,9046,0,3475
1572967652108,9053,HTTP Request - webapp - baremetal,200,OK,Performance web-app 1-208,true,,372,8,8,9053,0,3482
1572967652099,9063,HTTP Request - webapp - baremetal,200,OK,Performance web-app 1-50,true,,372,8,8,9063,0,3491
1572967660553,698,HTTP Request - webapp - baremetal,200,OK,Performance web-app 1-201,true,,372,8,8,698,0,381
1572967660553,698,HTTP Request - webapp - baremetal,200,OK,Performance web-app 1-202,true,,372,8,8,698,0,382
1572967660861,401,HTTP Request - webapp - baremetal,200,OK,Performance web-app 1-206,true,,372,8,8,401,0,192
1572967660862,498,HTTP Request - webapp - baremetal,200,OK,Performance web-app 1-205,true,,372,8,8,498,0,289
1572967661162,417,HTTP Request - webapp - baremetal,200,OK,Performance web-app 1-208,true,,372,8,8,417,0,205
1572967661161,418,HTTP Request - webapp - baremetal,200,OK,Performance web-app 1-209,true,,372,8,8,418,0,206
1572967661157,514,HTTP Request - webapp - baremetal,200,OK,Performance web-app 1-182,true,,372,8,8,514,0,301
1572967661162,514,HTTP Request - webapp - baremetal,200,OK,Performance web-app 1-50,true,,372,7,7,514,0,297
1572967661252,432,HTTP Request - webapp - baremetal,200,OK,Performance web-app 1-202,true,,372,6,6,432,0,213
1572967661262,512,HTTP Request - webapp - baremetal,200,OK,Performance web-app 1-206,true,,372,5,5,512,0,205
1572967661252,530,HTTP Request - webapp - baremetal,200,OK,Performance web-app 1-201,true,,372,4,4,530,0,214
1572967661361,428,HTTP Request - webapp - baremetal,200,OK,Performance web-app 1-205,true,,372,3,3,428,0,211
1572967661579,512,HTTP Request - webapp - baremetal,200,OK,Performance web-app 1-208,true,,372,2,2,512,0,300
1572967661579,512,HTTP Request - webapp - baremetal,200,OK,Performance web-app 1-209,true,,372,2,2,512,0,300
