timeStamp,elapsed,label,responseCode,responseMessage,threadName,success,failureMessage,bytes,grpThreads,allThreads,Latency,IdleTime,Connect
1572967592214,225,HTTP Request - webapp - vm,200,OK,Performance web-app 1-8,true,,372,36,36,225,0,147
1572967592174,265,HTTP Request - webapp - vm,200,OK,Performance web-app 1-3,true,,372,36,36,265,0,187
1572967592160,279,HTTP Request - webapp - vm,200,OK,Performance web-app 1-1,true,,372,36,36,279,0,201
1572967592198,243,HTTP Request - webapp - vm,200,OK,Performance web-app 1-6,true,,372,36,36,243,0,163
1572967592181,260,HTTP Request - webapp - vm,200,OK,Performance web-app 1-4,true,,372,36,36,260,0,180
1572967592189,250,HTTP Request - webapp - vm,200,OK,Performance web-app 1-5,true,,372,36,36,250,0,172
1572967592166,273,HTTP Request - webapp - vm,200,OK,Performance web-app 1-2,true,,372,36,36,273,0,195
1572967592221,220,HTTP Request - webapp - vm,200,OK,Performance web-app 1-9,true,,372,36,36,220,0,140
1572967592358,81,HTTP Request - webapp - vm,200,OK,Performance web-app 1-26,true,,372,36,36,81,0,5
1572967592206,235,HTTP Request - webapp - vm,200,OK,Performance web-app 1-7,true,,372,36,36,235,0,155
1572967592245,225,HTTP Request - webapp - vm,200,OK,Performance web-app 1-12,true,,372,40,40,225,0,116
1572967592254,218,HTTP Request - webapp - vm,200,OK,Performance web-app 1-13,true,,372,40,40,218,0,108
1572967592262,211,HTTP Request - webapp - vm,200,OK,Performance web-app 1-14,true,,372,40,40,211,0,100
1572967592286,187,HTTP Request - webapp - vm,200,OK,Performance web-app 1-17,true,,372,40,40,187,0,76
1572967592269,204,HTTP Request - webapp - vm,200,OK,Performance web-app 1-15,true,,372,40,40,204,0,93
1572967592294,179,HTTP Request - webapp - vm,200,OK,Performance web-app 1-18,true,,372,40,40,179,0,68
1572967592229,247,HTTP Request - webapp - vm,200,OK,Performance web-app 1-10,true,,372,40,40,247,0,132
1572967592303,182,HTTP Request - webapp - vm,200,OK,Performance web-app 1-19,true,,372,42,42,182,0,59
1572967592278,249,HTTP Request - webapp - vm,200,OK,Performance web-app 1-16,true,,372,47,47,249,0,84
1572967592341,188,HTTP Request - webapp - vm,200,OK,Performance web-app 1-24,true,,372,47,47,187,0,21
1572967592325,204,HTTP Request - webapp - vm,200,OK,Performance web-app 1-22,true,,372,47,47,204,0,37
1572967592317,212,HTTP Request - webapp - vm,200,OK,Performance web-app 1-21,true,,372,47,47,212,0,45
1572967592237,292,HTTP Request - webapp - vm,200,OK,Performance web-app 1-11,true,,372,47,47,292,0,124
1572967592350,179,HTTP Request - webapp - vm,200,OK,Performance web-app 1-25,true,,372,47,47,179,0,13
1572967592310,219,HTTP Request - webapp - vm,200,OK,Performance web-app 1-20,true,,372,47,47,219,0,52
1572967592373,156,HTTP Request - webapp - vm,200,OK,Performance web-app 1-28,true,,372,47,47,156,0,3
1572967592333,196,HTTP Request - webapp - vm,200,OK,Performance web-app 1-23,true,,372,47,47,196,0,29
1572967592365,174,HTTP Request - webapp - vm,200,OK,Performance web-app 1-27,true,,372,48,48,174,0,9
1572967592429,114,HTTP Request - webapp - vm,200,OK,Performance web-app 1-35,true,,372,49,49,114,0,11
1572967592406,163,HTTP Request - webapp - vm,200,OK,Performance web-app 1-32,true,,372,52,52,163,0,34
1572967592421,148,HTTP Request - webapp - vm,200,OK,Performance web-app 1-34,true,,372,52,52,148,0,19
1572967592415,154,HTTP Request - webapp - vm,200,OK,Performance web-app 1-33,true,,372,52,52,154,0,25
1572967592442,127,HTTP Request - webapp - vm,200,OK,Performance web-app 1-4,true,,372,52,52,127,0,5
1572967592382,187,HTTP Request - webapp - vm,200,OK,Performance web-app 1-29,true,,372,52,52,187,0,58
1572967592442,127,HTTP Request - webapp - vm,200,OK,Performance web-app 1-5,true,,372,52,52,127,0,5
1572967592441,132,HTTP Request - webapp - vm,200,OK,Performance web-app 1-2,true,,372,52,52,132,0,6
1572967592441,137,HTTP Request - webapp - vm,200,OK,Performance web-app 1-7,true,,372,53,53,137,0,6
1572967592441,139,HTTP Request - webapp - vm,200,OK,Performance web-app 1-26,true,,372,53,53,139,0,6
1572967592441,140,HTTP Request - webapp - vm,200,OK,Performance web-app 1-6,true,,372,53,53,140,0,6
1572967592441,189,HTTP Request - webapp - vm,200,OK,Performance web-app 1-1,true,,372,60,60,189,0,6
1572967592441,192,HTTP Request - webapp - vm,200,OK,Performance web-app 1-3,true,,372,60,60,192,0,6
1572967592437,196,HTTP Request - webapp - vm,200,OK,Performance web-app 1-36,true,,372,60,60,196,0,4
1572967592453,180,HTTP Request - webapp - vm,200,OK,Performance web-app 1-38,true,,372,60,60,180,0,9
1572967592441,192,HTTP Request - webapp - vm,200,OK,Performance web-app 1-9,true,,372,60,60,192,0,6
1572967592390,244,HTTP Request - webapp - vm,200,OK,Performance web-app 1-30,true,,372,60,60,244,0,50
1572967592441,193,HTTP Request - webapp - vm,200,OK,Performance web-app 1-8,true,,372,60,60,193,0,6
1572967592470,164,HTTP Request - webapp - vm,200,OK,Performance web-app 1-12,true,,372,60,60,164,0,3
1572967592399,235,HTTP Request - webapp - vm,200,OK,Performance web-app 1-31,true,,372,60,60,235,0,41
1572967592445,189,HTTP Request - webapp - vm,200,OK,Performance web-app 1-37,true,,372,60,60,189,0,5
1572967592478,189,HTTP Request - webapp - vm,200,OK,Performance web-app 1-41,true,,372,64,64,189,0,4
1572967592474,193,HTTP Request - webapp - vm,200,OK,Performance web-app 1-18,true,,372,64,64,193,0,3
1572967592473,195,HTTP Request - webapp - vm,200,OK,Performance web-app 1-13,true,,372,64,64,195,0,4
1572967592485,183,HTTP Request - webapp - vm,200,OK,Performance web-app 1-19,true,,372,64,64,183,0,45
1572967592462,206,HTTP Request - webapp - vm,200,OK,Performance web-app 1-39,true,,372,64,64,206,0,11
1572967592473,195,HTTP Request - webapp - vm,200,OK,Performance web-app 1-14,true,,372,64,64,195,0,4
1572967592476,192,HTTP Request - webapp - vm,200,OK,Performance web-app 1-10,true,,372,64,64,192,0,4
1572967592470,198,HTTP Request - webapp - vm,200,OK,Performance web-app 1-40,true,,372,64,64,198,0,4
1572967592493,175,HTTP Request - webapp - vm,200,OK,Performance web-app 1-43,true,,372,64,64,175,0,38
1572967592473,196,HTTP Request - webapp - vm,200,OK,Performance web-app 1-17,true,,372,64,64,196,0,4
1572967592473,200,HTTP Request - webapp - vm,200,OK,Performance web-app 1-15,true,,372,65,65,200,0,4
1572967592530,160,HTTP Request - webapp - vm,200,OK,Performance web-app 1-28,true,,372,67,67,160,0,6
1572967592529,161,HTTP Request - webapp - vm,200,OK,Performance web-app 1-20,true,,372,67,67,161,0,7
1572967592535,199,HTTP Request - webapp - vm,200,OK,Performance web-app 1-48,true,,372,72,72,199,0,4
1572967592501,233,HTTP Request - webapp - vm,200,OK,Performance web-app 1-44,true,,372,72,72,233,0,30
1572967592530,204,HTTP Request - webapp - vm,200,OK,Performance web-app 1-23,true,,372,72,72,204,0,6
1572967592526,208,HTTP Request - webapp - vm,200,OK,Performance web-app 1-47,true,,372,73,73,208,0,5
1572967592509,225,HTTP Request - webapp - vm,200,OK,Performance web-app 1-45,true,,372,73,73,225,0,22
1572967592517,218,HTTP Request - webapp - vm,200,OK,Performance web-app 1-46,true,,372,73,73,218,0,14
1572967592529,206,HTTP Request - webapp - vm,200,OK,Performance web-app 1-21,true,,372,73,73,206,0,6
1572967592529,206,HTTP Request - webapp - vm,200,OK,Performance web-app 1-24,true,,372,73,73,206,0,6
1572967592527,208,HTTP Request - webapp - vm,200,OK,Performance web-app 1-16,true,,372,73,73,208,0,5
1572967592529,206,HTTP Request - webapp - vm,200,OK,Performance web-app 1-22,true,,372,73,73,206,0,6
1572967592529,206,HTTP Request - webapp - vm,200,OK,Performance web-app 1-11,true,,372,73,73,206,0,6
1572967592569,189,HTTP Request - webapp - vm,200,OK,Performance web-app 1-4,true,,372,76,76,189,0,3
1572967592570,189,HTTP Request - webapp - vm,200,OK,Performance web-app 1-29,true,,372,76,76,189,0,3
1572967592569,190,HTTP Request - webapp - vm,200,OK,Performance web-app 1-32,true,,372,75,75,190,0,3
1572967592485,275,HTTP Request - webapp - vm,200,OK,Performance web-app 1-42,true,,372,75,75,275,0,45
1572967592529,231,HTTP Request - webapp - vm,200,OK,Performance web-app 1-25,true,,372,75,75,231,0,7
1572967592559,204,HTTP Request - webapp - vm,200,OK,Performance web-app 1-51,true,,372,75,75,204,0,6
1572967592550,213,HTTP Request - webapp - vm,200,OK,Performance web-app 1-50,true,,372,75,75,213,0,2
1572967592569,207,HTTP Request - webapp - vm,200,OK,Performance web-app 1-33,true,,372,77,77,207,0,3
1572967592539,247,HTTP Request - webapp - vm,200,OK,Performance web-app 1-27,true,,372,78,78,247,0,4
1572967592570,218,HTTP Request - webapp - vm,200,OK,Performance web-app 1-5,true,,372,78,78,218,0,3
1572967592567,223,HTTP Request - webapp - vm,200,OK,Performance web-app 1-52,true,,372,77,77,223,0,4
1572967592542,296,HTTP Request - webapp - vm,200,OK,Performance web-app 1-49,true,,372,84,84,296,0,4
1572967592543,295,HTTP Request - webapp - vm,200,OK,Performance web-app 1-35,true,,372,84,84,295,0,5
1572967592575,263,HTTP Request - webapp - vm,200,OK,Performance web-app 1-53,true,,372,84,84,263,0,2
1572967592573,265,HTTP Request - webapp - vm,200,OK,Performance web-app 1-2,true,,372,84,84,265,0,3
1572967592569,270,HTTP Request - webapp - vm,200,OK,Performance web-app 1-34,true,,372,83,83,270,0,3
1572967592580,259,HTTP Request - webapp - vm,200,OK,Performance web-app 1-26,true,,372,83,83,259,0,3
1572967592630,209,HTTP Request - webapp - vm,200,OK,Performance web-app 1-60,true,,372,83,83,209,0,5
1572967592579,260,HTTP Request - webapp - vm,200,OK,Performance web-app 1-7,true,,372,83,83,260,0,3
1572967592583,256,HTTP Request - webapp - vm,200,OK,Performance web-app 1-54,true,,372,83,83,256,0,5
1572967592581,260,HTTP Request - webapp - vm,200,OK,Performance web-app 1-6,true,,372,81,81,260,0,3
1572967592634,229,HTTP Request - webapp - vm,200,OK,Performance web-app 1-37,true,,372,83,83,229,0,5
1572967592590,274,HTTP Request - webapp - vm,200,OK,Performance web-app 1-55,true,,372,83,83,274,0,44
1572967592615,249,HTTP Request - webapp - vm,200,OK,Performance web-app 1-58,true,,372,83,83,249,0,19
1572967592623,241,HTTP Request - webapp - vm,200,OK,Performance web-app 1-59,true,,372,83,83,241,0,12
1572967592598,275,HTTP Request - webapp - vm,200,OK,Performance web-app 1-56,true,,372,84,84,275,0,36
1572967592606,268,HTTP Request - webapp - vm,200,OK,Performance web-app 1-57,true,,372,84,84,268,0,29
1572967592634,257,HTTP Request - webapp - vm,200,OK,Performance web-app 1-12,true,,372,86,86,257,0,5
1572967592630,308,HTTP Request - webapp - vm,200,OK,Performance web-app 1-1,true,,372,91,91,308,0,5
1572967592633,306,HTTP Request - webapp - vm,200,OK,Performance web-app 1-36,true,,372,91,91,306,0,6
1572967592634,305,HTTP Request - webapp - vm,200,OK,Performance web-app 1-8,true,,372,90,90,305,0,5
1572967592638,302,HTTP Request - webapp - vm,200,OK,Performance web-app 1-61,true,,372,90,90,301,0,2
1572967592633,307,HTTP Request - webapp - vm,200,OK,Performance web-app 1-3,true,,372,90,90,307,0,6
1572967592633,307,HTTP Request - webapp - vm,200,OK,Performance web-app 1-38,true,,372,90,90,307,0,6
1572967592634,306,HTTP Request - webapp - vm,200,OK,Performance web-app 1-31,true,,372,90,90,306,0,5
1572967592634,306,HTTP Request - webapp - vm,200,OK,Performance web-app 1-30,true,,372,90,90,306,0,5
1572967592654,288,HTTP Request - webapp - vm,200,OK,Performance web-app 1-63,true,,372,88,88,288,0,5
1572967592633,309,HTTP Request - webapp - vm,200,OK,Performance web-app 1-9,true,,372,88,88,309,0,6
1572967592646,296,HTTP Request - webapp - vm,200,OK,Performance web-app 1-62,true,,372,88,88,296,0,2
1572967592669,285,HTTP Request - webapp - vm,200,OK,Performance web-app 1-17,true,,372,89,89,285,0,3
1572967592663,291,HTTP Request - webapp - vm,200,OK,Performance web-app 1-64,true,,372,89,89,291,0,6
1572967592674,282,HTTP Request - webapp - vm,200,OK,Performance web-app 1-15,true,,372,88,88,282,0,3
1572967592668,320,HTTP Request - webapp - vm,200,OK,Performance web-app 1-14,true,,372,91,91,320,0,4
1572967592668,322,HTTP Request - webapp - vm,200,OK,Performance web-app 1-10,true,,372,91,91,322,0,4
1572967592668,324,HTTP Request - webapp - vm,200,OK,Performance web-app 1-40,true,,372,90,90,324,0,4
1572967592668,327,HTTP Request - webapp - vm,200,OK,Performance web-app 1-13,true,,372,90,90,327,0,4
1572967592668,373,HTTP Request - webapp - vm,200,OK,Performance web-app 1-18,true,,372,95,95,373,0,4
1572967592668,374,HTTP Request - webapp - vm,200,OK,Performance web-app 1-19,true,,372,94,94,374,0,4
1572967592668,375,HTTP Request - webapp - vm,200,OK,Performance web-app 1-39,true,,372,94,94,375,0,4
1572967592667,376,HTTP Request - webapp - vm,200,OK,Performance web-app 1-41,true,,372,93,93,376,0,5
1572967592669,374,HTTP Request - webapp - vm,200,OK,Performance web-app 1-43,true,,372,93,93,374,0,3
1572967592734,309,HTTP Request - webapp - vm,200,OK,Performance web-app 1-44,true,,372,93,93,309,0,5
1572967592679,364,HTTP Request - webapp - vm,200,OK,Performance web-app 1-66,true,,372,93,93,364,0,2
1572967592702,341,HTTP Request - webapp - vm,200,OK,Performance web-app 1-69,true,,372,93,93,341,0,34
1572967592727,317,HTTP Request - webapp - vm,200,OK,Performance web-app 1-72,true,,372,93,93,317,0,9
1572967592685,359,HTTP Request - webapp - vm,200,OK,Performance web-app 1-67,true,,372,93,93,359,0,3
1572967592671,373,HTTP Request - webapp - vm,200,OK,Performance web-app 1-65,true,,372,93,93,373,0,2
1572967592693,386,HTTP Request - webapp - vm,200,OK,Performance web-app 1-68,true,,372,98,98,386,0,43
1572967592734,352,HTTP Request - webapp - vm,200,OK,Performance web-app 1-48,true,,372,99,99,352,0,5
1572967592735,353,HTTP Request - webapp - vm,200,OK,Performance web-app 1-16,true,,372,99,99,353,0,4
1572967592735,357,HTTP Request - webapp - vm,200,OK,Performance web-app 1-73,true,,372,98,98,357,0,4
1572967592690,405,HTTP Request - webapp - vm,200,OK,Performance web-app 1-28,true,,372,99,99,405,0,46
1572967592736,359,HTTP Request - webapp - vm,200,OK,Performance web-app 1-11,true,,372,99,99,359,0,4
1572967592736,360,HTTP Request - webapp - vm,200,OK,Performance web-app 1-22,true,,372,97,97,360,0,4
1572967592735,379,HTTP Request - webapp - vm,200,OK,Performance web-app 1-47,true,,372,98,98,379,0,4
1572967592734,380,HTTP Request - webapp - vm,200,OK,Performance web-app 1-23,true,,372,98,98,380,0,5
1572967592690,468,HTTP Request - webapp - vm,200,OK,Performance web-app 1-20,true,,372,103,103,468,0,44
1572967592735,424,HTTP Request - webapp - vm,200,OK,Performance web-app 1-45,true,,372,102,102,424,0,4
1572967592735,424,HTTP Request - webapp - vm,200,OK,Performance web-app 1-21,true,,372,102,102,424,0,4
1572967592710,449,HTTP Request - webapp - vm,200,OK,Performance web-app 1-70,true,,372,102,102,449,0,26
1572967592735,425,HTTP Request - webapp - vm,200,OK,Performance web-app 1-24,true,,372,101,101,425,0,4
1572967592735,425,HTTP Request - webapp - vm,200,OK,Performance web-app 1-46,true,,372,101,101,425,0,4
1572967592719,441,HTTP Request - webapp - vm,200,OK,Performance web-app 1-71,true,,372,100,100,441,0,17
1572967592749,411,HTTP Request - webapp - vm,200,OK,Performance web-app 1-75,true,,372,100,100,411,0,3
1572967592743,418,HTTP Request - webapp - vm,200,OK,Performance web-app 1-74,true,,372,100,100,418,0,2
1572967592758,409,HTTP Request - webapp - vm,200,OK,Performance web-app 1-76,true,,372,101,101,409,0,2
1572967592776,423,HTTP Request - webapp - vm,200,OK,Performance web-app 1-33,true,,372,105,105,423,0,4
1572967592759,442,HTTP Request - webapp - vm,200,OK,Performance web-app 1-29,true,,372,104,104,442,0,4
1572967592764,438,HTTP Request - webapp - vm,200,OK,Performance web-app 1-50,true,,372,103,103,438,0,3
1572967592760,443,HTTP Request - webapp - vm,200,OK,Performance web-app 1-32,true,,372,103,103,443,0,3
1572967592764,446,HTTP Request - webapp - vm,200,OK,Performance web-app 1-51,true,,372,103,103,446,0,3
1572967592786,472,HTTP Request - webapp - vm,200,OK,Performance web-app 1-27,true,,372,109,109,472,0,3
1572967592774,484,HTTP Request - webapp - vm,200,OK,Performance web-app 1-78,true,,372,109,109,484,0,2
1572967592760,499,HTTP Request - webapp - vm,200,OK,Performance web-app 1-25,true,,372,108,108,499,0,3
1572967592829,430,HTTP Request - webapp - vm,200,OK,Performance web-app 1-85,true,,372,108,108,430,0,11
1572967592782,477,HTTP Request - webapp - vm,200,OK,Performance web-app 1-79,true,,372,107,107,477,0,6
1572967592766,494,HTTP Request - webapp - vm,200,OK,Performance web-app 1-77,true,,372,107,107,494,0,3
1572967592821,439,HTTP Request - webapp - vm,200,OK,Performance web-app 1-84,true,,372,107,107,439,0,19
1572967592760,500,HTTP Request - webapp - vm,200,OK,Performance web-app 1-42,true,,372,107,107,500,0,3
1572967592806,455,HTTP Request - webapp - vm,200,OK,Performance web-app 1-82,true,,372,107,107,455,0,35
1572967592838,422,HTTP Request - webapp - vm,200,OK,Performance web-app 1-35,true,,372,107,107,422,0,5
1572967592815,445,HTTP Request - webapp - vm,200,OK,Performance web-app 1-83,true,,372,107,107,445,0,25
1572967592853,423,HTTP Request - webapp - vm,200,OK,Performance web-app 1-88,true,,372,108,108,423,0,3
1572967592838,440,HTTP Request - webapp - vm,200,OK,Performance web-app 1-86,true,,372,109,109,440,0,7
1572967592838,440,HTTP Request - webapp - vm,200,OK,Performance web-app 1-49,true,,372,109,109,440,0,5
1572967592791,488,HTTP Request - webapp - vm,200,OK,Performance web-app 1-80,true,,372,109,109,488,0,50
1572967592798,488,HTTP Request - webapp - vm,200,OK,Performance web-app 1-81,true,,372,110,110,488,0,43
1572967592845,443,HTTP Request - webapp - vm,200,OK,Performance web-app 1-87,true,,372,110,110,443,0,4
1572967592839,463,HTTP Request - webapp - vm,200,OK,Performance web-app 1-53,true,,372,112,112,463,0,7
1572967592840,470,HTTP Request - webapp - vm,200,OK,Performance web-app 1-60,true,,372,113,113,470,0,6
1572967592790,522,HTTP Request - webapp - vm,200,OK,Performance web-app 1-52,true,,372,113,113,522,0,50
1572967592840,472,HTTP Request - webapp - vm,200,OK,Performance web-app 1-34,true,,372,113,113,472,0,6
1572967592863,454,HTTP Request - webapp - vm,200,OK,Performance web-app 1-89,true,,372,113,113,454,0,5
1572967592864,498,HTTP Request - webapp - vm,200,OK,Performance web-app 1-55,true,,372,118,118,498,0,4
1572967592873,490,HTTP Request - webapp - vm,200,OK,Performance web-app 1-56,true,,372,118,118,490,0,3
1572967592863,500,HTTP Request - webapp - vm,200,OK,Performance web-app 1-37,true,,372,118,118,500,0,5
1572967592878,485,HTTP Request - webapp - vm,200,OK,Performance web-app 1-91,true,,372,118,118,485,0,3
1572967592870,493,HTTP Request - webapp - vm,200,OK,Performance web-app 1-90,true,,372,117,117,493,0,3
1572967592864,500,HTTP Request - webapp - vm,200,OK,Performance web-app 1-58,true,,372,117,117,500,0,4
1572967592841,523,HTTP Request - webapp - vm,200,OK,Performance web-app 1-54,true,,372,118,118,523,0,5
1572967592864,501,HTTP Request - webapp - vm,200,OK,Performance web-app 1-59,true,,372,118,118,501,0,4
1572967592874,491,HTTP Request - webapp - vm,200,OK,Performance web-app 1-57,true,,372,118,118,491,0,3
1572967592885,480,HTTP Request - webapp - vm,200,OK,Performance web-app 1-92,true,,372,118,118,480,0,3
1572967592893,473,HTTP Request - webapp - vm,200,OK,Performance web-app 1-93,true,,372,118,118,473,0,44
1572967592944,440,HTTP Request - webapp - vm,200,OK,Performance web-app 1-99,true,,372,120,120,440,0,3
1572967592943,442,HTTP Request - webapp - vm,200,OK,Performance web-app 1-62,true,,372,120,120,442,0,3
1572967592926,486,HTTP Request - webapp - vm,200,OK,Performance web-app 1-97,true,,372,124,124,486,0,15
1572967592919,494,HTTP Request - webapp - vm,200,OK,Performance web-app 1-96,true,,372,124,124,494,0,22
1572967592902,519,HTTP Request - webapp - vm,200,OK,Performance web-app 1-94,true,,372,125,125,519,0,39
1572967592940,482,HTTP Request - webapp - vm,200,OK,Performance web-app 1-30,true,,372,125,125,482,0,5
1572967592911,511,HTTP Request - webapp - vm,200,OK,Performance web-app 1-95,true,,372,125,125,511,0,30
1572967592934,488,HTTP Request - webapp - vm,200,OK,Performance web-app 1-98,true,,372,124,124,488,0,8
1572967592939,483,HTTP Request - webapp - vm,200,OK,Performance web-app 1-36,true,,372,124,124,483,0,4
1572967592940,522,HTTP Request - webapp - vm,200,OK,Performance web-app 1-61,true,,372,128,128,522,0,5
1572967592942,520,HTTP Request - webapp - vm,200,OK,Performance web-app 1-63,true,,372,128,128,520,0,4
1572967592940,522,HTTP Request - webapp - vm,200,OK,Performance web-app 1-31,true,,372,128,128,522,0,5
1572967592940,523,HTTP Request - webapp - vm,200,OK,Performance web-app 1-38,true,,372,128,128,523,0,5
1572967592956,514,HTTP Request - webapp - vm,200,OK,Performance web-app 1-64,true,,372,127,127,514,0,3
1572967592949,527,HTTP Request - webapp - vm,200,OK,Performance web-app 1-100,true,,372,127,127,527,0,3
1572967592981,513,HTTP Request - webapp - vm,200,OK,Performance web-app 1-104,true,,372,130,130,513,0,3
1572967592973,528,HTTP Request - webapp - vm,200,OK,Performance web-app 1-103,true,,372,130,130,528,0,3
1572967592989,514,HTTP Request - webapp - vm,200,OK,Performance web-app 1-105,true,,372,131,131,514,0,4
1572967592966,537,HTTP Request - webapp - vm,200,OK,Performance web-app 1-102,true,,372,131,131,537,0,4
1572967592957,547,HTTP Request - webapp - vm,200,OK,Performance web-app 1-101,true,,372,131,131,547,0,3
1572967593043,464,HTTP Request - webapp - vm,200,OK,Performance web-app 1-43,true,,372,131,131,464,0,14
1572967592992,517,HTTP Request - webapp - vm,200,OK,Performance web-app 1-40,true,,372,131,131,517,0,3
1572967593043,474,HTTP Request - webapp - vm,200,OK,Performance web-app 1-41,true,,372,130,130,474,0,5
1572967593043,481,HTTP Request - webapp - vm,200,OK,Performance web-app 1-66,true,,372,130,130,481,0,14
1572967593037,485,HTTP Request - webapp - vm,200,OK,Performance web-app 1-111,true,,372,130,130,485,0,10
1572967593043,526,HTTP Request - webapp - vm,200,OK,Performance web-app 1-44,true,,372,136,136,526,0,14
1572967593043,526,HTTP Request - webapp - vm,200,OK,Performance web-app 1-39,true,,372,136,136,526,0,5
1572967593046,523,HTTP Request - webapp - vm,200,OK,Performance web-app 1-112,true,,372,135,135,523,0,12
1572967593014,555,HTTP Request - webapp - vm,200,OK,Performance web-app 1-108,true,,372,134,134,555,0,33
1572967593044,525,HTTP Request - webapp - vm,200,OK,Performance web-app 1-65,true,,372,134,134,525,0,14
1572967593021,549,HTTP Request - webapp - vm,200,OK,Performance web-app 1-109,true,,372,134,134,549,0,26
1572967593006,564,HTTP Request - webapp - vm,200,OK,Performance web-app 1-107,true,,372,134,134,564,0,38
1572967592999,571,HTTP Request - webapp - vm,200,OK,Performance web-app 1-106,true,,372,134,134,571,0,45
1572967593044,526,HTTP Request - webapp - vm,200,OK,Performance web-app 1-67,true,,372,134,134,526,0,14
1572967593044,531,HTTP Request - webapp - vm,200,OK,Performance web-app 1-72,true,,372,135,135,531,0,14
1572967593029,553,HTTP Request - webapp - vm,200,OK,Performance web-app 1-110,true,,372,136,136,553,0,18
1572967593053,529,HTTP Request - webapp - vm,200,OK,Performance web-app 1-113,true,,372,136,136,529,0,6
1572967593044,538,HTTP Request - webapp - vm,200,OK,Performance web-app 1-69,true,,372,136,136,538,0,13
1572967593079,507,HTTP Request - webapp - vm,200,OK,Performance web-app 1-68,true,,372,136,136,507,0,4
1572967593062,525,HTTP Request - webapp - vm,200,OK,Performance web-app 1-114,true,,372,136,136,525,0,3
1572967593079,517,HTTP Request - webapp - vm,200,OK,Performance web-app 1-116,true,,372,137,137,517,0,3
1572967593093,503,HTTP Request - webapp - vm,200,OK,Performance web-app 1-73,true,,372,137,137,503,0,3
1572967593071,530,HTTP Request - webapp - vm,200,OK,Performance web-app 1-115,true,,372,138,138,530,0,3
1572967593086,523,HTTP Request - webapp - vm,200,OK,Performance web-app 1-48,true,,372,139,139,523,0,9
1572967593142,475,HTTP Request - webapp - vm,200,OK,Performance web-app 1-124,true,,372,139,139,475,0,19
1572967593110,509,HTTP Request - webapp - vm,200,OK,Performance web-app 1-120,true,,372,139,139,509,0,2
1572967593086,535,HTTP Request - webapp - vm,200,OK,Performance web-app 1-117,true,,372,139,139,535,0,2
1572967593118,551,HTTP Request - webapp - vm,200,OK,Performance web-app 1-121,true,,372,145,145,551,0,43
1572967593114,555,HTTP Request - webapp - vm,200,OK,Performance web-app 1-47,true,,372,145,145,555,0,47
1572967593102,567,HTTP Request - webapp - vm,200,OK,Performance web-app 1-119,true,,372,146,146,567,0,2
1572967593094,575,HTTP Request - webapp - vm,200,OK,Performance web-app 1-118,true,,372,145,145,575,0,3
1572967593126,543,HTTP Request - webapp - vm,200,OK,Performance web-app 1-122,true,,372,145,145,543,0,35
1572967593158,512,HTTP Request - webapp - vm,200,OK,Performance web-app 1-126,true,,372,145,145,512,0,6
1572967593160,510,HTTP Request - webapp - vm,200,OK,Performance web-app 1-46,true,,372,145,145,510,0,7
1572967593159,511,HTTP Request - webapp - vm,200,OK,Performance web-app 1-45,true,,372,145,145,511,0,7
1572967593135,535,HTTP Request - webapp - vm,200,OK,Performance web-app 1-123,true,,372,145,145,535,0,26
1572967593150,520,HTTP Request - webapp - vm,200,OK,Performance web-app 1-125,true,,372,145,145,520,0,13
1572967593160,511,HTTP Request - webapp - vm,200,OK,Performance web-app 1-70,true,,372,144,144,511,0,7
1572967593166,505,HTTP Request - webapp - vm,200,OK,Performance web-app 1-127,true,,372,143,143,505,0,5
1572967593160,511,HTTP Request - webapp - vm,200,OK,Performance web-app 1-71,true,,372,143,143,511,0,7
1572967593168,524,HTTP Request - webapp - vm,200,OK,Performance web-app 1-76,true,,372,145,145,524,0,3
1572967593161,541,HTTP Request - webapp - vm,200,OK,Performance web-app 1-75,true,,372,147,147,541,0,7
1572967593190,513,HTTP Request - webapp - vm,200,OK,Performance web-app 1-130,true,,372,147,147,513,0,3
1572967593182,525,HTTP Request - webapp - vm,200,OK,Performance web-app 1-129,true,,372,147,147,525,0,7
1572967593174,537,HTTP Request - webapp - vm,200,OK,Performance web-app 1-128,true,,372,148,148,537,0,4
1572967593205,506,HTTP Request - webapp - vm,200,OK,Performance web-app 1-132,true,,372,148,148,506,0,2
1572967593161,557,HTTP Request - webapp - vm,200,OK,Performance web-app 1-74,true,,372,149,149,557,0,7
1572967593202,524,HTTP Request - webapp - vm,200,OK,Performance web-app 1-50,true,,372,150,150,524,0,3
1572967593246,536,HTTP Request - webapp - vm,200,OK,Performance web-app 1-137,true,,372,156,156,536,0,15
1572967593198,585,HTTP Request - webapp - vm,200,OK,Performance web-app 1-131,true,,372,156,156,585,0,3
1572967593230,553,HTTP Request - webapp - vm,200,OK,Performance web-app 1-135,true,,372,156,156,553,0,31
1572967593213,570,HTTP Request - webapp - vm,200,OK,Performance web-app 1-133,true,,372,156,156,570,0,45
1572967593222,562,HTTP Request - webapp - vm,200,OK,Performance web-app 1-134,true,,372,156,156,562,0,39
1572967593261,523,HTTP Request - webapp - vm,200,OK,Performance web-app 1-84,true,,372,156,156,523,0,6
1572967593237,547,HTTP Request - webapp - vm,200,OK,Performance web-app 1-136,true,,372,156,156,547,0,24
1572967593259,526,HTTP Request - webapp - vm,200,OK,Performance web-app 1-85,true,,372,156,156,526,0,8
1572967593210,575,HTTP Request - webapp - vm,200,OK,Performance web-app 1-51,true,,372,156,156,575,0,2
1572967593261,524,HTTP Request - webapp - vm,200,OK,Performance web-app 1-77,true,,372,156,156,524,0,6
1572967593262,524,HTTP Request - webapp - vm,200,OK,Performance web-app 1-82,true,,372,155,155,524,0,6
1572967593253,533,HTTP Request - webapp - vm,200,OK,Performance web-app 1-138,true,,372,155,155,533,0,9
1572967593259,527,HTTP Request - webapp - vm,200,OK,Performance web-app 1-78,true,,372,155,155,527,0,7
1572967593279,536,HTTP Request - webapp - vm,200,OK,Performance web-app 1-80,true,,372,159,159,536,0,3
1572967593270,548,HTTP Request - webapp - vm,200,OK,Performance web-app 1-140,true,,372,159,159,548,0,3
1572967593285,542,HTTP Request - webapp - vm,200,OK,Performance web-app 1-142,true,,372,160,160,542,0,2
1572967593278,551,HTTP Request - webapp - vm,200,OK,Performance web-app 1-86,true,,372,160,160,551,0,3
1572967593264,609,HTTP Request - webapp - vm,200,OK,Performance web-app 1-139,true,,372,166,166,609,0,4
1572967593277,597,HTTP Request - webapp - vm,200,OK,Performance web-app 1-88,true,,372,166,166,597,0,2
1572967593278,596,HTTP Request - webapp - vm,200,OK,Performance web-app 1-49,true,,372,166,166,596,0,3
1572967593286,588,HTTP Request - webapp - vm,200,OK,Performance web-app 1-81,true,,372,166,166,588,0,2
1572967593277,597,HTTP Request - webapp - vm,200,OK,Performance web-app 1-141,true,,372,165,165,597,0,3
1572967593293,582,HTTP Request - webapp - vm,200,OK,Performance web-app 1-143,true,,372,165,165,582,0,3
1572967593262,613,HTTP Request - webapp - vm,200,OK,Performance web-app 1-79,true,,372,165,165,613,0,6
1572967593262,613,HTTP Request - webapp - vm,200,OK,Performance web-app 1-83,true,,372,165,165,613,0,6
1572967593288,587,HTTP Request - webapp - vm,200,OK,Performance web-app 1-87,true,,372,165,165,587,0,5
1572967593261,614,HTTP Request - webapp - vm,200,OK,Performance web-app 1-42,true,,372,165,165,614,0,7
1572967593309,567,HTTP Request - webapp - vm,200,OK,Performance web-app 1-145,true,,372,165,165,567,0,2
1572967593310,566,HTTP Request - webapp - vm,200,OK,Performance web-app 1-60,true,,372,164,164,566,0,4
1572967593301,575,HTTP Request - webapp - vm,200,OK,Performance web-app 1-144,true,,372,164,164,575,0,3
1572967593358,537,HTTP Request - webapp - vm,200,OK,Performance web-app 1-151,true,,372,166,166,537,0,9
1572967593302,597,HTTP Request - webapp - vm,200,OK,Performance web-app 1-53,true,,372,166,166,597,0,2
1572967593349,562,HTTP Request - webapp - vm,200,OK,Performance web-app 1-150,true,,372,167,167,562,0,17
1572967593334,579,HTTP Request - webapp - vm,200,OK,Performance web-app 1-148,true,,372,167,167,579,0,33
1572967593341,573,HTTP Request - webapp - vm,200,OK,Performance web-app 1-149,true,,372,167,167,573,0,26
1572967593312,602,HTTP Request - webapp - vm,200,OK,Performance web-app 1-52,true,,372,167,167,602,0,5
1572967593364,567,HTTP Request - webapp - vm,200,OK,Performance web-app 1-90,true,,372,168,168,567,0,7
1572967593326,608,HTTP Request - webapp - vm,200,OK,Performance web-app 1-147,true,,372,169,169,608,0,40
1572967593318,616,HTTP Request - webapp - vm,200,OK,Performance web-app 1-146,true,,372,169,169,616,0,48
1572967593363,615,HTTP Request - webapp - vm,200,OK,Performance web-app 1-55,true,,372,174,174,615,0,7
1572967593364,614,HTTP Request - webapp - vm,200,OK,Performance web-app 1-58,true,,372,174,174,614,0,7
1572967593317,662,HTTP Request - webapp - vm,200,OK,Performance web-app 1-89,true,,372,173,173,662,0,49
1572967593365,614,HTTP Request - webapp - vm,200,OK,Performance web-app 1-59,true,,372,172,172,614,0,7
1572967593363,616,HTTP Request - webapp - vm,200,OK,Performance web-app 1-56,true,,372,172,172,616,0,7
1572967593366,614,HTTP Request - webapp - vm,200,OK,Performance web-app 1-92,true,,372,170,170,614,0,6
1572967593397,583,HTTP Request - webapp - vm,200,OK,Performance web-app 1-156,true,,372,170,170,583,0,4
1572967593365,616,HTTP Request - webapp - vm,200,OK,Performance web-app 1-57,true,,372,170,170,616,0,7
1572967593366,615,HTTP Request - webapp - vm,200,OK,Performance web-app 1-93,true,,372,169,169,615,0,7
1572967593365,617,HTTP Request - webapp - vm,200,OK,Performance web-app 1-54,true,,372,170,170,617,0,7
1572967593364,618,HTTP Request - webapp - vm,200,OK,Performance web-app 1-91,true,,372,169,169,618,0,6
1572967593367,619,HTTP Request - webapp - vm,200,OK,Performance web-app 1-152,true,,372,169,169,619,0,6
1572967593374,632,HTTP Request - webapp - vm,200,OK,Performance web-app 1-153,true,,372,172,172,632,0,5
1572967593385,633,HTTP Request - webapp - vm,200,OK,Performance web-app 1-99,true,,372,173,173,633,0,3
1572967593412,607,HTTP Request - webapp - vm,200,OK,Performance web-app 1-158,true,,372,173,173,607,0,3
1572967593413,669,HTTP Request - webapp - vm,200,OK,Performance web-app 1-96,true,,372,181,181,669,0,3
1572967593385,697,HTTP Request - webapp - vm,200,OK,Performance web-app 1-62,true,,372,181,181,697,0,3
1572967593461,621,HTTP Request - webapp - vm,200,OK,Performance web-app 1-164,true,,372,181,181,621,0,18
1572967593463,620,HTTP Request - webapp - vm,200,OK,Performance web-app 1-63,true,,372,181,181,620,0,17
1572967593454,629,HTTP Request - webapp - vm,200,OK,Performance web-app 1-163,true,,372,180,180,629,0,25
1572967593382,701,HTTP Request - webapp - vm,200,OK,Performance web-app 1-154,true,,372,179,179,701,0,4
1572967593447,636,HTTP Request - webapp - vm,200,OK,Performance web-app 1-162,true,,372,179,179,636,0,32
1572967593412,672,HTTP Request - webapp - vm,200,OK,Performance web-app 1-97,true,,372,179,179,672,0,3
1572967593422,661,HTTP Request - webapp - vm,200,OK,Performance web-app 1-94,true,,372,179,179,661,0,57
1572967593405,679,HTTP Request - webapp - vm,200,OK,Performance web-app 1-157,true,,372,179,179,679,0,3
1572967593391,695,HTTP Request - webapp - vm,200,OK,Performance web-app 1-155,true,,372,180,180,695,0,10
1572967593421,666,HTTP Request - webapp - vm,200,OK,Performance web-app 1-159,true,,372,180,180,666,0,57
1572967593462,625,HTTP Request - webapp - vm,200,OK,Performance web-app 1-61,true,,372,180,180,625,0,18
1572967593438,679,HTTP Request - webapp - vm,200,OK,Performance web-app 1-161,true,,372,182,182,679,0,41
1572967593478,639,HTTP Request - webapp - vm,200,OK,Performance web-app 1-166,true,,372,182,182,639,0,10
1572967593422,695,HTTP Request - webapp - vm,200,OK,Performance web-app 1-98,true,,372,182,182,695,0,57
1572967593422,695,HTTP Request - webapp - vm,200,OK,Performance web-app 1-95,true,,372,183,183,695,0,57
1572967593476,643,HTTP Request - webapp - vm,200,OK,Performance web-app 1-100,true,,372,183,183,643,0,12
1572967593429,707,HTTP Request - webapp - vm,200,OK,Performance web-app 1-160,true,,372,185,185,707,0,50
1572967593470,715,HTTP Request - webapp - vm,200,OK,Performance web-app 1-64,true,,372,191,191,715,0,15
1572967593486,700,HTTP Request - webapp - vm,200,OK,Performance web-app 1-167,true,,372,190,190,700,0,3
1572967593503,683,HTTP Request - webapp - vm,200,OK,Performance web-app 1-105,true,,372,190,190,683,0,4
1572967593469,717,HTTP Request - webapp - vm,200,OK,Performance web-app 1-165,true,,372,190,190,717,0,14
1572967593502,684,HTTP Request - webapp - vm,200,OK,Performance web-app 1-169,true,,372,190,190,684,0,5
1572967593495,691,HTTP Request - webapp - vm,200,OK,Performance web-app 1-104,true,,372,190,190,691,0,3
1572967593503,683,HTTP Request - webapp - vm,200,OK,Performance web-app 1-102,true,,372,190,190,683,0,4
1572967593501,686,HTTP Request - webapp - vm,200,OK,Performance web-app 1-103,true,,372,190,190,686,0,5
1572967593493,694,HTTP Request - webapp - vm,200,OK,Performance web-app 1-168,true,,372,190,190,694,0,4
1572967593509,678,HTTP Request - webapp - vm,200,OK,Performance web-app 1-170,true,,372,190,190,678,0,3
1572967593551,636,HTTP Request - webapp - vm,200,OK,Performance web-app 1-175,true,,372,190,190,636,0,20
1572967593504,684,HTTP Request - webapp - vm,200,OK,Performance web-app 1-101,true,,372,190,190,684,0,3
1572967593519,669,HTTP Request - webapp - vm,200,OK,Performance web-app 1-171,true,,372,190,190,669,0,3
1572967593535,673,HTTP Request - webapp - vm,200,OK,Performance web-app 1-173,true,,372,192,192,673,0,36
1572967593541,675,HTTP Request - webapp - vm,200,OK,Performance web-app 1-174,true,,372,192,192,675,0,30
1572967593525,694,HTTP Request - webapp - vm,200,OK,Performance web-app 1-111,true,,372,192,192,694,0,46
1572967593567,656,HTTP Request - webapp - vm,200,OK,Performance web-app 1-177,true,,372,192,192,656,0,8
1572967593569,658,HTTP Request - webapp - vm,200,OK,Performance web-app 1-108,true,,372,192,192,658,0,6
1572967593582,645,HTTP Request - webapp - vm,200,OK,Performance web-app 1-110,true,,372,192,192,645,0,4
1572967593557,727,HTTP Request - webapp - vm,200,OK,Performance web-app 1-176,true,,372,192,192,727,0,14
1572967593525,760,HTTP Request - webapp - vm,200,OK,Performance web-app 1-66,true,,372,192,192,760,0,45
1572967593526,759,HTTP Request - webapp - vm,200,OK,Performance web-app 1-172,true,,372,192,192,759,0,45
1572967593570,715,HTTP Request - webapp - vm,200,OK,Performance web-app 1-65,true,,372,192,192,715,0,5
1572967593571,714,HTTP Request - webapp - vm,200,OK,Performance web-app 1-106,true,,372,191,191,714,0,5
1572967593589,697,HTTP Request - webapp - vm,200,OK,Performance web-app 1-180,true,,372,190,190,697,0,3
1572967593569,717,HTTP Request - webapp - vm,200,OK,Performance web-app 1-112,true,,372,190,190,717,0,6
1572967593570,716,HTTP Request - webapp - vm,200,OK,Performance web-app 1-109,true,,372,190,190,716,0,5
1572967593570,716,HTTP Request - webapp - vm,200,OK,Performance web-app 1-107,true,,372,190,190,716,0,5
1572967593571,715,HTTP Request - webapp - vm,200,OK,Performance web-app 1-67,true,,372,190,190,715,0,5
1572967593582,704,HTTP Request - webapp - vm,200,OK,Performance web-app 1-113,true,,372,190,190,704,0,4
1572967593575,711,HTTP Request - webapp - vm,200,OK,Performance web-app 1-72,true,,372,189,189,711,0,4
1572967593574,713,HTTP Request - webapp - vm,200,OK,Performance web-app 1-178,true,,372,189,189,713,0,2
1572967593587,705,HTTP Request - webapp - vm,200,OK,Performance web-app 1-114,true,,372,188,188,705,0,3
1572967593582,727,HTTP Request - webapp - vm,200,OK,Performance web-app 1-69,true,,372,188,188,727,0,4
1572967593586,726,HTTP Request - webapp - vm,200,OK,Performance web-app 1-68,true,,372,187,187,726,0,4
1572967593619,708,HTTP Request - webapp - vm,200,OK,Performance web-app 1-120,true,,372,186,186,708,0,4
1572967593601,729,HTTP Request - webapp - vm,200,OK,Performance web-app 1-115,true,,372,186,186,729,0,3
1572967593605,730,HTTP Request - webapp - vm,200,OK,Performance web-app 1-182,true,,372,186,186,730,0,5
1572967593617,722,HTTP Request - webapp - vm,200,OK,Performance web-app 1-124,true,,372,186,186,722,0,5
1572967593621,718,HTTP Request - webapp - vm,200,OK,Performance web-app 1-184,true,,372,186,186,718,0,4
1572967593652,735,HTTP Request - webapp - vm,200,OK,Performance web-app 1-188,true,,372,186,186,735,0,19
1572967593614,774,HTTP Request - webapp - vm,200,OK,Performance web-app 1-183,true,,372,186,186,774,0,5
1572967593629,759,HTTP Request - webapp - vm,200,OK,Performance web-app 1-185,true,,372,186,186,759,0,42
1572967593645,743,HTTP Request - webapp - vm,200,OK,Performance web-app 1-187,true,,372,186,186,743,0,26
1572967593582,806,HTTP Request - webapp - vm,200,OK,Performance web-app 1-179,true,,372,186,186,806,0,5
1572967593637,751,HTTP Request - webapp - vm,200,OK,Performance web-app 1-186,true,,372,186,186,751,0,34
1572967593669,719,HTTP Request - webapp - vm,200,OK,Performance web-app 1-119,true,,372,186,186,719,0,7
1572967593671,717,HTTP Request - webapp - vm,200,OK,Performance web-app 1-127,true,,372,186,186,717,0,7
1572967593661,727,HTTP Request - webapp - vm,200,OK,Performance web-app 1-189,true,,372,186,186,727,0,10
1572967593672,717,HTTP Request - webapp - vm,200,OK,Performance web-app 1-190,true,,372,186,186,717,0,6
1572967593621,768,HTTP Request - webapp - vm,200,OK,Performance web-app 1-117,true,,372,186,186,768,0,3
1572967593671,718,HTTP Request - webapp - vm,200,OK,Performance web-app 1-70,true,,372,186,186,718,0,7
1572967593669,720,HTTP Request - webapp - vm,200,OK,Performance web-app 1-121,true,,372,186,186,720,0,6
1572967593671,727,HTTP Request - webapp - vm,200,OK,Performance web-app 1-71,true,,372,185,185,727,0,7
1572967593670,735,HTTP Request - webapp - vm,200,OK,Performance web-app 1-126,true,,372,184,184,735,0,6
1572967593671,735,HTTP Request - webapp - vm,200,OK,Performance web-app 1-125,true,,372,184,184,735,0,7
1572967593718,719,HTTP Request - webapp - vm,200,OK,Performance web-app 1-74,true,,372,184,184,719,0,2
1572967593692,750,HTTP Request - webapp - vm,200,OK,Performance web-app 1-193,true,,372,183,183,750,0,3
1572967593685,759,HTTP Request - webapp - vm,200,OK,Performance web-app 1-192,true,,372,183,183,759,0,4
1572967593692,795,HTTP Request - webapp - vm,200,OK,Performance web-app 1-76,true,,372,183,183,795,0,2
1572967593750,738,HTTP Request - webapp - vm,200,OK,Performance web-app 1-200,true,,372,182,182,738,0,37
1572967593764,724,HTTP Request - webapp - vm,200,OK,Performance web-app 1-202,true,,372,182,182,724,0,23
1572967593701,787,HTTP Request - webapp - vm,200,OK,Performance web-app 1-194,true,,372,182,182,787,0,3
1572967593742,747,HTTP Request - webapp - vm,200,OK,Performance web-app 1-199,true,,372,182,182,747,0,45
1572967593783,706,HTTP Request - webapp - vm,200,OK,Performance web-app 1-137,true,,372,182,182,706,0,7
1572967593732,757,HTTP Request - webapp - vm,200,OK,Performance web-app 1-198,true,,372,182,182,757,0,54
1572967593716,773,HTTP Request - webapp - vm,200,OK,Performance web-app 1-196,true,,372,182,182,773,0,3
1572967593783,707,HTTP Request - webapp - vm,200,OK,Performance web-app 1-135,true,,372,182,182,707,0,8
1572967593724,766,HTTP Request - webapp - vm,200,OK,Performance web-app 1-197,true,,372,182,182,766,0,3
1572967593781,709,HTTP Request - webapp - vm,200,OK,Performance web-app 1-204,true,,372,182,182,709,0,6
1572967593756,734,HTTP Request - webapp - vm,200,OK,Performance web-app 1-201,true,,372,182,182,734,0,31
1572967593773,717,HTTP Request - webapp - vm,200,OK,Performance web-app 1-203,true,,372,182,182,717,0,14
1572967593869,651,HTTP Request - webapp - vm,200,OK,Performance web-app 1-215,true,,372,182,182,651,0,8
1572967593829,691,HTTP Request - webapp - vm,200,OK,Performance web-app 1-86,true,,372,182,182,691,0,43
1572967593828,693,HTTP Request - webapp - vm,200,OK,Performance web-app 1-142,true,,372,181,181,693,0,3
1572967593821,700,HTTP Request - webapp - vm,200,OK,Performance web-app 1-209,true,,372,181,181,700,0,3
1572967593797,725,HTTP Request - webapp - vm,200,OK,Performance web-app 1-206,true,,372,181,181,725,0,10
1572967593813,709,HTTP Request - webapp - vm,200,OK,Performance web-app 1-208,true,,372,181,181,709,0,4
1572967593815,708,HTTP Request - webapp - vm,200,OK,Performance web-app 1-80,true,,372,181,181,708,0,4
1572967593805,718,HTTP Request - webapp - vm,200,OK,Performance web-app 1-207,true,,372,181,181,718,0,6
1572967593786,738,HTTP Request - webapp - vm,200,OK,Performance web-app 1-78,true,,372,181,181,738,0,6
1572967593783,739,HTTP Request - webapp - vm,200,OK,Performance web-app 1-131,true,,372,181,181,739,0,8
1572967593853,687,HTTP Request - webapp - vm,200,OK,Performance web-app 1-213,true,,372,179,179,687,0,24
1572967593829,715,HTTP Request - webapp - vm,200,OK,Performance web-app 1-210,true,,372,179,179,715,0,47
1572967593861,683,HTTP Request - webapp - vm,200,OK,Performance web-app 1-214,true,,372,179,179,683,0,16
1572967593670,919,HTTP Request - webapp - vm,200,OK,Performance web-app 1-122,true,,372,179,179,919,0,6
1572967593874,715,HTTP Request - webapp - vm,200,OK,Performance web-app 1-81,true,,372,179,179,715,0,6
1572967593874,715,HTTP Request - webapp - vm,200,OK,Performance web-app 1-88,true,,372,179,179,715,0,6
1572967593874,716,HTTP Request - webapp - vm,200,OK,Performance web-app 1-139,true,,372,179,179,716,0,6
1572967593845,745,HTTP Request - webapp - vm,200,OK,Performance web-app 1-212,true,,372,177,177,745,0,32
1572967593875,715,HTTP Request - webapp - vm,200,OK,Performance web-app 1-143,true,,372,177,177,715,0,5
1572967593885,705,HTTP Request - webapp - vm,200,OK,Performance web-app 1-217,true,,372,177,177,705,0,4
1572967593876,714,HTTP Request - webapp - vm,200,OK,Performance web-app 1-144,true,,372,177,177,714,0,5
1572967593876,714,HTTP Request - webapp - vm,200,OK,Performance web-app 1-145,true,,372,177,177,714,0,5
1572967593875,716,HTTP Request - webapp - vm,200,OK,Performance web-app 1-79,true,,372,177,177,716,0,6
1572967593877,714,HTTP Request - webapp - vm,200,OK,Performance web-app 1-216,true,,372,177,177,714,0,5
1572967593837,754,HTTP Request - webapp - vm,200,OK,Performance web-app 1-211,true,,372,176,176,754,0,40
1572967593875,716,HTTP Request - webapp - vm,200,OK,Performance web-app 1-87,true,,372,176,176,716,0,6
1572967593965,647,HTTP Request - webapp - vm,200,OK,Performance web-app 1-227,true,,372,175,175,647,0,19
1572967593935,680,HTTP Request - webapp - vm,200,OK,Performance web-app 1-146,true,,372,175,175,680,0,48
1572967593974,643,HTTP Request - webapp - vm,200,OK,Performance web-app 1-228,true,,372,175,175,643,0,9
1572967593925,693,HTTP Request - webapp - vm,200,OK,Performance web-app 1-222,true,,372,175,175,693,0,3
1572967593703,917,HTTP Request - webapp - vm,200,OK,Performance web-app 1-130,true,,372,175,175,917,0,3
1572967593941,687,HTTP Request - webapp - vm,200,OK,Performance web-app 1-224,true,,372,175,175,687,0,41
1572967593671,958,HTTP Request - webapp - vm,200,OK,Performance web-app 1-123,true,,372,175,175,958,0,7
1572967593934,703,HTTP Request - webapp - vm,200,OK,Performance web-app 1-147,true,,372,175,175,703,0,49
1572967593982,664,HTTP Request - webapp - vm,200,OK,Performance web-app 1-91,true,,372,175,175,664,0,5
1572967593784,863,HTTP Request - webapp - vm,200,OK,Performance web-app 1-134,true,,372,174,174,863,0,7
1572967594005,643,HTTP Request - webapp - vm,200,OK,Performance web-app 1-232,true,,372,174,174,643,0,3
1572967593785,908,HTTP Request - webapp - vm,200,OK,Performance web-app 1-85,true,,372,174,174,908,0,6
1572967594019,674,HTTP Request - webapp - vm,200,OK,Performance web-app 1-158,true,,372,174,174,674,0,3
1572967594084,609,HTTP Request - webapp - vm,200,OK,Performance web-app 1-157,true,,372,174,174,609,0,7
1572967593933,760,HTTP Request - webapp - vm,200,OK,Performance web-app 1-223,true,,372,174,174,760,0,50
1572967594019,674,HTTP Request - webapp - vm,200,OK,Performance web-app 1-99,true,,372,173,173,674,0,2
1572967593949,744,HTTP Request - webapp - vm,200,OK,Performance web-app 1-225,true,,372,173,173,744,0,33
1572967594044,650,HTTP Request - webapp - vm,200,OK,Performance web-app 1-237,true,,372,173,173,650,0,44
1572967593909,785,HTTP Request - webapp - vm,200,OK,Performance web-app 1-220,true,,372,173,173,785,0,3
1572967594020,674,HTTP Request - webapp - vm,200,OK,Performance web-app 1-234,true,,372,172,172,674,0,2
1572967594029,665,HTTP Request - webapp - vm,200,OK,Performance web-app 1-235,true,,372,172,172,665,0,3
1572967594086,608,HTTP Request - webapp - vm,200,OK,Performance web-app 1-242,true,,372,172,172,608,0,5
1572967594013,681,HTTP Request - webapp - vm,200,OK,Performance web-app 1-233,true,,372,172,172,681,0,3
1572967594061,633,HTTP Request - webapp - vm,200,OK,Performance web-app 1-239,true,,372,172,172,633,0,26
1572967594053,650,HTTP Request - webapp - vm,200,OK,Performance web-app 1-238,true,,372,172,172,650,0,34
1572967594079,625,HTTP Request - webapp - vm,200,OK,Performance web-app 1-241,true,,372,172,172,625,0,9
1572967593932,772,HTTP Request - webapp - vm,200,OK,Performance web-app 1-90,true,,372,172,172,772,0,50
1572967594083,639,HTTP Request - webapp - vm,200,OK,Performance web-app 1-164,true,,372,171,171,639,0,5
1572967594083,642,HTTP Request - webapp - vm,200,OK,Performance web-app 1-154,true,,372,171,171,642,0,6
1572967594037,690,HTTP Request - webapp - vm,200,OK,Performance web-app 1-236,true,,372,171,171,690,0,50
1572967594102,626,HTTP Request - webapp - vm,200,OK,Performance web-app 1-244,true,,372,171,171,626,0,3
1572967594083,648,HTTP Request - webapp - vm,200,OK,Performance web-app 1-163,true,,372,171,171,648,0,6
1572967594082,651,HTTP Request - webapp - vm,200,OK,Performance web-app 1-96,true,,372,171,171,651,0,6
1572967594198,539,HTTP Request - webapp - vm,200,OK,Performance web-app 1-256,true,,372,170,170,539,0,3
1572967594070,667,HTTP Request - webapp - vm,200,OK,Performance web-app 1-240,true,,372,170,170,667,0,18
1572967594149,595,HTTP Request - webapp - vm,200,OK,Performance web-app 1-250,true,,372,170,170,595,0,39
1572967594165,585,HTTP Request - webapp - vm,200,OK,Performance web-app 1-252,true,,372,170,170,585,0,23
1572967594142,652,HTTP Request - webapp - vm,200,OK,Performance web-app 1-249,true,,372,170,170,652,0,46
1572967594136,659,HTTP Request - webapp - vm,200,OK,Performance web-app 1-160,true,,372,170,170,659,0,52
1572967594156,639,HTTP Request - webapp - vm,200,OK,Performance web-app 1-251,true,,372,170,170,639,0,32
1572967594172,624,HTTP Request - webapp - vm,200,OK,Performance web-app 1-253,true,,372,170,170,624,0,16
1572967594190,606,HTTP Request - webapp - vm,200,OK,Performance web-app 1-255,true,,372,170,170,606,0,7
1572967593914,882,HTTP Request - webapp - vm,200,OK,Performance web-app 1-149,true,,372,170,170,882,0,3
1572967594181,615,HTTP Request - webapp - vm,200,OK,Performance web-app 1-254,true,,372,170,170,615,0,7
1572967594188,608,HTTP Request - webapp - vm,200,OK,Performance web-app 1-171,true,,372,170,170,608,0,9
1572967594188,609,HTTP Request - webapp - vm,200,OK,Performance web-app 1-101,true,,372,170,170,609,0,9
1572967594110,687,HTTP Request - webapp - vm,200,OK,Performance web-app 1-245,true,,372,170,170,687,0,7
1572967593911,886,HTTP Request - webapp - vm,200,OK,Performance web-app 1-150,true,,372,169,169,886,0,2
1572967593916,881,HTTP Request - webapp - vm,200,OK,Performance web-app 1-221,true,,372,169,169,881,0,3
1572967593913,884,HTTP Request - webapp - vm,200,OK,Performance web-app 1-148,true,,372,169,169,884,0,3
1572967593901,897,HTTP Request - webapp - vm,200,OK,Performance web-app 1-219,true,,372,169,169,897,0,3
1572967594117,681,HTTP Request - webapp - vm,200,OK,Performance web-app 1-246,true,,372,169,169,681,0,3
1572967594187,611,HTTP Request - webapp - vm,200,OK,Performance web-app 1-175,true,,372,169,169,611,0,10
1572967593702,1096,HTTP Request - webapp - vm,200,OK,Performance web-app 1-75,true,,372,169,169,1096,0,3
1572967594284,547,HTTP Request - webapp - vm,200,OK,Performance web-app 1-176,true,,372,168,168,547,0,3
1572967594287,559,HTTP Request - webapp - vm,200,OK,Performance web-app 1-178,true,,372,168,168,559,0,3
1572967594293,553,HTTP Request - webapp - vm,200,OK,Performance web-app 1-114,true,,372,168,168,553,0,2
1572967594285,561,HTTP Request - webapp - vm,200,OK,Performance web-app 1-172,true,,372,168,168,561,0,5
1572967594285,562,HTTP Request - webapp - vm,200,OK,Performance web-app 1-106,true,,372,167,167,562,0,5
1572967594286,561,HTTP Request - webapp - vm,200,OK,Performance web-app 1-112,true,,372,167,167,561,0,4
1572967594286,561,HTTP Request - webapp - vm,200,OK,Performance web-app 1-113,true,,372,166,166,561,0,4
1572967594286,561,HTTP Request - webapp - vm,200,OK,Performance web-app 1-180,true,,372,164,164,561,0,4
1572967594227,620,HTTP Request - webapp - vm,200,OK,Performance web-app 1-110,true,,372,164,164,620,0,3
1572967594286,562,HTTP Request - webapp - vm,200,OK,Performance web-app 1-109,true,,372,164,164,562,0,4
1572967594084,764,HTTP Request - webapp - vm,200,OK,Performance web-app 1-162,true,,372,162,162,764,0,5
1572967594227,621,HTTP Request - webapp - vm,200,OK,Performance web-app 1-108,true,,372,162,162,621,0,3
1572967594006,843,HTTP Request - webapp - vm,200,OK,Performance web-app 1-153,true,,372,162,162,843,0,2
1572967594286,566,HTTP Request - webapp - vm,200,OK,Performance web-app 1-107,true,,372,161,161,566,0,4
1572967594084,768,HTTP Request - webapp - vm,200,OK,Performance web-app 1-94,true,,372,161,161,768,0,6
1572967594084,768,HTTP Request - webapp - vm,200,OK,Performance web-app 1-97,true,,372,161,161,768,0,5
1572967594327,527,HTTP Request - webapp - vm,200,OK,Performance web-app 1-120,true,,372,158,158,527,0,3
1572967594339,557,HTTP Request - webapp - vm,200,OK,Performance web-app 1-124,true,,372,157,157,557,0,2
1572967594330,567,HTTP Request - webapp - vm,200,OK,Performance web-app 1-115,true,,372,157,157,567,0,2
1572967594117,780,HTTP Request - webapp - vm,200,OK,Performance web-app 1-98,true,,372,156,156,780,0,3
1572967594119,778,HTTP Request - webapp - vm,200,OK,Performance web-app 1-100,true,,372,154,154,778,0,3
1572967594339,558,HTTP Request - webapp - vm,200,OK,Performance web-app 1-184,true,,372,154,154,558,0,2
1572967594117,780,HTTP Request - webapp - vm,200,OK,Performance web-app 1-166,true,,372,154,154,780,0,3
1572967594388,510,HTTP Request - webapp - vm,200,OK,Performance web-app 1-183,true,,372,153,153,510,0,5
1572967594335,563,HTTP Request - webapp - vm,200,OK,Performance web-app 1-182,true,,372,153,153,563,0,3
1572967594117,781,HTTP Request - webapp - vm,200,OK,Performance web-app 1-161,true,,372,153,153,781,0,3
1572967594388,510,HTTP Request - webapp - vm,200,OK,Performance web-app 1-187,true,,372,153,153,510,0,5
1572967593875,1023,HTTP Request - webapp - vm,200,OK,Performance web-app 1-83,true,,372,153,153,1023,0,6
1572967594389,523,HTTP Request - webapp - vm,200,OK,Performance web-app 1-189,true,,372,152,152,523,0,4
1572967594186,730,HTTP Request - webapp - vm,200,OK,Performance web-app 1-169,true,,372,152,152,730,0,10
1572967594186,731,HTTP Request - webapp - vm,200,OK,Performance web-app 1-105,true,,372,152,152,731,0,10
1572967594388,533,HTTP Request - webapp - vm,200,OK,Performance web-app 1-186,true,,372,151,151,533,0,5
1572967594186,735,HTTP Request - webapp - vm,200,OK,Performance web-app 1-167,true,,372,151,151,735,0,10
1572967594186,739,HTTP Request - webapp - vm,200,OK,Performance web-app 1-104,true,,372,151,151,739,0,10
1572967594387,538,HTTP Request - webapp - vm,200,OK,Performance web-app 1-188,true,,372,151,151,538,0,5
1572967594406,528,HTTP Request - webapp - vm,200,OK,Performance web-app 1-126,true,,372,150,150,528,0,2
1572967594187,748,HTTP Request - webapp - vm,200,OK,Performance web-app 1-102,true,,372,149,149,748,0,9
1572967594117,824,HTTP Request - webapp - vm,200,OK,Performance web-app 1-95,true,,372,148,148,824,0,3
1572967594186,758,HTTP Request - webapp - vm,200,OK,Performance web-app 1-165,true,,372,147,147,758,0,10
1572967594490,513,HTTP Request - webapp - vm,200,OK,Performance web-app 1-135,true,,372,147,147,513,0,4
1572967593957,1046,HTTP Request - webapp - vm,200,OK,Performance web-app 1-226,true,,372,147,147,1046,0,26
1572967593979,1024,HTTP Request - webapp - vm,200,OK,Performance web-app 1-89,true,,372,147,147,1024,0,7
1572967594488,516,HTTP Request - webapp - vm,200,OK,Performance web-app 1-200,true,,372,145,145,516,0,6
1572967594490,514,HTTP Request - webapp - vm,200,OK,Performance web-app 1-197,true,,372,145,145,514,0,4
1572967594444,561,HTTP Request - webapp - vm,200,OK,Performance web-app 1-192,true,,372,145,145,561,0,46
1572967594489,516,HTTP Request - webapp - vm,200,OK,Performance web-app 1-137,true,,372,145,145,516,0,5
1572967594489,516,HTTP Request - webapp - vm,200,OK,Performance web-app 1-198,true,,372,145,145,516,0,5
1572967594388,617,HTTP Request - webapp - vm,200,OK,Performance web-app 1-185,true,,372,144,144,617,0,4
1572967594490,515,HTTP Request - webapp - vm,200,OK,Performance web-app 1-201,true,,372,144,144,515,0,5
1572967594489,516,HTTP Request - webapp - vm,200,OK,Performance web-app 1-196,true,,372,144,144,516,0,5
1572967594488,518,HTTP Request - webapp - vm,200,OK,Performance web-app 1-202,true,,372,144,144,518,0,6
1572967594490,516,HTTP Request - webapp - vm,200,OK,Performance web-app 1-204,true,,372,144,144,516,0,4
1572967594488,518,HTTP Request - webapp - vm,200,OK,Performance web-app 1-194,true,,372,144,144,518,0,6
1572967594443,563,HTTP Request - webapp - vm,200,OK,Performance web-app 1-193,true,,372,144,144,563,0,3
1572967594489,517,HTTP Request - webapp - vm,200,OK,Performance web-app 1-199,true,,372,144,144,517,0,5
1572967594490,517,HTTP Request - webapp - vm,200,OK,Performance web-app 1-203,true,,372,144,144,517,0,5
1572967594522,509,HTTP Request - webapp - vm,200,OK,Performance web-app 1-206,true,,372,144,144,509,0,3
1572967593670,1360,HTTP Request - webapp - vm,200,OK,Performance web-app 1-118,true,,372,144,144,1360,0,6
1572967594521,509,HTTP Request - webapp - vm,200,OK,Performance web-app 1-142,true,,372,144,144,509,0,4
1572967594522,507,HTTP Request - webapp - vm,200,OK,Performance web-app 1-208,true,,372,144,144,507,0,3
1572967594530,497,HTTP Request - webapp - vm,200,OK,Performance web-app 1-131,true,,372,144,144,497,0,4
1572967594530,494,HTTP Request - webapp - vm,200,OK,Performance web-app 1-207,true,,372,144,144,494,0,3
1572967594520,507,HTTP Request - webapp - vm,200,OK,Performance web-app 1-215,true,,372,144,144,507,0,4
1572967594540,519,HTTP Request - webapp - vm,200,OK,Performance web-app 1-213,true,,372,142,142,519,0,3
1572967594591,510,HTTP Request - webapp - vm,200,OK,Performance web-app 1-145,true,,372,142,142,510,0,3
1572967594590,511,HTTP Request - webapp - vm,200,OK,Performance web-app 1-144,true,,372,142,142,511,0,4
1572967594591,511,HTTP Request - webapp - vm,200,OK,Performance web-app 1-216,true,,372,140,140,511,0,4
1572967594590,512,HTTP Request - webapp - vm,200,OK,Performance web-app 1-139,true,,372,140,140,512,0,4
1572967594589,513,HTTP Request - webapp - vm,200,OK,Performance web-app 1-122,true,,372,140,140,513,0,5
1572967594521,582,HTTP Request - webapp - vm,200,OK,Performance web-app 1-209,true,,372,140,140,582,0,4
1572967594590,513,HTTP Request - webapp - vm,200,OK,Performance web-app 1-143,true,,372,139,139,513,0,4
1572967594591,512,HTTP Request - webapp - vm,200,OK,Performance web-app 1-211,true,,372,137,137,512,0,4
1572967594590,513,HTTP Request - webapp - vm,200,OK,Performance web-app 1-212,true,,372,137,137,513,0,4
1572967594544,559,HTTP Request - webapp - vm,200,OK,Performance web-app 1-210,true,,372,137,137,559,0,2
1572967594590,513,HTTP Request - webapp - vm,200,OK,Performance web-app 1-217,true,,372,137,137,513,0,4
1572967593597,1507,HTTP Request - webapp - vm,200,OK,Performance web-app 1-181,true,,372,137,137,1507,0,4
1572967593596,1508,HTTP Request - webapp - vm,200,OK,Performance web-app 1-116,true,,372,137,137,1508,0,4
1572967593597,1507,HTTP Request - webapp - vm,200,OK,Performance web-app 1-73,true,,372,137,137,1507,0,3
1572967594545,559,HTTP Request - webapp - vm,200,OK,Performance web-app 1-214,true,,372,137,137,559,0,43
1572967594389,716,HTTP Request - webapp - vm,200,OK,Performance web-app 1-117,true,,372,136,136,715,0,4
1572967594388,741,HTTP Request - webapp - vm,200,OK,Performance web-app 1-119,true,,372,135,135,741,0,5
1572967594388,746,HTTP Request - webapp - vm,200,OK,Performance web-app 1-179,true,,372,134,134,746,0,5
1572967594388,748,HTTP Request - webapp - vm,200,OK,Performance web-app 1-127,true,,372,134,134,748,0,5
1572967594187,965,HTTP Request - webapp - vm,200,OK,Performance web-app 1-170,true,,372,133,133,965,0,9
1572967593786,1367,HTTP Request - webapp - vm,200,OK,Performance web-app 1-77,true,,372,133,133,1367,0,6
1572967594628,527,HTTP Request - webapp - vm,200,OK,Performance web-app 1-224,true,,372,132,132,527,0,3
1572967594617,539,HTTP Request - webapp - vm,200,OK,Performance web-app 1-228,true,,372,132,132,539,0,2
1572967594389,772,HTTP Request - webapp - vm,200,OK,Performance web-app 1-190,true,,372,132,132,772,0,4
1572967594638,526,HTTP Request - webapp - vm,200,OK,Performance web-app 1-147,true,,372,132,132,526,0,2
1572967594389,782,HTTP Request - webapp - vm,200,OK,Performance web-app 1-121,true,,372,131,131,782,0,4
1572967594694,523,HTTP Request - webapp - vm,200,OK,Performance web-app 1-237,true,,372,130,130,523,0,5
1572967594694,524,HTTP Request - webapp - vm,200,OK,Performance web-app 1-233,true,,372,130,130,524,0,7
1572967594694,525,HTTP Request - webapp - vm,200,OK,Performance web-app 1-235,true,,372,130,130,525,0,7
1572967594649,570,HTTP Request - webapp - vm,200,OK,Performance web-app 1-232,true,,372,130,130,570,0,45
1572967594693,526,HTTP Request - webapp - vm,200,OK,Performance web-app 1-157,true,,372,130,130,526,0,5
1572967594618,601,HTTP Request - webapp - vm,200,OK,Performance web-app 1-222,true,,372,130,130,601,0,2
1572967594694,525,HTTP Request - webapp - vm,200,OK,Performance web-app 1-234,true,,372,130,130,525,0,7
1572967594694,525,HTTP Request - webapp - vm,200,OK,Performance web-app 1-225,true,,372,129,129,525,0,4
1572967594694,526,HTTP Request - webapp - vm,200,OK,Performance web-app 1-242,true,,372,129,129,526,0,7
1572967594620,600,HTTP Request - webapp - vm,200,OK,Performance web-app 1-130,true,,372,129,129,600,0,3
1572967594647,573,HTTP Request - webapp - vm,200,OK,Performance web-app 1-134,true,,372,129,129,573,0,48
1572967594694,526,HTTP Request - webapp - vm,200,OK,Performance web-app 1-220,true,,372,129,129,526,0,4
1572967594693,527,HTTP Request - webapp - vm,200,OK,Performance web-app 1-223,true,,372,127,127,527,0,5
1572967594695,525,HTTP Request - webapp - vm,200,OK,Performance web-app 1-239,true,,372,127,127,525,0,6
1572967594693,529,HTTP Request - webapp - vm,200,OK,Performance web-app 1-158,true,,372,127,127,529,0,5
1572967594615,626,HTTP Request - webapp - vm,200,OK,Performance web-app 1-146,true,,372,126,126,626,0,3
1572967593711,1542,HTTP Request - webapp - vm,200,OK,Performance web-app 1-128,true,,372,125,125,1542,0,3
1572967594737,519,HTTP Request - webapp - vm,200,OK,Performance web-app 1-240,true,,372,125,125,519,0,4
1572967594703,555,HTTP Request - webapp - vm,200,OK,Performance web-app 1-238,true,,372,125,125,554,0,2
1572967594728,535,HTTP Request - webapp - vm,200,OK,Performance web-app 1-244,true,,372,125,125,535,0,3
1572967593678,1594,HTTP Request - webapp - vm,200,OK,Performance web-app 1-191,true,,372,125,125,1594,0,5
1572967594795,481,HTTP Request - webapp - vm,200,OK,Performance web-app 1-160,true,,372,125,125,481,0,7
1572967593707,1613,HTTP Request - webapp - vm,200,OK,Performance web-app 1-129,true,,372,124,124,1613,0,2
1572967594722,599,HTTP Request - webapp - vm,200,OK,Performance web-app 1-164,true,,372,124,124,599,0,3
1572967594737,585,HTTP Request - webapp - vm,200,OK,Performance web-app 1-256,true,,372,123,123,585,0,4
1572967594796,527,HTTP Request - webapp - vm,200,OK,Performance web-app 1-253,true,,372,123,123,527,0,6
1572967594794,529,HTTP Request - webapp - vm,200,OK,Performance web-app 1-249,true,,372,123,123,529,0,5
1572967594796,527,HTTP Request - webapp - vm,200,OK,Performance web-app 1-149,true,,372,123,123,527,0,6
1572967594796,528,HTTP Request - webapp - vm,200,OK,Performance web-app 1-251,true,,372,123,123,528,0,6
1572967594704,620,HTTP Request - webapp - vm,200,OK,Performance web-app 1-241,true,,372,122,122,620,0,2
1572967594797,527,HTTP Request - webapp - vm,200,OK,Performance web-app 1-245,true,,372,122,122,527,0,6
1572967594727,597,HTTP Request - webapp - vm,200,OK,Performance web-app 1-236,true,,372,122,122,597,0,3
1572967594750,575,HTTP Request - webapp - vm,200,OK,Performance web-app 1-252,true,,372,122,122,575,0,44
1572967594725,600,HTTP Request - webapp - vm,200,OK,Performance web-app 1-154,true,,372,122,122,600,0,2
1572967594731,594,HTTP Request - webapp - vm,200,OK,Performance web-app 1-163,true,,372,122,122,594,0,3
1572967594745,581,HTTP Request - webapp - vm,200,OK,Performance web-app 1-250,true,,372,120,120,581,0,7
1572967594796,530,HTTP Request - webapp - vm,200,OK,Performance web-app 1-255,true,,372,120,120,530,0,7
1572967593708,1618,HTTP Request - webapp - vm,200,OK,Performance web-app 1-195,true,,372,120,120,1618,0,4
1572967593711,1615,HTTP Request - webapp - vm,200,OK,Performance web-app 1-132,true,,372,120,120,1615,0,3
1572967594797,551,HTTP Request - webapp - vm,200,OK,Performance web-app 1-254,true,,372,120,120,551,0,6
1572967594798,550,HTTP Request - webapp - vm,200,OK,Performance web-app 1-246,true,,372,120,120,550,0,5
1572967594797,556,HTTP Request - webapp - vm,200,OK,Performance web-app 1-171,true,,372,120,120,556,0,6
1572967594612,749,HTTP Request - webapp - vm,200,OK,Performance web-app 1-227,true,,372,119,119,749,0,4
1572967593997,1366,HTTP Request - webapp - vm,200,OK,Performance web-app 1-231,true,,372,119,119,1366,0,3
1572967594798,567,HTTP Request - webapp - vm,200,OK,Performance web-app 1-148,true,,372,119,119,567,0,5
1572967594797,572,HTTP Request - webapp - vm,200,OK,Performance web-app 1-221,true,,372,118,118,572,0,6
1572967593980,1395,HTTP Request - webapp - vm,200,OK,Performance web-app 1-92,true,,372,118,118,1395,0,6
1572967593981,1444,HTTP Request - webapp - vm,200,OK,Performance web-app 1-156,true,,372,117,117,1444,0,5
1572967593982,1443,HTTP Request - webapp - vm,200,OK,Performance web-app 1-93,true,,372,117,117,1443,0,5
1572967594798,628,HTTP Request - webapp - vm,200,OK,Performance web-app 1-219,true,,372,116,116,628,0,5
1572967594798,628,HTTP Request - webapp - vm,200,OK,Performance web-app 1-175,true,,372,116,116,628,0,5
1572967593784,1643,HTTP Request - webapp - vm,200,OK,Performance web-app 1-84,true,,372,116,116,1643,0,7
1572967593786,1641,HTTP Request - webapp - vm,200,OK,Performance web-app 1-138,true,,372,115,115,1641,0,6
1572967594797,630,HTTP Request - webapp - vm,200,OK,Performance web-app 1-150,true,,372,114,114,630,0,6
1572967593990,1466,HTTP Request - webapp - vm,200,OK,Performance web-app 1-230,true,,372,113,113,1466,0,3
1572967594846,614,HTTP Request - webapp - vm,200,OK,Performance web-app 1-172,true,,372,113,113,614,0,7
1572967594898,566,HTTP Request - webapp - vm,200,OK,Performance web-app 1-187,true,,372,112,112,566,0,13
1572967594898,566,HTTP Request - webapp - vm,200,OK,Performance web-app 1-182,true,,372,112,112,566,0,4
1572967594849,617,HTTP Request - webapp - vm,200,OK,Performance web-app 1-153,true,,372,110,110,617,0,4
1572967594847,625,HTTP Request - webapp - vm,200,OK,Performance web-app 1-180,true,,372,109,109,625,0,6
1572967593785,1689,HTTP Request - webapp - vm,200,OK,Performance web-app 1-136,true,,372,108,108,1689,0,6
1572967594898,576,HTTP Request - webapp - vm,200,OK,Performance web-app 1-161,true,,372,108,108,576,0,4
1572967594898,626,HTTP Request - webapp - vm,200,OK,Performance web-app 1-184,true,,372,107,107,626,0,4
1572967594187,1342,HTTP Request - webapp - vm,200,OK,Performance web-app 1-103,true,,372,106,106,1342,0,9
1572967594187,1350,HTTP Request - webapp - vm,200,OK,Performance web-app 1-168,true,,372,106,106,1350,0,9
1572967593986,1542,HTTP Request - webapp - vm,200,OK,Performance web-app 1-152,true,,372,106,106,1542,0,4
1572967593983,1545,HTTP Request - webapp - vm,200,OK,Performance web-app 1-229,true,,372,106,106,1545,0,5
1572967594921,607,HTTP Request - webapp - vm,200,OK,Performance web-app 1-167,true,,372,106,106,607,0,2
1572967594945,583,HTTP Request - webapp - vm,200,OK,Performance web-app 1-165,true,,372,106,106,583,0,2
1572967593875,1653,HTTP Request - webapp - vm,200,OK,Performance web-app 1-141,true,,372,106,106,1653,0,5
1572967594925,603,HTTP Request - webapp - vm,200,OK,Performance web-app 1-188,true,,372,106,106,603,0,6
1572967594917,610,HTTP Request - webapp - vm,200,OK,Performance web-app 1-169,true,,372,106,106,610,0,2
1572967594921,606,HTTP Request - webapp - vm,200,OK,Performance web-app 1-186,true,,372,106,106,606,0,2
1572967593895,1632,HTTP Request - webapp - vm,200,OK,Performance web-app 1-151,true,,372,106,106,1632,0,3
1572967594912,615,HTTP Request - webapp - vm,200,OK,Performance web-app 1-189,true,,372,106,106,615,0,3
1572967593893,1634,HTTP Request - webapp - vm,200,OK,Performance web-app 1-218,true,,372,106,106,1634,0,3
1572967594898,629,HTTP Request - webapp - vm,200,OK,Performance web-app 1-183,true,,372,106,106,629,0,4
1572967594898,628,HTTP Request - webapp - vm,200,OK,Performance web-app 1-166,true,,372,106,106,628,0,4
1572967594846,680,HTTP Request - webapp - vm,200,OK,Performance web-app 1-178,true,,372,106,106,680,0,7
1572967594831,695,HTTP Request - webapp - vm,200,OK,Performance web-app 1-176,true,,372,106,106,695,0,3
1572967595004,551,HTTP Request - webapp - vm,200,OK,Performance web-app 1-200,true,,372,95,95,551,0,6
1572967595003,552,HTTP Request - webapp - vm,200,OK,Performance web-app 1-226,true,,372,95,95,552,0,6
1572967595005,558,HTTP Request - webapp - vm,200,OK,Performance web-app 1-185,true,,372,94,94,558,0,5
1572967595005,565,HTTP Request - webapp - vm,200,OK,Performance web-app 1-201,true,,372,93,93,565,0,5
1572967595005,575,HTTP Request - webapp - vm,200,OK,Performance web-app 1-198,true,,372,92,92,575,0,5
1572967595006,577,HTTP Request - webapp - vm,200,OK,Performance web-app 1-196,true,,372,91,91,577,0,4
1572967595006,579,HTTP Request - webapp - vm,200,OK,Performance web-app 1-202,true,,372,90,90,579,0,5
1572967595005,623,HTTP Request - webapp - vm,200,OK,Performance web-app 1-197,true,,372,89,89,623,0,5
1572967595006,622,HTTP Request - webapp - vm,200,OK,Performance web-app 1-193,true,,372,89,89,622,0,5
1572967595006,622,HTTP Request - webapp - vm,200,OK,Performance web-app 1-194,true,,372,88,88,622,0,5
1572967595007,621,HTTP Request - webapp - vm,200,OK,Performance web-app 1-203,true,,372,87,87,621,0,4
1572967595006,624,HTTP Request - webapp - vm,200,OK,Performance web-app 1-204,true,,372,85,85,624,0,5
1572967595032,599,HTTP Request - webapp - vm,200,OK,Performance web-app 1-206,true,,372,85,85,599,0,3
1572967595032,599,HTTP Request - webapp - vm,200,OK,Performance web-app 1-207,true,,372,85,85,599,0,3
1572967595032,599,HTTP Request - webapp - vm,200,OK,Performance web-app 1-208,true,,372,83,83,599,0,3
1572967595032,599,HTTP Request - webapp - vm,200,OK,Performance web-app 1-118,true,,372,82,82,599,0,3
1572967593789,1842,HTTP Request - webapp - vm,200,OK,Performance web-app 1-205,true,,372,82,82,1842,0,4
1572967595032,599,HTTP Request - webapp - vm,200,OK,Performance web-app 1-215,true,,372,80,80,599,0,3
1572967594848,784,HTTP Request - webapp - vm,200,OK,Performance web-app 1-162,true,,372,80,80,784,0,5
1572967593818,1814,HTTP Request - webapp - vm,200,OK,Performance web-app 1-140,true,,372,80,80,1814,0,2
1572967595104,528,HTTP Request - webapp - vm,200,OK,Performance web-app 1-116,true,,372,79,79,528,0,5
1572967595007,625,HTTP Request - webapp - vm,200,OK,Performance web-app 1-199,true,,372,77,77,625,0,5
1572967595005,627,HTTP Request - webapp - vm,200,OK,Performance web-app 1-192,true,,372,77,77,627,0,5
1572967595103,550,HTTP Request - webapp - vm,200,OK,Performance web-app 1-217,true,,372,75,75,550,0,6
1572967595103,553,HTTP Request - webapp - vm,200,OK,Performance web-app 1-209,true,,372,74,74,553,0,5
1572967595102,559,HTTP Request - webapp - vm,200,OK,Performance web-app 1-216,true,,372,73,73,559,0,6
1572967595104,565,HTTP Request - webapp - vm,200,OK,Performance web-app 1-181,true,,372,72,72,565,0,5
1572967595103,569,HTTP Request - webapp - vm,200,OK,Performance web-app 1-210,true,,372,72,72,569,0,6
1572967595103,583,HTTP Request - webapp - vm,200,OK,Performance web-app 1-211,true,,372,71,71,583,0,5
1572967595103,583,HTTP Request - webapp - vm,200,OK,Performance web-app 1-212,true,,372,71,71,583,0,6
1572967595155,531,HTTP Request - webapp - vm,200,OK,Performance web-app 1-224,true,,372,70,70,531,0,4
1572967595104,582,HTTP Request - webapp - vm,200,OK,Performance web-app 1-214,true,,372,68,68,582,0,5
1572967595059,628,HTTP Request - webapp - vm,200,OK,Performance web-app 1-213,true,,372,67,67,628,0,46
1572967594133,1598,HTTP Request - webapp - vm,200,OK,Performance web-app 1-248,true,,372,66,66,1598,0,2
1572967595152,579,HTTP Request - webapp - vm,200,OK,Performance web-app 1-170,true,,372,66,66,579,0,4
1572967595134,598,HTTP Request - webapp - vm,200,OK,Performance web-app 1-179,true,,372,66,66,598,0,3
1572967594125,1607,HTTP Request - webapp - vm,200,OK,Performance web-app 1-247,true,,372,66,66,1607,0,3
1572967595156,577,HTTP Request - webapp - vm,200,OK,Performance web-app 1-228,true,,372,64,64,577,0,3
1572967595218,515,HTTP Request - webapp - vm,200,OK,Performance web-app 1-233,true,,372,64,64,515,0,4
1572967595162,571,HTTP Request - webapp - vm,200,OK,Performance web-app 1-190,true,,372,63,63,571,0,2
1572967595219,514,HTTP Request - webapp - vm,200,OK,Performance web-app 1-232,true,,372,62,62,514,0,6
1572967595217,516,HTTP Request - webapp - vm,200,OK,Performance web-app 1-237,true,,372,61,61,516,0,5
1572967594087,1647,HTTP Request - webapp - vm,200,OK,Performance web-app 1-155,true,,372,59,59,1647,0,5
1572967594095,1639,HTTP Request - webapp - vm,200,OK,Performance web-app 1-243,true,,372,59,59,1639,0,2
1572967595219,516,HTTP Request - webapp - vm,200,OK,Performance web-app 1-225,true,,372,59,59,516,0,6
1572967595219,516,HTTP Request - webapp - vm,200,OK,Performance web-app 1-234,true,,372,58,58,516,0,6
1572967594087,1648,HTTP Request - webapp - vm,200,OK,Performance web-app 1-159,true,,372,57,57,1648,0,5
1572967595221,516,HTTP Request - webapp - vm,200,OK,Performance web-app 1-223,true,,372,57,57,516,0,5
1572967594223,1526,HTTP Request - webapp - vm,200,OK,Performance web-app 1-177,true,,372,56,56,1526,0,2
1572967594220,1529,HTTP Request - webapp - vm,200,OK,Performance web-app 1-111,true,,372,56,56,1529,0,2
1572967595219,542,HTTP Request - webapp - vm,200,OK,Performance web-app 1-222,true,,372,55,55,542,0,6
1572967594208,1555,HTTP Request - webapp - vm,200,OK,Performance web-app 1-173,true,,372,54,54,1555,0,2
1572967595258,515,HTTP Request - webapp - vm,200,OK,Performance web-app 1-238,true,,372,54,54,515,0,2
1572967595253,523,HTTP Request - webapp - vm,200,OK,Performance web-app 1-128,true,,372,53,53,523,0,5
1572967595264,514,HTTP Request - webapp - vm,200,OK,Performance web-app 1-244,true,,372,52,52,514,0,3
1572967595220,564,HTTP Request - webapp - vm,200,OK,Performance web-app 1-220,true,,372,51,51,564,0,6
1572967595320,464,HTTP Request - webapp - vm,200,OK,Performance web-app 1-129,true,,372,51,51,464,0,6
1572967594216,1571,HTTP Request - webapp - vm,200,OK,Performance web-app 1-174,true,,372,49,49,1571,0,3
1572967595219,614,HTTP Request - webapp - vm,200,OK,Performance web-app 1-235,true,,372,49,49,614,0,6
1572967595256,580,HTTP Request - webapp - vm,200,OK,Performance web-app 1-240,true,,372,48,48,580,0,3
1572967595272,565,HTTP Request - webapp - vm,200,OK,Performance web-app 1-191,true,,372,47,47,565,0,4
1572967595323,514,HTTP Request - webapp - vm,200,OK,Performance web-app 1-249,true,,372,47,47,514,0,7
1572967595326,511,HTTP Request - webapp - vm,200,OK,Performance web-app 1-250,true,,372,47,47,511,0,5
1572967595325,512,HTTP Request - webapp - vm,200,OK,Performance web-app 1-236,true,,372,46,46,512,0,6
1572967595324,514,HTTP Request - webapp - vm,200,OK,Performance web-app 1-245,true,,372,44,44,514,0,7
1572967595323,515,HTTP Request - webapp - vm,200,OK,Performance web-app 1-253,true,,372,44,44,515,0,7
1572967595323,515,HTTP Request - webapp - vm,200,OK,Performance web-app 1-256,true,,372,43,43,515,0,7
1572967595325,513,HTTP Request - webapp - vm,200,OK,Performance web-app 1-252,true,,372,42,42,513,0,6
1572967595364,474,HTTP Request - webapp - vm,200,OK,Performance web-app 1-231,true,,372,41,41,474,0,3
1572967595324,515,HTTP Request - webapp - vm,200,OK,Performance web-app 1-251,true,,372,40,40,515,0,6
1572967595369,470,HTTP Request - webapp - vm,200,OK,Performance web-app 1-221,true,,372,40,40,470,0,3
1572967595425,414,HTTP Request - webapp - vm,200,OK,Performance web-app 1-156,true,,372,39,39,414,0,10
1572967595362,477,HTTP Request - webapp - vm,200,OK,Performance web-app 1-227,true,,372,38,38,477,0,2
1572967595426,413,HTTP Request - webapp - vm,200,OK,Performance web-app 1-219,true,,372,37,37,413,0,9
1572967593784,2080,HTTP Request - webapp - vm,200,OK,Performance web-app 1-133,true,,372,35,35,2080,0,7
1572967595348,521,HTTP Request - webapp - vm,200,OK,Performance web-app 1-254,true,,372,35,35,521,0,4
1572967595542,333,HTTP Request - webapp - vm,200,OK,Performance web-app 1-151,true,,372,34,34,333,0,7
1572967593786,2090,HTTP Request - webapp - vm,200,OK,Performance web-app 1-82,true,,372,33,33,2090,0,6
1572967595541,342,HTTP Request - webapp - vm,200,OK,Performance web-app 1-229,true,,372,32,32,342,0,4
1572967595631,259,HTTP Request - webapp - vm,200,OK,Performance web-app 1-205,true,,372,32,32,259,0,4
1572967595541,350,HTTP Request - webapp - vm,200,OK,Performance web-app 1-141,true,,372,32,32,350,0,7
1572967595541,350,HTTP Request - webapp - vm,200,OK,Performance web-app 1-152,true,,372,32,32,350,0,7
1572967595456,481,HTTP Request - webapp - vm,200,OK,Performance web-app 1-230,true,,372,30,30,481,0,3
1572967595474,463,HTTP Request - webapp - vm,200,OK,Performance web-app 1-136,true,,372,30,30,463,0,3
1572967594629,1308,HTTP Request - webapp - vm,200,OK,Performance web-app 1-123,true,,372,30,30,1308,0,4
1572967594406,1531,HTTP Request - webapp - vm,200,OK,Performance web-app 1-125,true,,372,29,29,1531,0,3
1572967595670,268,HTTP Request - webapp - vm,200,OK,Performance web-app 1-181,true,,372,28,28,268,0,16
1572967595541,397,HTTP Request - webapp - vm,200,OK,Performance web-app 1-168,true,,372,27,27,397,0,4
1572967595632,306,HTTP Request - webapp - vm,200,OK,Performance web-app 1-140,true,,372,26,26,306,0,3
1572967595735,203,HTTP Request - webapp - vm,200,OK,Performance web-app 1-243,true,,372,25,25,203,0,4
1572967595543,396,HTTP Request - webapp - vm,200,OK,Performance web-app 1-218,true,,372,24,24,396,0,6
1572967595555,384,HTTP Request - webapp - vm,200,OK,Performance web-app 1-226,true,,372,24,24,384,0,5
1572967595326,613,HTTP Request - webapp - vm,200,OK,Performance web-app 1-195,true,,372,24,24,613,0,5
1572967595734,205,HTTP Request - webapp - vm,200,OK,Performance web-app 1-155,true,,372,24,24,205,0,5
1572967595324,615,HTTP Request - webapp - vm,200,OK,Performance web-app 1-241,true,,372,24,24,615,0,6
1572967595348,592,HTTP Request - webapp - vm,200,OK,Performance web-app 1-246,true,,372,24,24,592,0,4
1572967595749,191,HTTP Request - webapp - vm,200,OK,Performance web-app 1-177,true,,372,23,23,191,0,6
1572967595733,207,HTTP Request - webapp - vm,200,OK,Performance web-app 1-247,true,,372,23,23,207,0,6
1572967595326,614,HTTP Request - webapp - vm,200,OK,Performance web-app 1-255,true,,372,23,23,614,0,5
1572967595736,205,HTTP Request - webapp - vm,200,OK,Performance web-app 1-159,true,,372,23,23,205,0,3
1572967595764,177,HTTP Request - webapp - vm,200,OK,Performance web-app 1-173,true,,372,23,23,177,0,2
1572967595731,211,HTTP Request - webapp - vm,200,OK,Performance web-app 1-248,true,,372,16,16,211,0,8
1572967595839,114,HTTP Request - webapp - vm,200,OK,Performance web-app 1-231,true,,372,16,16,114,0,3
1572967595883,81,HTTP Request - webapp - vm,200,OK,Performance web-app 1-229,true,,372,15,15,81,0,3
1572967595942,22,HTTP Request - webapp - vm,200,OK,Performance web-app 1-248,true,,372,14,14,22,0,3
1572967595865,102,HTTP Request - webapp - vm,200,OK,Performance web-app 1-133,true,,372,13,13,102,0,2
1572967595937,37,HTTP Request - webapp - vm,200,OK,Performance web-app 1-230,true,,372,12,12,37,0,6
1572967595890,87,HTTP Request - webapp - vm,200,OK,Performance web-app 1-205,true,,372,11,11,87,0,50
1572967595837,143,HTTP Request - webapp - vm,200,OK,Performance web-app 1-191,true,,372,10,10,143,0,5
1572967595939,50,HTTP Request - webapp - vm,200,OK,Performance web-app 1-218,true,,372,9,9,50,0,5
1572967595941,49,HTTP Request - webapp - vm,200,OK,Performance web-app 1-247,true,,372,8,8,49,0,4
1572967595939,54,HTTP Request - webapp - vm,200,OK,Performance web-app 1-195,true,,372,7,7,54,0,6
1572967595427,612,HTTP Request - webapp - vm,200,OK,Performance web-app 1-138,true,,372,6,6,612,0,9
1572967595221,818,HTTP Request - webapp - vm,200,OK,Performance web-app 1-239,true,,372,6,6,818,0,5
1572967595938,100,HTTP Request - webapp - vm,200,OK,Performance web-app 1-243,true,,372,6,6,100,0,6
1572967595787,251,HTTP Request - webapp - vm,200,OK,Performance web-app 1-174,true,,372,6,6,251,0,8
1572967595326,712,HTTP Request - webapp - vm,200,OK,Performance web-app 1-132,true,,372,6,6,712,0,5
1572967595220,819,HTTP Request - webapp - vm,200,OK,Performance web-app 1-242,true,,372,6,6,819,0,6
